1_01,"Chào bạn , tôi đang nghe bạn hãy nói đi"
2_01,Tạm biệt .
3_01,"Bạn có thể nói các câu lệnh như [ "" bật nhạc "" hay "" nóng quá "" ] ."
3_02,Để hiểu thêm hãy xem danh sách gợi ý trên màn hình bằng cách nhấn vào biểu tượng dấu hỏi khi bạn đã dừng xe an toàn .
4_01,"Bạn có thể nói các câu lệnh như [ ""mở youtube "" hay ""mở google map "" ] ."
4_02,Để hiểu thêm hãy xem danh sách gợi ý trên màn hình bằng cách nhấn vào biểu tượng dấu hỏi khi bạn đã dừng xe an toàn .
5_01,"Xin lỗi , Vinfast chưa hỗ trợ tính nhắn tin , bạn có thể gọi Siri/Google Assistant qua Car play/Android Auto bằng cách nhấn giữ nút có biểu tượng thu âm trên vô lăng ."
6_01,"Bạn có thể nói các câu lệnh như [ "" Bật đài FM"" , hay "" chuyển kênh"" ] ."
6_02,Để hiểu thêm hãy xem danh sách gợi ý trên màn hình bằng cách nhấn vào biểu tượng dấu hỏi khi bạn đã dừng xe an toàn .
7_01,Đã đặt điều hòa 69 độ c hay 70 độ C
8_01,Đã bật điều hoà
9_01,Đã tắt điều hoà
10_01,Đã bật chế độ điều hoà tự động
11_01,Đã tắt chế độ điều hoà tự động
12_01,Đã bật chế độ điều hoà tối đa
13_01,Đã tắt chế độ điều hoà tối đa
14_01,Đã bật quạt gió
15_01,Đã tắt quạt gió
16_01,Đã đặt quạt gió mức 1
17_01,Đã đặt quạt gió mức 2
18_01,Đã đặt quạt gió mức 3
19_01,Đã đặt quạt gió mức 4
20_01,Đã đặt quạt gió mức 5
21_01,Đã đặt quạt gió mức 6
22_01,Đã tăng quạt gió lên 1 mức
23_01,Đã tăng quạt gió lên 2 mức
24_01,Đã tăng quạt gió lên 3 mức
25_01,Đã tăng quạt gió lên 4 mức
26_01,Đã tăng quạt gió lên 5 mức
27_01,Đã giảm quạt gió xuống 1 mức
28_01,Đã giảm quạt gió xuống 2 mức
29_01,Đã giảm quạt gió xuống 3 mức
30_01,Đã giảm quạt gió xuống 4 mức
31_01,Đã giảm quạt gió xuống 5 mức
32_01,Đã đặt quạt gió ở chế độ tự động
33_01,Đã lấy gió trong
34_01,Đã lấy gió ngoài
35_01,Đã lấy gió tự động
36_01,Đã bật lọc khí
37_01,Đã tắt lọc khí
38_01,Đã bật sấy cửa kính trước
39_01,Đã tắt sấy cửa kính trước
40_01,Đã bật sấy cửa kính sau
41_01,Đã tắt sấy cửa kính sau
42_01,Đã đặt quạt gió hướng chân và cửa kính trước
43_01,Đã đặt quạt gió hướng mặt
44_01,Đã đặt quạt gió hướng chân
45_01,Đã đặt quạt gió hướng mặt và chân
46_01,Đã đặt điều hoà lái 16 độ C
47_01,Đã đặt điều hoà lái 17 độ C
48_01,Đã đặt điều hoà lái 18 độ C
49_01,Đã đặt điều hoà lái 19 độ C
50_01,Đã đặt điều hoà lái 20 độ C
51_01,Đã đặt điều hoà lái 21 độ C
52_01,Đã đặt điều hoà lái 22 độ C
53_01,Đã đặt điều hoà lái 23 độ C
54_01,"Thời gian sạc cho đến khi dung lượng pin đầy là 3 giờ , 34 phút ."
55_01,"Thời gian sạc cho đến khi dung lượng pin đầy là 4 giờ , 14 phút ."
56_01,"Thời gian sạc cho đến khi dung lượng pin đầy là 4 giờ , 23 phút ."
57_01,Xe đang sạc .
58_01,Xe đang không sạc .
59_01,đang Gọi cho mẹ
60_01,Đang gọi cho John
