RA_0001,Radio hiện đang phát
RA_0002,Radio của bạn đã được bật
RA_0003,"Đài đang được phát tại kênh VOV FM, tần số 89"
RA_0004,"Đài đang được phát tại kênh VOV FM, tần số 702"
RA_0005,"Đài đang được phát tại kênh VOV1, tần số 100"
RA_0006,"Đài đang được phát tại kênh VOV1, tần số 675"
RA_0007,"Đài đang được phát tại kênh VOV3, tần số 102.7"
RA_0008,"Đài đang được phát tại kênh VOV3, tần số 616"
RA_0009,"Đài đang được phát tại kênh VOV 24/7, tần số 104"
RA_0010,"Đài đang được phát tại kênh VOV 24/7, tần số 101"
RA_0011,"Đài đang được phát tại kênh VOV5, tần số 105.5"
RA_0012,"Đài đang được phát tại kênh VOV5, tần số 12"
RA_0013,"Đài đang được phát tại kênh VOV2, tần số 96.5"
RA_0014,"Đài đang được phát tại kênh VOV2, tần số 549"
RA_0015,"Đài đang được phát tại kênh VOV2 HN, tần số 111"
RA_0016,"Đài đang được phát tại kênh VOV2 HN, tần số 120"
RA_0017,"Đài đang được phát tại kênh VOV3 HCM, tần số 511"
RA_0018,"Đài đang được phát tại kênh VOV3 HCM, tần số 87.5"
RA_0019,"Đài đang được phát tại kênh VOV Giao thông, tần số 91"
RA_0020,"Đài đang được phát tại kênh VOV BG, tần số 90.5"
RA_0021,"Đài đang được phát tại kênh VOV NB, tần số 222"
RA_0022,"Đài đang được phát tại kênh Radio Hà Nội, tần số 90"
RA_0023,"Đài đang được phát tại kênh Joy FM, tần số 98.9"
RA_0024,"Đài đang được phát tại kênh Xone FM, tần số 96"
RA_0025,"Đài đang được phát tại kênh VOH, tần số 95.6"
RA_0026,"Đài đang được phát tại kênh VOH FM, tần số 99.9"
RA_0027,Đã mở Radio của bạn
RA_0028,Radio đã được bật
RA_0029,"Đang phát radio tại 89 mhz, Sài gòn buổi sáng"
RA_0030,"Đang phát radio tại 702 mhz, Cuộc sống xanh"
RA_0031,"Đang phát radio tại 100 mhz, THỜI SỰ AM 610 KHZ"
RA_0032,"Đang phát radio tại 675 mhz, RADIO CÀ PHÊ"
RA_0033,"Đang phát radio tại 102.7 mhz, TOP 10 CA KHÚC QUỐC TẾ"
RA_0034,"Đang phát radio tại 616 mhz, QUÀ TẶNG THỨ 7"
RA_0035,"Đang phát radio tại 104 mhz, ACOUSTIC FM"
RA_0036,"Đang phát radio tại 101 mhz, CLB ĐỜN CA TÀI TỬ"
RA_0037,"Đang phát radio tại 105.5 mhz, thành phố lên đèn"
RA_0038,"Đang phát radio tại 12 mhz, hội nhập cùng nhà nông"
RA_0039,"Đang phát radio tại 96.5 mhz, hạnh phú cùng nhà nông"
RA_0040,"Đang phát radio tại 549 mhz, hội thi về thích ứng biến đổi khí hậu"
RA_0041,"Đang phát radio tại 111 mhz, khung hình thứ 25"
RA_0042,"Đang phát radio tại 120 mhz, TIẾP SÓNG FM99.9MHz"
RA_0043,"Đang phát radio tại 511 mhz, Warm up Xổ số kiến thiết"
RA_0044,"Đang phát radio tại 87.5 mhz, Rock on Radio"
RA_0045,Đài FM đã được bật
RA_0046,"Ok, đài FM của bạn đã được mở"
RA_0047,Đã phát đài FM tần số X
RA_0048,Đã phát đài FM tần số VOV FM
RA_0049,Đã phát đài FM tần số VOV FM
RA_0050,Đã phát đài FM tần số VOV1
RA_0051,Đã phát đài FM tần số VOV1
RA_0052,Đã phát đài FM tần số VOV3
RA_0053,Đã phát đài FM tần số VOV3
RA_0054,Đã phát đài FM tần số VOV 24/7
RA_0055,Đã phát đài FM tần số VOV 24/7
RA_0056,Đã phát đài FM tần số VOV5
RA_0057,Đã phát đài FM tần số VOV5
RA_0058,Đã phát đài FM tần số VOV2
RA_0059,Đã phát đài FM tần số VOV2
RA_0060,Đã phát đài FM tần số VOV2 HN
RA_0061,Đã phát đài FM tần số VOV2 HN
RA_0062,Đã phát đài FM tần số VOV3 HCM
RA_0063,Đã phát đài FM tần số VOV3 HCM
RA_0064,Đã phát đài FM tần số VOV Giao thông
RA_0065,Đã phát đài FM tần số VOV BG
RA_0066,Đã phát đài FM tần số VOV NB
RA_0067,Đã phát đài FM tần số Radio Hà Nội
RA_0068,Đã phát đài FM tần số Joy FM
RA_0069,Đã phát đài FM tần số Xone FM
RA_0070,Đã phát đài FM tần số VOH
RA_0071,Đài FM đang phát chương trình Sài gòn buổi sáng tần số 89 mhz
RA_0072,Đài FM đang phát chương trình Cuộc sống xanh tần số 702 mhz
RA_0073,Đài FM đang phát chương trình THỜI SỰ AM 610 KHZ tần số 100 mhz
RA_0074,Đài FM đang phát chương trình RADIO CÀ PHÊ tần số 675 mhz
RA_0075,Đài FM đang phát chương trình TOP 10 CA KHÚC QUỐC TẾ tần số 102.7 mhz
RA_0076,Đài FM đang phát chương trình QUÀ TẶNG THỨ 7 tần số 616 mhz
RA_0077,Đài FM đang phát chương trình ACOUSTIC FM tần số 104 mhz
RA_0078,Đài FM đang phát chương trình CLB ĐỜN CA TÀI TỬ tần số 101 mhz
RA_0079,Đài FM đang phát chương trình thành phố lên đèn tần số 105.5 mhz
RA_0080,Đài FM đang phát chương trình hội nhập cùng nhà nông tần số 12 mhz
RA_0081,Đài FM đang phát chương trình hạnh phú cùng nhà nông tần số 96.5 mhz
RA_0082,Đài FM đang phát chương trình hội thi về thích ứng biến đổi khí hậu tần số 549 mhz
RA_0083,Đài FM đang phát chương trình khung hình thứ 25 tần số 111 mhz
RA_0084,Đài FM đang phát chương trình TIẾP SÓNG FM99.9MHz tần số 120 mhz
RA_0085,Đài FM đang phát chương trình Warm up Xổ số kiến thiết tần số 511 mhz
RA_0086,Bạn đang nghe đài FM tần số 89 mhz
RA_0087,Bạn đang nghe đài FM tần số 702 mhz
RA_0088,Bạn đang nghe đài FM tần số 100 mhz
RA_0089,Bạn đang nghe đài FM tần số 675 mhz
RA_0090,Bạn đang nghe đài FM tần số 102.7 mhz
RA_0091,Bạn đang nghe đài FM tần số 616 mhz
RA_0092,Bạn đang nghe đài FM tần số 104 mhz
RA_0093,Bạn đang nghe đài FM tần số 101 mhz
RA_0094,Bạn đang nghe đài FM tần số 105.5 mhz
RA_0095,Bạn đang nghe đài FM tần số 12 mhz
RA_0096,Bạn đang nghe đài FM tần số 96.5 mhz
RA_0097,Bạn đang nghe đài FM tần số 549 mhz
RA_0098,Bạn đang nghe đài FM tần số 111 mhz
RA_0099,Bạn đang nghe đài FM tần số 120 mhz
RA_0100,Bạn đang nghe đài FM tần số 511 mhz
RA_0101,Đài FM đang phát chương trình Sài gòn buổi sáng
RA_0102,Đài FM đang phát chương trình Cuộc sống xanh
RA_0103,Đài FM đang phát chương trình THỜI SỰ AM 610 KHZ
RA_0104,Đài FM đang phát chương trình RADIO CÀ PHÊ
RA_0105,Đài FM đang phát chương trình TOP 10 CA KHÚC QUỐC TẾ
RA_0106,Đài FM đang phát chương trình QUÀ TẶNG THỨ 7
RA_0107,Đài FM đang phát chương trình ACOUSTIC FM
RA_0108,Đài FM đang phát chương trình CLB ĐỜN CA TÀI TỬ
RA_0109,Đài FM đang phát chương trình thành phố lên đèn
RA_0110,Đài FM đang phát chương trình hội nhập cùng nhà nông
RA_0111,Đài FM đang phát chương trình hạnh phú cùng nhà nông
RA_0112,Đài FM đang phát chương trình hội thi về thích ứng biến đổi khí hậu
RA_0113,Đài FM đang phát chương trình khung hình thứ 25
RA_0114,Đài FM đang phát chương trình TIẾP SÓNG FM99.9MHz
RA_0115,Đài FM đang phát chương trình Warm up Xổ số kiến thiết
RA_0116,Đài AM được bật
RA_0117,Hiện đang phát chương trình 10 phút sự kiện bàn luận tần số 89 mhz
RA_0118,Hiện đang phát chương trình Ngôi nhà ASEAN tần số 702 mhz
RA_0119,Hiện đang phát chương trình Quà tặng VOV1 tần số 100 mhz
RA_0120,Hiện đang phát chương trình Sự kiện âm nhạc 2019 tần số 675 mhz
RA_0121,Hiện đang phát chương trình Thức cùng VOV tần số 102.7 mhz
RA_0122,Hiện đang phát chương trình Diễn đàn VOV2 tần số 616 mhz
RA_0123,Hiện đang phát chương trình Đàn bà 30+ tần số 104 mhz
RA_0124,Hiện đang phát chương trình Khỏe & đẹp tần số 101 mhz
RA_0125,Hiện đang phát chương trình VOV2 - Nghe báo tần số 105.5 mhz
RA_0126,Hiện đang phát chương trình Âm nhạc 168 giờ tần số 12 mhz
RA_0127,Hiện đang phát chương trình Game Show tần số 96.5 mhz
RA_0128,Hiện đang phát chương trình V Pop tần số 549 mhz
RA_0129,Hiện đang phát chương trình VOVA Chắp cánh giai điệu á châu tần số 111 mhz
RA_0130,Hiện đang phát chương trình Happy Car tần số 120 mhz
RA_0131,Hiện đang phát chương trình Hát văn - ca trù - hát xẩm tần số 511 mhz
RA_0132,Hiện đang phát chương trình Âm nhạc với cuộc sống tần số 87.5 mhz
RA_0133,Hiện đang phát chương trình Bài ca chiến sĩ tần số 91 mhz
RA_0134,Hiện đang phát chương trình Bài ca đi cùng năm tháng tần số 90.5 mhz
RA_0135,Hiện đang phát chương trình Bài dân ca hay - đôi điều cảm nhận tần số 222 mhz
RA_0136,Hiện đang phát chương trình Bài hát mới thu thanh tần số 90 mhz
RA_0137,Hiện đang phát chương trình Bàn tròn âm nhạc tần số 98.9 mhz
RA_0138,Hiện đang phát chương trình Bàn tròn âm nhạc - Tác giả tác phẩm tần số 96 mhz
RA_0139,Hiện đang phát chương trình Bạn trẻ với dân ca tần số 95.6 mhz
RA_0140,Hiện đang phát chương trình Ca nhạc theo yêu cầu tần số 99.9 mhz
RA_0141,Hiện đang phát chương trình Ca cải lương tần số
RA_0142,Hiện đang phát chương trình Ca khúc dân gian tần số
RA_0143,Hiện đang phát chương trình Ca khúc tuyển chọn tần số
RA_0144,Hiện đang phát chương trình Ca khúc theo chủ đề tần số
RA_0145,Hiện đang phát chương trình Ca khúc trữ tình đêm khuya tần số
RA_0146,Hiện đang phát chương trình Ca khúc Việt Nam tần số
RA_0147,Hiện đang phát chương trình Ca nhạc chào bình minh tần số
RA_0148,Hiện đang phát chương trình Ca nhạc theo yêu cầu chiến sĩ tần số
RA_0149,Hiện đang phát chương trình Ca nhạc theo yêu cầu thính giả tần số
RA_0150,Hiện đang phát chương trình Ca nhạc thiếu nhi tần số
RA_0151,Hiện đang phát chương trình Ca nhạc trẻ tần số
RA_0152,Hiện đang phát chương trình Ca nhạc trẻ cuối tuần tần số
RA_0153,Hiện đang phát chương trình Cảm nhận bài hát được nhiều người yêu thích tần số
RA_0154,Hiện đang phát chương trình Câu lạc bộ âm nhạc tần số
RA_0155,Hiện đang phát chương trình Cover Hit tần số
RA_0156,Hiện đang phát chương trình Cung đàn quê hương tần số
RA_0157,Hiện đang phát chương trình Ca nhạc quốc tế tần số VOV1 10 phút sự kiện bàn luận
RA_0158,Hiện đang phát chương trình Ca nhạc thiếu nhi tần số VOV2 Ngôi nhà ASEAN
RA_0159,Hiện đang phát chương trình tần số VOV3 Quà tặng VOV1
RA_0160,Hiện đang phát chương trình tần số VOV4 Sự kiện âm nhạc 2019
RA_0161,Hiện đang phát chương trình tần số VOV5 Thức cùng VOV
RA_0162,Hiện đang phát chương trình tần số VOV6 Diễn đàn VOV2
RA_0163,Hiện đang phát chương trình tần số VOV Tiếng Anh 24/7 Đàn bà 30+
RA_0164,Đã mở đài AM thành công
RA_0165,Đang phát kênh VOV FM trên đài AM
RA_0166,Đang phát kênh VOV FM trên đài AM
RA_0167,Đang phát kênh VOV1 trên đài AM
RA_0168,Đang phát kênh VOV1 trên đài AM
RA_0169,Đang phát kênh VOV3 trên đài AM
RA_0170,Đang phát kênh VOV3 trên đài AM
RA_0171,Đang phát kênh VOV 24/7 trên đài AM
RA_0172,Đang phát kênh VOV 24/7 trên đài AM
RA_0173,Đang phát kênh VOV5 trên đài AM
RA_0174,Đang phát kênh VOV5 trên đài AM
RA_0175,Đang phát kênh VOV2 trên đài AM
RA_0176,Đang phát kênh VOV2 trên đài AM
RA_0177,Đang phát kênh VOV2 HN trên đài AM
RA_0178,Đang phát kênh VOV2 HN trên đài AM
RA_0179,Đang phát kênh VOV3 HCM trên đài AM
RA_0180,Đang phát kênh VOV3 HCM trên đài AM
RA_0181,Đang phát kênh VOV Giao thông trên đài AM
RA_0182,Đang phát kênh VOV BG trên đài AM
RA_0183,Đang phát kênh VOV NB trên đài AM
RA_0184,"Được thôi, đã mở đài AM"
RA_0185,Đang mở đài AM kênh VOV1
RA_0186,Đang mở đài AM kênh VOV2
RA_0187,Đang mở đài AM kênh VOV3
RA_0188,Đang mở đài AM kênh VOV4
RA_0189,Đang mở đài AM kênh VOV5
RA_0190,Đang mở đài AM kênh VOV6
RA_0191,Đang mở đài AM kênh VOV Tiếng Anh 24/7
RA_0192,Đang mở đài AM kênh VOV FM 89
RA_0193,Đang mở đài AM kênh VOV giao thông
RA_0194,Đang mở đài AM kênh VOV TV
RA_0195,Hiện tại không mở Radio
RA_0196,Đã chuyển kênh VOV FM tần số 89 mhz
RA_0197,Đã chuyển kênh VOV FM tần số 702 mhz
RA_0198,Đã chuyển kênh VOV1 tần số 100 mhz
RA_0199,Đã chuyển kênh VOV1 tần số 675 mhz
RA_0200,Đã chuyển kênh VOV3 tần số 102.7 mhz
RA_0201,Đã chuyển kênh VOV3 tần số 616 mhz
RA_0202,Đã chuyển kênh VOV 24/7 tần số 104 mhz
RA_0203,Đã chuyển kênh VOV 24/7 tần số 101 mhz
RA_0204,Đã chuyển kênh VOV5 tần số 105.5 mhz
RA_0205,Đã chuyển kênh VOV5 tần số 12 mhz
RA_0206,Đã chuyển kênh VOV2 tần số 96.5 mhz
RA_0207,Đã chuyển kênh VOV2 tần số 549 mhz
RA_0208,Đã chuyển kênh VOV2 HN tần số 111 mhz
RA_0209,Đã chuyển kênh VOV2 HN tần số 120 mhz
RA_0210,Đã chuyển kênh VOV3 HCM tần số 511 mhz
RA_0211,Đã chuyển kênh VOV3 HCM tần số 87.5 mhz
RA_0212,Đã chuyển kênh VOV Giao thông tần số 91 mhz
RA_0213,Đã chuyển kênh VOV BG tần số 90.5 mhz
RA_0214,Đã chuyển kênh VOV NB tần số 222 mhz
RA_0215,Đã chuyển kênh Radio Hà Nội tần số 90 mhz
RA_0216,Đã chuyển kênh Joy FM tần số 98.9 mhz
RA_0217,Đã chuyển kênh Xone FM tần số 96 mhz
RA_0218,Đã chuyển kênh VOH tần số 95.6 mhz
RA_0219,Đã chuyển kênh VOH FM tần số 99.9 mhz
RA_0220,Radio đang tắt
RA_0221,Đã chuyển kênh VOV FM với tần số 702 mhz
RA_0222,Đã chuyển kênh VOV1 với tần số 100 mhz
RA_0223,Đã chuyển kênh VOV1 với tần số 675 mhz
RA_0224,Đã chuyển kênh VOV3 với tần số 102.7 mhz
RA_0225,Đã chuyển kênh VOV3 với tần số 616 mhz
RA_0226,Đã chuyển kênh VOV 24/7 với tần số 104 mhz
RA_0227,Đã chuyển kênh VOV 24/7 với tần số 101 mhz
RA_0228,Đã chuyển kênh VOV5 với tần số 105.5 mhz
RA_0229,Đã chuyển kênh VOV5 với tần số 12 mhz
RA_0230,Đã chuyển kênh VOV2 với tần số 96.5 mhz
RA_0231,Đã chuyển kênh VOV2 với tần số 549 mhz
RA_0232,Đã chuyển kênh VOV2 HN với tần số 111 mhz
RA_0233,Đã chuyển kênh VOV2 HN với tần số 120 mhz
RA_0234,Đã chuyển kênh VOV3 HCM với tần số 511 mhz
RA_0235,Đã chuyển kênh VOV3 HCM với tần số 87.5 mhz
RA_0236,Đã chuyển kênh VOV Giao thông với tần số 91 mhz
RA_0237,Đã chuyển kênh VOV BG với tần số 90.5 mhz
RA_0238,Đã chuyển kênh VOV NB với tần số 222 mhz
RA_0239,Đã chuyển kênh Radio Hà Nội với tần số 90 mhz
RA_0240,Đã chuyển kênh Joy FM với tần số 98.9 mhz
RA_0241,Đã chuyển kênh Xone FM với tần số 96 mhz
RA_0242,Đã chuyển kênh VOH với tần số 95.6 mhz
RA_0243,Đã chuyển kênh VOH FM với tần số 99.9 mhz
RA_0244,Hiện đài đang chưa được bật
RA_0245,Đã chuyển đài sang kênh VOV FM tần số 89
RA_0246,Đã chuyển đài sang kênh VOV FM tần số 702
RA_0247,Đã chuyển đài sang kênh VOV1 tần số 100
RA_0248,Đã chuyển đài sang kênh VOV1 tần số 675
RA_0249,Đã chuyển đài sang kênh VOV3 tần số 102.7
RA_0250,Đã chuyển đài sang kênh VOV3 tần số 616
RA_0251,Đã chuyển đài sang kênh VOV 24/7 tần số 104
RA_0252,Đã chuyển đài sang kênh VOV 24/7 tần số 101
RA_0253,Đã chuyển đài sang kênh VOV5 tần số 105.5
RA_0254,Đã chuyển đài sang kênh VOV5 tần số 12
RA_0255,Đã chuyển đài sang kênh VOV2 tần số 96.5
RA_0256,Đã chuyển đài sang kênh VOV2 tần số 549
RA_0257,Đã chuyển đài sang kênh VOV2 HN tần số 111
RA_0258,Đã chuyển đài sang kênh VOV2 HN tần số 120
RA_0259,Đã chuyển đài sang kênh VOV3 HCM tần số 511
RA_0260,Đã chuyển đài sang kênh VOV3 HCM tần số 87.5
RA_0261,Đã chuyển đài sang kênh VOV Giao thông tần số 91
RA_0262,Đã chuyển đài sang kênh VOV BG tần số 90.5
RA_0263,Đã chuyển đài sang kênh VOV NB tần số 222
RA_0264,Đã chuyển đài sang kênh Radio Hà Nội tần số 90
RA_0265,Đã chuyển đài sang kênh Joy FM tần số 98.9
RA_0266,Đã chuyển đài sang kênh Xone FM tần số 96
RA_0267,Đã chuyển đài sang kênh VOH tần số 95.6
RA_0268,Đã chuyển đài sang kênh VOH FM tần số 99.9
RA_0269,Hiện tại không mở Radio
RA_0270,Đã chuyển kênh VOV1 tần số 89
RA_0271,Đã chuyển kênh VOV2 tần số 702
RA_0272,Đã chuyển kênh VOV3 tần số 100
RA_0273,Đã chuyển kênh VOV4 tần số 675
RA_0274,Đã chuyển kênh VOV5 tần số 102.7
RA_0275,Đã chuyển kênh VOV6 tần số 616
RA_0276,Đã chuyển kênh VOV Tiếng Anh 24/7 tần số 104
RA_0277,Đã chuyển kênh VOV FM 89 tần số 101
RA_0278,Đã chuyển kênh VOV giao thông tần số 105.5
RA_0279,Đã chuyển kênh VOV TV tần số 12
RA_0280,Đài đang tắt
RA_0281,Đã chuyển về kênh trước
RA_0282,Radio đang tắt
RA_0283,Đài đã chuyển về kênh VOV1 tần số 89
RA_0284,Đài đã chuyển về kênh VOV2 tần số 702
RA_0285,Đài đã chuyển về kênh VOV3 tần số 100
RA_0286,Đài đã chuyển về kênh VOV4 tần số 675
RA_0287,Đài đã chuyển về kênh VOV5 tần số 102.7
RA_0288,Đài đã chuyển về kênh VOV6 tần số 616
RA_0289,Đài đã chuyển về kênh VOV Tiếng Anh 24/7 tần số 104
RA_0290,Đài đã chuyển về kênh VOV FM 89 tần số 101
RA_0291,Đài đã chuyển về kênh VOV giao thông tần số 105.5
RA_0292,Đài đã chuyển về kênh VOV TV tần số 12
RA_0293,Đài bạn yêu cầu không tìm thấy
RA_0294,Đài FM đã được Bật
RA_0295,Đài AM đã được Bật
RA_0296,Không dò được tần số bạn yêu cầu. Bạn có thể thử lại với tên kênh nào đó
RA_0297,Đã bật đài tần số 89
RA_0298,Đã bật đài tần số 702
RA_0299,Đã bật đài tần số 100
RA_0300,Đã bật đài tần số 675
RA_0301,Đã bật đài tần số 102.7
RA_0302,Đã bật đài tần số 616
RA_0303,Đã bật đài tần số 104
RA_0304,Đã bật đài tần số 101
RA_0305,Đã bật đài tần số 105.5
RA_0306,Đã bật đài tần số 12
RA_0307,Đã bật đài tần số 96.5
RA_0308,Đã bật đài tần số 549
RA_0309,Đã bật đài tần số 111
RA_0310,Đã bật đài tần số 120
RA_0311,Đã bật đài tần số 511
RA_0312,Đã bật đài tần số 87.5
RA_0313,Đã bật đài tần số 91
RA_0314,Đã bật đài tần số 90.5
RA_0315,"Rât tiếc, không có kênh nào như bạn yêu cầu được tìm thấy"
RA_0316,"Tất nhiên là được, tôi đang bật kênh VOV FM cho bạn."
RA_0317,"Tất nhiên là được, tôi đang bật kênh VOV FM cho bạn."
RA_0318,"Tất nhiên là được, tôi đang bật kênh VOV1 cho bạn."
RA_0319,"Tất nhiên là được, tôi đang bật kênh VOV1 cho bạn."
RA_0320,"Tất nhiên là được, tôi đang bật kênh VOV3 cho bạn."
RA_0321,"Tất nhiên là được, tôi đang bật kênh VOV3 cho bạn."
RA_0322,"Tất nhiên là được, tôi đang bật kênh VOV 24/7 cho bạn."
RA_0323,"Tất nhiên là được, tôi đang bật kênh VOV 24/7 cho bạn."
RA_0324,"Tất nhiên là được, tôi đang bật kênh VOV5 cho bạn."
RA_0325,"Tất nhiên là được, tôi đang bật kênh VOV5 cho bạn."
RA_0326,"Tất nhiên là được, tôi đang bật kênh VOV2 cho bạn."
RA_0327,"Tất nhiên là được, tôi đang bật kênh VOV2 cho bạn."
RA_0328,"Tất nhiên là được, tôi đang bật kênh VOV2 HN cho bạn."
RA_0329,"Tất nhiên là được, tôi đang bật kênh VOV2 HN cho bạn."
RA_0330,"Tất nhiên là được, tôi đang bật kênh VOV3 HCM cho bạn."
RA_0331,"Tất nhiên là được, tôi đang bật kênh VOV3 HCM cho bạn."
RA_0332,"Tất nhiên là được, tôi đang bật kênh VOV Giao thông cho bạn."
RA_0333,"Tất nhiên là được, tôi đang bật kênh VOV BG cho bạn."
RA_0334,???
RA_0335,Tần số cần tìm không có ở đài AM
RA_0336,Đài AM tần số 89 đã được bật
RA_0337,Đài AM tần số 702 đã được bật
RA_0338,Đài AM tần số 100 đã được bật
RA_0339,Đài AM tần số 675 đã được bật
RA_0340,Đài AM tần số 102.7 đã được bật
RA_0341,Đài AM tần số 616 đã được bật
RA_0342,Đài AM tần số 104 đã được bật
RA_0343,Đài AM tần số 101 đã được bật
RA_0344,Đài AM tần số 105.5 đã được bật
RA_0345,Đài AM tần số 12 đã được bật
RA_0346,Đài AM tần số 96.5 đã được bật
RA_0347,Đài AM tần số 549 đã được bật
RA_0348,Đài AM tần số 111 đã được bật
RA_0349,Đài AM tần số 120 đã được bật
RA_0350,Đài AM tần số 511 đã được bật
RA_0351,Đài AM tần số 87.5 đã được bật
RA_0352,Đài AM tần số 91 đã được bật
RA_0353,Đài AM tần số 90.5 đã được bật
RA_0354,Không dò được tần số bạn yêu cầu. Bạn có thể thử lại với kênh khác
RA_0355,Đài AM tần số 89
RA_0356,Đài AM tần số 702
RA_0357,Đài AM tần số 100
RA_0358,Đài AM tần số 675
RA_0359,Đài AM tần số 102.7
RA_0360,Đài AM tần số 616
RA_0361,Đài AM tần số 104
RA_0362,Đài AM tần số 101
RA_0363,Đài AM tần số 105.5
RA_0364,Đài AM tần số 12
RA_0365,Đài AM tần số 96.5
RA_0366,Đài AM tần số 549
RA_0367,Đài AM tần số 111
RA_0368,Đài AM tần số 120
RA_0369,Đài AM tần số 511
RA_0370,Đài AM tần số 87.5
RA_0371,Đài AM tần số 91
RA_0372,Đài AM tần số 90.5
RA_0373,Tôi không tìm thấy tần số bạn muốn trên đài FM
RA_0374,"Đài AM đang phát tần số 89, hãy thưởng thức nhé"
RA_0375,"Đài AM đang phát tần số 702, hãy thưởng thức nhé"
RA_0376,"Đài AM đang phát tần số 100, hãy thưởng thức nhé"
RA_0377,"Đài AM đang phát tần số 675, hãy thưởng thức nhé"
RA_0378,"Đài AM đang phát tần số 102.7, hãy thưởng thức nhé"
RA_0379,"Đài AM đang phát tần số 616, hãy thưởng thức nhé"
RA_0380,"Đài AM đang phát tần số 104, hãy thưởng thức nhé"
RA_0381,"Đài AM đang phát tần số 101, hãy thưởng thức nhé"
RA_0382,"Đài AM đang phát tần số 105.5, hãy thưởng thức nhé"
RA_0383,"Đài AM đang phát tần số 12, hãy thưởng thức nhé"
RA_0384,"Đài AM đang phát tần số 96.5, hãy thưởng thức nhé"
RA_0385,"Đài AM đang phát tần số 549, hãy thưởng thức nhé"
RA_0386,"Đài AM đang phát tần số 111, hãy thưởng thức nhé"
RA_0387,"Đài AM đang phát tần số 120, hãy thưởng thức nhé"
RA_0388,"Đài AM đang phát tần số 511, hãy thưởng thức nhé"
RA_0389,"Đài AM đang phát tần số 87.5, hãy thưởng thức nhé"
RA_0390,"Đài AM đang phát tần số 91, hãy thưởng thức nhé"
RA_0391,"Đài AM đang phát tần số 90.5, hãy thưởng thức nhé"
RA_0392,Tần số cần tìm không có ở đài FM
RA_0393,Đài FM tần số 89 đã được bật
RA_0394,Đài FM tần số 702 đã được bật
RA_0395,Đài FM tần số 100 đã được bật
RA_0396,Đài FM tần số 675 đã được bật
RA_0397,Đài FM tần số 102.7 đã được bật
RA_0398,Đài FM tần số 616 đã được bật
RA_0399,Đài FM tần số 104 đã được bật
RA_0400,Đài FM tần số 101 đã được bật
RA_0401,Đài FM tần số 105.5 đã được bật
RA_0402,Đài FM tần số 12 đã được bật
RA_0403,Đài FM tần số 96.5 đã được bật
RA_0404,Đài FM tần số 549 đã được bật
RA_0405,Đài FM tần số 111 đã được bật
RA_0406,Đài FM tần số 120 đã được bật
RA_0407,Đài FM tần số 511 đã được bật
RA_0408,Đài FM tần số 87.5 đã được bật
RA_0409,Đài FM tần số 91 đã được bật
RA_0410,Đài FM tần số 90.5 đã được bật
RA_0411,Đài FM tần số 89
RA_0412,Đài FM tần số 702
RA_0413,Đài FM tần số 100
RA_0414,Đài FM tần số 675
RA_0415,Đài FM tần số 102.7
RA_0416,Đài FM tần số 616
RA_0417,Đài FM tần số 104
RA_0418,Đài FM tần số 101
RA_0419,Đài FM tần số 105.5
RA_0420,Đài FM tần số 12
RA_0421,Đài FM tần số 96.5
RA_0422,Đài FM tần số 549
RA_0423,Đài FM tần số 111
RA_0424,Đài FM tần số 120
RA_0425,Đài FM tần số 511
RA_0426,Đài FM tần số 87.5
RA_0427,Đài FM tần số 91
RA_0428,Đài FM tần số 90.5
RA_0429,Đài FM tần số 222
RA_0430,"Xin lỗi, đài FM không có tần số bạn yêu cầu. Vui lòng lựa chọn lại nhé."
RA_0431,"Đài FM đang phát tần số 89, hãy thưởng thức nhé"
RA_0432,"Đài FM đang phát tần số 702, hãy thưởng thức nhé"
RA_0433,"Đài FM đang phát tần số 100, hãy thưởng thức nhé"
RA_0434,"Đài FM đang phát tần số 675, hãy thưởng thức nhé"
RA_0435,"Đài FM đang phát tần số 102.7, hãy thưởng thức nhé"
RA_0436,"Đài FM đang phát tần số 616, hãy thưởng thức nhé"
RA_0437,"Đài FM đang phát tần số 104, hãy thưởng thức nhé"
RA_0438,"Đài FM đang phát tần số 101, hãy thưởng thức nhé"
RA_0439,"Đài FM đang phát tần số 105.5, hãy thưởng thức nhé"
RA_0440,"Đài FM đang phát tần số 12, hãy thưởng thức nhé"
RA_0441,"Đài FM đang phát tần số 96.5, hãy thưởng thức nhé"
RA_0442,"Đài FM đang phát tần số 549, hãy thưởng thức nhé"
RA_0443,"Đài FM đang phát tần số 111, hãy thưởng thức nhé"
RA_0444,"Đài FM đang phát tần số 120, hãy thưởng thức nhé"
RA_0445,"Đài FM đang phát tần số 511, hãy thưởng thức nhé"
RA_0446,"Đài FM đang phát tần số 87.5, hãy thưởng thức nhé"
RA_0447,"Đài FM đang phát tần số 91, hãy thưởng thức nhé"
RA_0448,"Đài FM đang phát tần số 90.5, hãy thưởng thức nhé"
RA_0449,Vui lòng chọn số thứ tự được hiển thị
RA_0450,Tìm thấy 2 kết quả dưới đây. Bạn muốn nghe kênh thứ mấy
RA_0451,Tìm thấy 3 kết quả dưới đây. Bạn muốn nghe kênh thứ mấy
RA_0452,Tìm thấy 4 kết quả dưới đây. Bạn muốn nghe kênh thứ mấy
RA_0453,Tìm thấy 5 kết quả dưới đây. Bạn muốn nghe kênh thứ mấy
RA_0454,Tìm thấy 6 kết quả dưới đây. Bạn muốn nghe kênh thứ mấy
RA_0455,Tìm thấy 7 kết quả dưới đây. Bạn muốn nghe kênh thứ mấy
RA_0456,Tìm thấy 8 kết quả dưới đây. Bạn muốn nghe kênh thứ mấy
RA_0457,Tìm thấy 9 kết quả dưới đây. Bạn muốn nghe kênh thứ mấy
RA_0458,Tìm thấy 10 kết quả dưới đây. Bạn muốn nghe kênh thứ mấy
RA_0459,Tìm thấy 11 kết quả dưới đây. Bạn muốn nghe kênh thứ mấy
RA_0460,Tìm thấy 12 kết quả dưới đây. Bạn muốn nghe kênh thứ mấy
RA_0461,Tìm thấy 13 kết quả dưới đây. Bạn muốn nghe kênh thứ mấy
RA_0462,Tìm thấy 14 kết quả dưới đây. Bạn muốn nghe kênh thứ mấy
RA_0463,Tìm thấy 15 kết quả dưới đây. Bạn muốn nghe kênh thứ mấy
RA_0464,Tìm thấy 16 kết quả dưới đây. Bạn muốn nghe kênh thứ mấy
RA_0465,Tìm thấy 17 kết quả dưới đây. Bạn muốn nghe kênh thứ mấy
RA_0466,Tìm thấy 18 kết quả dưới đây. Bạn muốn nghe kênh thứ mấy
RA_0467,Tìm thấy 19 kết quả dưới đây. Bạn muốn nghe kênh thứ mấy
RA_0468,Tìm thấy 20 kết quả dưới đây. Bạn muốn nghe kênh thứ mấy
RA_0469,Không tim thấy kênh phù hợp
RA_0470,Không tìm thấy kênh bạn yêu cầu
RA_0471,"Xin lỗi số thứ tự không hợp lệ, Bạn vui lòng nói các số thứ tự theo danh sách hoặc thao tác trên màn hình"
RA_0472,Hiện không có đài nào trong danh sách yêu thích
RA_0473,Kênh đang phát đã nằm trong danh sách yêu thích
RA_0474,Kênh hiện tại đang ở danh sách yêu thích
RA_0475,Kênh hiện tại đang ở danh sách yêu thích
RA_0476,Danh sách yêu thích hiện đang trống
RA_0477,Đã tồn tại kênh trong danh sách yêu thích
RA_0478,Radio đã tắt
RA_0479,Kênh đang phát đã có trong danh sách yêu thích
RA_0480,Kênh đang phát đã được thêm bài danh sách yêu thích
RA_0481,Bạn chưa bật đài nên không thể thực hiện lệnh này
RA_0482,Kênh hiện tại đã ở danh sách yêu thích
RA_0483, Đã thêm kênh hiện tại vào danh sách đài yêu thích
RA_0484,Hiện vẫn chưa bật đài
RA_0485,Kênh đã nằm trong danh sách yêu thích
RA_0486,Kênh đã được thêm vào danh sách yêu thích
RA_0487,Hiện tại chưa mở Radio
RA_0488,Lỗi hệ thống
RA_0489,Radio đang tắt
RA_0490,"Lỗi hệ thống, yêu cầu của bạn không thể thực hiện"
RA_0491,"Hiện đài chưa bật, bạn muốn nghe kênh nào?"
RA_0492,"Xin lỗi, hệ thống đang lỗi"
