id,input,norm
ME_0001,Đã bật chế độ phát lại 1 bài,đã bật chế độ phát lại một bài .
ME_0002,Đã bật chế độ phát lại ,đã bật chế độ phát lại .
ME_0003,vâng ạ,vâng ạ .
ME_0004,Đã bật chế độ phát lại toàn bộ,đã bật chế độ phát lại toàn bộ .
ME_0005,Đã bật chế độ phát lại toàn bộ,đã bật chế độ phát lại toàn bộ .
ME_0006,Hiện không phát nhạc,hiện không phát nhạc .
ME_0007,Chức năng này hiện tại chỉ hỗ trợ trên USB,chức năng này hiện tại chỉ hỗ trợ trên usb .
ME_0008,Hiện đang không phát nhạc,hiện đang không phát nhạc .
ME_0009,Hiện tại chỉ hỗ trợ chức năng này khi phát nhạc từ USB. Bạn có thể chuyển qua nguồn phát USB để thực hiện lệnh này.,hiện tại chỉ hỗ trợ chức năng này khi phát nhạc từ usb . bạn có thể chuyển qua nguồn phát usb để thực hiện lệnh này .
ME_0010,Hiện tại nhạc chưa được phát,hiện tại nhạc chưa được phát .
ME_0011,Tính năng chỉ hỗ trợ với usb,tính năng chỉ hỗ trợ với usb .
ME_0012,Chế độ trộn bài đã được bật,chế độ trộn bài đã được bật .
ME_0013,Hiện chưa phát nhạc,hiện chưa phát nhạc .
ME_0014,Chức năng chỉ hỗ trợ cho USB,chức năng chỉ hỗ trợ cho usb .
ME_0015,Bài hát/danh sách của bạn đã được phát lặp lại,bài hát danh sách của bạn đã được phát lặp lại .
ME_0016,Hiện tại đang không phát nhạc,hiện tại đang không phát nhạc .
ME_0017,Tôi đã bật chế độ trộn bài,tôi đã bật chế độ trộn bài .
ME_0018,Nhạc chưa được bật ,nhạc chưa được bật .
ME_0019,Chức năng này chỉ khả dụng trên thiết bị USB,chức năng này chỉ khả dụng trên thiết bị usb .
ME_0020,Chế độ phát lại đã tắt,chế độ phát lại đã tắt .
ME_0021,Hiện tại chỉ hỗ trợ chức năng này cho USB,hiện tại chỉ hỗ trợ chức năng này cho usb .
ME_0022,Đã tắt thành công,đã tắt thành công .
ME_0023,Đã rõ,đã rõ .
ME_0024,Nhạc chưa được bật,nhạc chưa được bật .
ME_0025,Chế độ trộn bài đã được tắt,chế độ trộn bài đã được tắt .
ME_0026,Đã tắt chế độ trộn bài,đã tắt chế độ trộn bài .
ME_0027,Hiện chưa phát nhạc,hiện chưa phát nhạc .
ME_0028,Hiện chưa phát nhạc,hiện chưa phát nhạc .
ME_0029,Hiện chưa phát nhạc,hiện chưa phát nhạc .
ME_0030,Hiện tại đang không mở nhạc,hiện tại đang không mở nhạc .
ME_0031,Nhạc đang không bật,nhạc đang không bật .
ME_0032,Nhạc đang chưa bật,nhạc đang chưa bật .
ME_0033,Âm nhạc đang tắt,âm nhạc đang tắt .
ME_0034,Hiện không tìm thấy nguồn phát nhạc nào,hiện không tìm thấy nguồn phát nhạc nào .
ME_0035,Không tìm thấy nguồn phát nhạc nào khả dụng. ,không tìm thấy nguồn phát nhạc nào khả dụng .
ME_0036,Không có nguồn nhạc nào hoạt động,không có nguồn nhạc nào hoạt động .
ME_0037,Vui lòng kết nối USB để trải nghiệm chức năng,vui lòng kết nối usb để trải nghiệm chức năng .
ME_0038,"Ứng dụng bạn yêu cầu khồng khả dụng. Vui lòng kết nối USB/BLT/AA/AC
để sự dụng tính năng này",ứng dụng bạn yêu cầu khồng khả dụng . vui lòng kết nối usb blt aa ac . để sự dụng tính năng này .
ME_0039,"Không tìm thấy USB/BLT/AA/AC, vui lòng kết nối USB/BLT/AA/AC để sự dụng tính năng này","không tìm thấy usb blt aa ac  ,  vui lòng kết nối usb blt aa ac để sự dụng tính năng này ."
ME_0040,Hiện trong USB không có bài hát nào,hiện trong usb không có bài hát nào .
ME_0041,Không tìm thấy bài hát nào trong USB,không tìm thấy bài hát nào trong usb .
ME_0042,Trong USB không có bài hát nào,trong usb không có bài hát nào .
ME_0043,Vui lòng kết nối USB để tìm kiếm,vui lòng kết nối usb để tìm kiếm .
ME_0044,Hiện không tìm thấy bài nhạc nào trong USB,hiện không tìm thấy bài nhạc nào trong usb .
ME_0045,Hãy đọc thứ tự bài hát bạn muốn nghe ,hãy đọc thứ tự bài hát bạn muốn nghe .
ME_0046,Hiện tại chỉ hỗ trợ tìm kiếm bài hát từ USB. Bạn có thể chuyển qua nguồn phát USB để thực hiện lệnh này.,hiện tại chỉ hỗ trợ tìm kiếm bài hát từ usb . bạn có thể chuyển qua nguồn phát usb để thực hiện lệnh này .
ME_0047,Không tìm thấy bài hát bạn yêu cầu. Bạn có thế thử lại với từ khóa khác,không tìm thấy bài hát bạn yêu cầu . bạn có thế thử lại với từ khóa khác .
ME_0048,Tìm thấy 1 kết quả dưới đây. Bạn muốn nghe album thứ mấy?,tìm thấy một kết quả dưới đây . bạn muốn nghe album thứ mấy  .
ME_0049,Tìm thấy 10 kết quả dưới đây. Bạn muốn nghe album thứ mấy?,tìm thấy mười kết quả dưới đây . bạn muốn nghe album thứ mấy  .
ME_0050,Tìm thấy 11 kết quả dưới đây. Bạn muốn nghe album thứ mấy?,tìm thấy mười một kết quả dưới đây . bạn muốn nghe album thứ mấy  .
ME_0051,Tìm thấy 12 kết quả dưới đây. Bạn muốn nghe album thứ mấy?,tìm thấy mười hai kết quả dưới đây . bạn muốn nghe album thứ mấy  .
ME_0052,Tìm thấy 13 kết quả dưới đây. Bạn muốn nghe album thứ mấy?,tìm thấy mười ba kết quả dưới đây . bạn muốn nghe album thứ mấy  .
ME_0053,Tìm thấy 14 kết quả dưới đây. Bạn muốn nghe album thứ mấy?,tìm thấy mười bốn kết quả dưới đây . bạn muốn nghe album thứ mấy  .
ME_0054,Tìm thấy 15 kết quả dưới đây. Bạn muốn nghe album thứ mấy?,tìm thấy mười lăm kết quả dưới đây . bạn muốn nghe album thứ mấy  .
ME_0055,Tìm thấy 16 kết quả dưới đây. Bạn muốn nghe album thứ mấy?,tìm thấy mười sáu kết quả dưới đây . bạn muốn nghe album thứ mấy  .
ME_0056,Tìm thấy 17 kết quả dưới đây. Bạn muốn nghe album thứ mấy?,tìm thấy mười bảy kết quả dưới đây . bạn muốn nghe album thứ mấy  .
ME_0057,Tìm thấy 18 kết quả dưới đây. Bạn muốn nghe album thứ mấy?,tìm thấy mười tám kết quả dưới đây . bạn muốn nghe album thứ mấy  .
ME_0058,Tìm thấy 19 kết quả dưới đây. Bạn muốn nghe album thứ mấy?,tìm thấy mười chín kết quả dưới đây . bạn muốn nghe album thứ mấy  .
ME_0059,Tìm thấy 2 kết quả dưới đây. Bạn muốn nghe album thứ mấy?,tìm thấy hai kết quả dưới đây . bạn muốn nghe album thứ mấy  .
ME_0060,Tìm thấy 3 kết quả dưới đây. Bạn muốn nghe album thứ mấy?,tìm thấy ba kết quả dưới đây . bạn muốn nghe album thứ mấy  .
ME_0061,Tìm thấy 4 kết quả dưới đây. Bạn muốn nghe album thứ mấy?,tìm thấy bốn kết quả dưới đây . bạn muốn nghe album thứ mấy  .
ME_0062,Tìm thấy 5 kết quả dưới đây. Bạn muốn nghe album thứ mấy?,tìm thấy năm kết quả dưới đây . bạn muốn nghe album thứ mấy  .
ME_0063,Tìm thấy 6 kết quả dưới đây. Bạn muốn nghe album thứ mấy?,tìm thấy sáu kết quả dưới đây . bạn muốn nghe album thứ mấy  .
ME_0064,Để có thể thực hiện tính năng này vui lòng kết nối USB,để có thể thực hiện tính năng này vui lòng kết nối usb .
ME_0065,Bài hát bạn yêu cầu không tồn tại,bài hát bạn yêu cầu không tồn tại .
ME_0066,Kết quả tìm kiếm hiển thị trên màn hình. Vui lòng chọn số thứ tự bạn muốn nghe.,kết quả tìm kiếm hiển thị trên màn hình . vui lòng chọn số thứ tự bạn muốn nghe .
ME_0067,Vui lòng kết nối USB để tìm kiếm,vui lòng kết nối usb để tìm kiếm .
ME_0068,Hiện không tìm thấy nghệ sĩ được yêu cầu từ nguồn USB,hiện không tìm thấy nghệ sĩ được yêu cầu từ nguồn usb .
ME_0069,Không tìm thấy nghệ sĩ bạn yêu cầu. Bạn có thế thử lại với từ khóa khác,không tìm thấy nghệ sĩ bạn yêu cầu . bạn có thế thử lại với từ khóa khác .
ME_0070,Nghệ sĩ bạn yêu cầu không tồn tại,nghệ sĩ bạn yêu cầu không tồn tại .
ME_0071,Tìm thấy 2 kết quả dưới đây. Bạn muốn nghe nghế sĩ thứ mấy?,tìm thấy hai kết quả dưới đây . bạn muốn nghe nghế sĩ thứ mấy  .
ME_0072,Tìm thấy 12kết quả dưới đây. Bạn muốn nghe nghế sĩ thứ mấy?,tìm thấy mười hai kết quả dưới đây . bạn muốn nghe nghế sĩ thứ mấy  .
ME_0073,Tìm thấy 34 kết quả dưới đây. Bạn muốn nghe nghế sĩ thứ mấy?,tìm thấy ba mươi bốn kết quả dưới đây . bạn muốn nghe nghế sĩ thứ mấy  .
ME_0074,Tìm thấy 4 kết quả dưới đây. Bạn muốn nghe nghế sĩ thứ mấy?,tìm thấy bốn kết quả dưới đây . bạn muốn nghe nghế sĩ thứ mấy  .
ME_0075,Tìm thấy 45 kết quả dưới đây. Bạn muốn nghe nghế sĩ thứ mấy?,tìm thấy bốn mươi lăm kết quả dưới đây . bạn muốn nghe nghế sĩ thứ mấy  .
ME_0076,Tìm thấy 6 kết quả dưới đây. Bạn muốn nghe nghế sĩ thứ mấy?,tìm thấy sáu kết quả dưới đây . bạn muốn nghe nghế sĩ thứ mấy  .
ME_0077,Tìm thấy 74 kết quả dưới đây. Bạn muốn nghe nghế sĩ thứ mấy?,tìm thấy bảy mươi bốn kết quả dưới đây . bạn muốn nghe nghế sĩ thứ mấy  .
ME_0078,Tìm thấy 23 kết quả dưới đây. Bạn muốn nghe nghế sĩ thứ mấy?,tìm thấy hai mươi ba kết quả dưới đây . bạn muốn nghe nghế sĩ thứ mấy  .
ME_0079,Tìm thấy 7 kết quả dưới đây. Bạn muốn nghe nghế sĩ thứ mấy?,tìm thấy bảy kết quả dưới đây . bạn muốn nghe nghế sĩ thứ mấy  .
ME_0080,Tìm thấy 56 kết quả dưới đây. Bạn muốn nghe nghế sĩ thứ mấy?,tìm thấy năm mươi sáu kết quả dưới đây . bạn muốn nghe nghế sĩ thứ mấy  .
ME_0081,Tìm thấy 73 kết quả dưới đây. Bạn muốn nghe nghế sĩ thứ mấy?,tìm thấy bảy mươi ba kết quả dưới đây . bạn muốn nghe nghế sĩ thứ mấy  .
ME_0082,Tìm thấy 19 kết quả dưới đây. Bạn muốn nghe nghế sĩ thứ mấy?,tìm thấy mười chín kết quả dưới đây . bạn muốn nghe nghế sĩ thứ mấy  .
ME_0083,Tìm thấy 43 kết quả dưới đây. Bạn muốn nghe nghế sĩ thứ mấy?,tìm thấy bốn mươi ba kết quả dưới đây . bạn muốn nghe nghế sĩ thứ mấy  .
ME_0084,Tìm thấy 63 kết quả dưới đây. Bạn muốn nghe nghế sĩ thứ mấy?,tìm thấy sáu mươi ba kết quả dưới đây . bạn muốn nghe nghế sĩ thứ mấy  .
ME_0085,Tìm thấy 20 kết quả dưới đây. Bạn muốn nghe nghế sĩ thứ mấy?,tìm thấy hai mươi kết quả dưới đây . bạn muốn nghe nghế sĩ thứ mấy  .
ME_0086,Vui lòng kết nối USB để tìm kiếm,vui lòng kết nối usb để tìm kiếm .
ME_0087,Hiện không tìm thấy album được yêu cầu trong USB,hiện không tìm thấy album được yêu cầu trong usb .
ME_0088,Không tìm thấy Album bạn yêu cầu. Bạn có thế thử lại với từ khóa khác,không tìm thấy album bạn yêu cầu . bạn có thế thử lại với từ khóa khác .
ME_0089,Album bạn yêu cầu không tồn tại,album bạn yêu cầu không tồn tại .
ME_0090,Tìm thấy 45 kết quả dưới đây. Bạn muốn nghe album thứ mấy?,tìm thấy bốn mươi lăm kết quả dưới đây . bạn muốn nghe album thứ mấy  .
ME_0091,Tìm thấy 36 kết quả dưới đây. Bạn muốn nghe album thứ mấy?,tìm thấy ba mươi sáu kết quả dưới đây . bạn muốn nghe album thứ mấy  .
ME_0092,Tìm thấy 7 kết quả dưới đây. Bạn muốn nghe album thứ mấy?,tìm thấy bảy kết quả dưới đây . bạn muốn nghe album thứ mấy  .
ME_0093,Tìm thấy 23 kết quả dưới đây. Bạn muốn nghe album thứ mấy?,tìm thấy hai mươi ba kết quả dưới đây . bạn muốn nghe album thứ mấy  .
ME_0094,Tìm thấy 43 kết quả dưới đây. Bạn muốn nghe album thứ mấy?,tìm thấy bốn mươi ba kết quả dưới đây . bạn muốn nghe album thứ mấy  .
ME_0095,Tìm thấy 64 kết quả dưới đây. Bạn muốn nghe album thứ mấy?,tìm thấy sáu mươi bốn kết quả dưới đây . bạn muốn nghe album thứ mấy  .
ME_0096,Tìm thấy 38 kết quả dưới đây. Bạn muốn nghe album thứ mấy?,tìm thấy ba mươi tám kết quả dưới đây . bạn muốn nghe album thứ mấy  .
ME_0097,Tìm thấy 85 kết quả dưới đây. Bạn muốn nghe album thứ mấy?,tìm thấy tám mươi lăm kết quả dưới đây . bạn muốn nghe album thứ mấy  .
ME_0098,Tìm thấy 22 kết quả dưới đây. Bạn muốn nghe album thứ mấy?,tìm thấy hai mươi hai kết quả dưới đây . bạn muốn nghe album thứ mấy  .
ME_0099,Tìm thấy 29 kết quả dưới đây. Bạn muốn nghe album thứ mấy?,tìm thấy hai mươi chín kết quả dưới đây . bạn muốn nghe album thứ mấy  .
ME_0100,Hiện chỉ hỗ trợ chức năng này từ USB,hiện chỉ hỗ trợ chức năng này từ usb .
ME_0101,Vui lòng kết nối USB để tìm kiếm bài hát,vui lòng kết nối usb để tìm kiếm bài hát .
ME_0102,"Bạn chưa kết nối USB, hãy kết nối USB để tìm kiếm bài hát","bạn chưa kết nối usb  ,  hãy kết nối usb để tìm kiếm bài hát ."
ME_0103,Tôi không thể thực hiện khi bạn không truy cập USB,tôi không thể thực hiện khi bạn không truy cập usb .
ME_0104,Hãy kết nối USB để được hỗ trợ,hãy kết nối usb để được hỗ trợ .
ME_0105,Hiện chỉ hỗ trợ chức năng này từ USB,hiện chỉ hỗ trợ chức năng này từ usb .
ME_0106,Hiện không tìm thấy bài nhạc yêu cầu trong USB,hiện không tìm thấy bài nhạc yêu cầu trong usb .
ME_0107,Bạn muốn nghe bài thứ mấy,bạn muốn nghe bài thứ mấy .
ME_0108,Không tìm thấy bài hát bạn yêu cầu,không tìm thấy bài hát bạn yêu cầu .
ME_0109,Tìm thấy các bài hát dưới đây. Bạn muốn nghe bài thứ mấy,tìm thấy các bài hát dưới đây . bạn muốn nghe bài thứ mấy .
ME_0110,"Xin lỗi, không có kết quà bạn yêu cầu. Bạn vui lòng chọn bài hát khác","xin lỗi  ,  không có kết quà bạn yêu cầu  . bạn vui lòng chọn bài hát khác ."
ME_0111,Hãy chọn một bài trong danh sách trên màn hình hiển thị,hãy chọn một bài trong danh sách trên màn hình hiển thị .
ME_0112,Hiện chỉ hỗ trợ chức năng này từ USB,hiện chỉ hỗ trợ chức năng này từ usb .
ME_0113,Hiện chỉ hỗ trợ chức năng này từ USB,hiện chỉ hỗ trợ chức năng này từ usb .
ME_0114,"Hiện chỉ hõ trợ cho các nguồn USB, Bluetooth, Apple Carplay, Android Auto","hiện chỉ hõ trợ cho các nguồn usb  ,  bluetooth  ,  apple carplay  ,  android auto ."
ME_0115,USB đang phát từ RADIOAM,usb đang phát từ radioam .
ME_0116,USB đang phát từ USB,usb đang phát từ usb .
ME_0117,USB đang phát từ BLUETOOTH,usb đang phát từ bluetooth .
ME_0118,USB đang phát từ ANDROIDAUTO,usb đang phát từ androidauto .
ME_0119,USB đang phát từ CARPLAY,usb đang phát từ carplay .
ME_0120,Đã chuyển sang nguồn CARPLAY,đã chuyển sang nguồn carplay .
ME_0121,Đã chuyển sang nguồn USB,đã chuyển sang nguồn usb .
ME_0122,Đã chuyển sang nguồn RADIOFM,đã chuyển sang nguồn radiofm .
ME_0123,Đã chuyển sang nguồn BLUETOOTH,đã chuyển sang nguồn bluetooth .
ME_0124,Đã chuyển sang nguồn ANDROIDAUTO,đã chuyển sang nguồn androidauto .
ME_0125,"Chưa kết nối nguồn BLUETOOTH, vui lòng kết nối để nghe nhạc","chưa kết nối nguồn bluetooth  ,  vui lòng kết nối để nghe nhạc ."
ME_0126,"Chưa kết nối nguồn ANDROIDAUTO, vui lòng kết nối để nghe nhạc","chưa kết nối nguồn androidauto  ,  vui lòng kết nối để nghe nhạc ."
ME_0127,"Chưa kết nối nguồn CARPLAY, vui lòng kết nối để nghe nhạc","chưa kết nối nguồn carplay  ,  vui lòng kết nối để nghe nhạc ."
ME_0128,"Chưa kết nối nguồn RADIOFM, vui lòng kết nối để nghe nhạc","chưa kết nối nguồn radiofm  ,  vui lòng kết nối để nghe nhạc ."
ME_0129,"Chưa kết nối nguồn RADIOAM, vui lòng kết nối để nghe nhạc","chưa kết nối nguồn radioam  ,  vui lòng kết nối để nghe nhạc ."
ME_0130,"Chưa kết nối nguồn USB, vui lòng kết nối để nghe nhạc","chưa kết nối nguồn usb  ,  vui lòng kết nối để nghe nhạc ."
ME_0131,"Bạn có thể chuyển nguồn phát nhạc qua các nguồn phát như USB, Bluetooth, Apple Carplay, Android Auto","bạn có thể chuyển nguồn phát nhạc qua các nguồn phát như usb  ,  bluetooth  ,  apple carplay  ,  android auto ."
ME_0132,Hiện tại đang phát USB từ nguồn RADIOAM,hiện tại đang phát usb từ nguồn radioam .
ME_0133,Hiện tại đang phát USB từ nguồn USB,hiện tại đang phát usb từ nguồn usb .
ME_0134,Hiện tại đang phát USB từ nguồn BLUETOOTH,hiện tại đang phát usb từ nguồn bluetooth .
ME_0135,Hiện tại đang phát USB từ nguồn ANDROIDAUTO,hiện tại đang phát usb từ nguồn androidauto .
ME_0136,Hiện tại đang phát USB từ nguồn CARPLAY,hiện tại đang phát usb từ nguồn carplay .
ME_0137,Đã chuyển nguồn phát qua CARPLAY,đã chuyển nguồn phát qua carplay .
ME_0138,Đã chuyển nguồn phát qua USB,đã chuyển nguồn phát qua usb .
ME_0139,Đã chuyển nguồn phát qua RADIOFM,đã chuyển nguồn phát qua radiofm .
ME_0140,Đã chuyển nguồn phát qua BLUETOOTH,đã chuyển nguồn phát qua bluetooth .
ME_0141,Đã chuyển nguồn phát qua ANDROIDAUTO,đã chuyển nguồn phát qua androidauto .
ME_0142,Bạn chưa kết nối BLUETOOTH. Hãy kết nối để có thể chơi nhạc từ nguồn này.,bạn chưa kết nối bluetooth . hãy kết nối để có thể chơi nhạc từ nguồn này .
ME_0143,Bạn chưa kết nối ANDROIDAUTO. Hãy kết nối để có thể chơi nhạc từ nguồn này.,bạn chưa kết nối androidauto . hãy kết nối để có thể chơi nhạc từ nguồn này .
ME_0144,Bạn chưa kết nối CARPLAY. Hãy kết nối để có thể chơi nhạc từ nguồn này.,bạn chưa kết nối carplay . hãy kết nối để có thể chơi nhạc từ nguồn này .
ME_0145,Bạn chưa kết nối RADIOFM. Hãy kết nối để có thể chơi nhạc từ nguồn này.,bạn chưa kết nối radiofm . hãy kết nối để có thể chơi nhạc từ nguồn này .
ME_0146,Bạn chưa kết nối RADIOAM. Hãy kết nối để có thể chơi nhạc từ nguồn này.,bạn chưa kết nối radioam . hãy kết nối để có thể chơi nhạc từ nguồn này .
ME_0147,Bạn chưa kết nối USB. Hãy kết nối để có thể chơi nhạc từ nguồn này.,bạn chưa kết nối usb . hãy kết nối để có thể chơi nhạc từ nguồn này .
ME_0148,"Hãy chọn một nguồn bạn muốn chuyển đến trong nhưng nguồn sau USB, Bluetooth, Apple Carplay, Android Auto","hãy chọn một nguồn bạn muốn chuyển đến trong nhưng nguồn sau usb  ,  bluetooth  ,  apple carplay  ,  android auto ."
ME_0149,Bạn đang ở RADIOAM.,bạn đang ở radioam .
ME_0150,Bạn đang ở USB.,bạn đang ở usb .
ME_0151,Bạn đang ở BLUETOOTH.,bạn đang ở bluetooth .
ME_0152,Bạn đang ở ANDROIDAUTO.,bạn đang ở androidauto .
ME_0153,Bạn đang ở CARPLAY.,bạn đang ở carplay .
ME_0154,Nguồn phát đã được chuyển thành công sang CARPLAY,nguồn phát đã được chuyển thành công sang carplay .
ME_0155,Nguồn phát đã được chuyển thành công sang USB,nguồn phát đã được chuyển thành công sang usb .
ME_0156,Nguồn phát đã được chuyển thành công sang RADIOFM,nguồn phát đã được chuyển thành công sang radiofm .
ME_0157,Nguồn phát đã được chuyển thành công sang BLUETOOTH,nguồn phát đã được chuyển thành công sang bluetooth .
ME_0158,Nguồn phát đã được chuyển thành công sang ANDROIDAUTO,nguồn phát đã được chuyển thành công sang androidauto .
ME_0159,Hiện chưa kết nối nguồn BLUETOOTH. Hãy kết nối để thực hiện yêu cầu,hiện chưa kết nối nguồn bluetooth . hãy kết nối để thực hiện yêu cầu .
ME_0160,Hiện chưa kết nối nguồn ANDROIDAUTO. Hãy kết nối để thực hiện yêu cầu,hiện chưa kết nối nguồn androidauto . hãy kết nối để thực hiện yêu cầu .
ME_0161,Hiện chưa kết nối nguồn CARPLAY. Hãy kết nối để thực hiện yêu cầu,hiện chưa kết nối nguồn carplay . hãy kết nối để thực hiện yêu cầu .
ME_0162,Hiện chưa kết nối nguồn RADIOFM. Hãy kết nối để thực hiện yêu cầu,hiện chưa kết nối nguồn radiofm . hãy kết nối để thực hiện yêu cầu .
ME_0163,Hiện chưa kết nối nguồn RADIOAM. Hãy kết nối để thực hiện yêu cầu,hiện chưa kết nối nguồn radioam . hãy kết nối để thực hiện yêu cầu .
ME_0164,Hiện chưa kết nối nguồn USB. Hãy kết nối để thực hiện yêu cầu,hiện chưa kết nối nguồn usb . hãy kết nối để thực hiện yêu cầu .
