shortPara_Sci_150para_0001,"Ngôi mộ cổ hàng nghìn năm của 'công chúa Ai Cập'. Một ngôi mộ cổ với niên đại 4400 tuổi của một người phụ nữ được tìm thấy ở Ai Cập. Điều đáng nói là lần đầu tiên trong lịch sử, các nhà khảo cổ tìm thấy một ngôi mộ của một người phụ nữ được chôn cất độc lập, không ở bên chồng hoặc gia đình. Các nhà nghiên cứu cho rằng đây là nơi an nghỉ của một nàng công chúa hoặc một nữ tu cực kỳ quyền lực."
shortPara_Sci_150para_0002,"Kinh nghiệm quản lý hoạt động nuôi, nhốt gấu và bảo tồn gấu trong tự nhiên. Ngày 02/02, tại phòng Văn Miếu 3, Khách sạn Pullman, Cát Linh, Hà Nội, Tổng cục Lâm nghiệp phối hợp với Tổ chức Bảo vệ động vật thế giới tổ chức Diễn đàn về gấu lần thứ 3, chia sẻ kinh nhiệm quản lý hoạt động nuôi, nhốt gấu và bảo tồn gấu trong tự nhiên. Toàn cảnh Diễn đàn về gấu Diễn đàn về gấu là một sáng kiến của Tổ chức Bảo vệ động vật thế giới, trong đó tạo cơ hội cho các bên liên quan thảo luận và chia sẻ kinh nhiệm, chính sách và các giải pháp để chấm dứt hoạt động nuôi gấu lấy mật ở Châu Á, từ đó thúc đẩy sự hợp tác, phối hợp để hỗ trợ lẫn nhau trong nỗ lực chấm dứt hoạt động khai thác mật gấu nhằm góp phần bảo vệ gấu trong tự nhiên."
shortPara_Sci_150para_0003,"Đây là lần đầu tiên tổ chức tại Việt Nam, năm 2016, 2017, Diễn đàn đã được tổ chức tại Bắc Kinh, Trung Quốc. Tham dự Diễn đàn, các cơ quan Trung ương gồm có: Vụ Quản lý rừng đặc dụng, Cơ quan CITES Việt Nam, Cục Kiểm lâm, Cục Cảnh sát Môi trường, Cục Bảo tồn Đa dạng sinh học, Ban Quản lý công viên động vật hoang dã Quốc gia Ninh Bình. Các cơ quan quốc tế, tổ chức phi chính phủ: Đại sứ quán Mỹ, Trung tâm Giáo dục Thiên nhiên, Tổ chức Four Paw Viet, Tổ chức Bảo vệ động vật thế giới, Tổ chức Free The Beai, Tổ chức Traffic, Tổ chức HIS. Khách mời từ nước ngoài gồm: Nghị viện Hàn Quốc, Tổ chức GKU Hàn Quốc, Tổ chức Bảo vệ động vật thế giới tại Trung Quốc; cùng 18 Chi cục Kiểm lâm các tỉnh, thành phố: Hà Nội, Hải Phòng, Hải Dương, Phú Thọ, Nam Định, Bắc Giang, Ninh Bình, Quảng Ninh, Thái Nguyên, Yên Bái, Nghệ An, Tp.Hồ Chí Minh, Sơn La, Đồng Nai, Bình Dương, Bình Phước, Thái Bình và Hưng Yên."
shortPara_Sci_150para_0004,"Chia sẻ, thảo luận kinh nhiệm Tại Diễn đàn, đại diện Tổ chức Bảo vệ động vật thế giới đã nêu tổng quan hoạt động nuôi gấu lấy mật và việc cần phải chấm dứt hoạt động nuôi gấu lấy mật. Bởi, gấu là loài động vật hoang dã và thuộc về tự nhiên, không phải trong các trang trại; hiện nay, đã có những hợp chất tổng hợp và thảo dược thay thế hiệu quả mật gấu; nuôi gấu lấy mật không giúp gì cho việc hiện đại hóa thuốc truyền thống, bởi nó dẫn tới tội ác và sự đau khổ cho động vật; nuôi gấu lấy mật không đóng góp gì cho bảo tồn, bởi nuôi sinh sản trong môi trường nuôi, nhốt sẽ không có cơ hội tồn tại trong tự nhiên. Gấu nuôi nhốt tại Việt Nam Đại biểu Thành viên Nghị viện Hàn Quốc và tổ chức Green Korea United (GKU) đã chia sẻ kinh nhiệm và những chính sách hỗ trợ nhằm chấm dứt hoạt động nuôi gấu lấy mật từ Hàn Quốc. Trong đó, nổi bật là chương trình khuyến khích chủ nuôi gấu Triệt sản đối với những cá thể gấu đang nuôi nhốt, kết hợp với việc kiểm soát của chính phủ, hàm ý sâu sắc rằng sẽ không có thêm cá thể gấu nào được đưa vào các trang trại nuôi nhốt của Hàn Quốc nữa, đồng thời chấm dứt hoạt động nuôi nhốt gấu lấy mật."
shortPara_Sci_150para_0005,"Đại biểu đến từ Chi cục Kiểm lâm tỉnh Quảng Ninh đã chi sẻ kinh nhiệm trong việc quản lý, chuyển giao, cứu hộ gấu nuôi nhốt như: Năm 2005, tỉnh Quảng Ninh là tốp đầu trong cả nước về việc nuôi nhốt gấu lấy mật; thời gian qua, các cơ quan chức năng, chính quyền địa phương đã tuyên truyền trọng tâm, trọng điểm, đúng đối tượng trong việc nói không với mật gấu và các sản phẩm từ gấu. Đặc biệt là dùng các biện pháp nghiệp vụ để tuyên truyền, vận động thuyết phục chủ nuôi gấu tự nguyện giao, nộp gấu cho Nhà nước. Kết quả từ tháng 5/2015 đến hết tháng 11/2015, tỉnh Quảng Ninh đã thuyết phục chủ nuôi gấu tự nguyện chuyển giao, cứu hộ an toàn 33 cá thể gấu trên địa bàn về Trung tâm Cứu hộ gấu Việt Nam. Đây là nhiệm vụ không hề dễ dàng, nhất là đối với đặc thù của Quảng Ninh (khách du lịch thường xuyên có nhu cầu tham quan gấu), song với quyết tâm cao nhất, cách làm sáng tạo, hiệu quả, tỉnh Quảng Ninh đã thực hiện triệt để chỉ đạo của Chính phủ đã chuyển giao, cứu hộ số lượng lớn gấu nuôi nhốt trên địa bàn về Trung tâm cứu hộ gấu Việt Nam an toàn, nhanh chóng."
shortPara_Sci_150para_0006,"Những năm qua, công tác bảo vệ gấu đã đạt được những thành tựu đáng kể, tháng 7/2017, một lần nữa Chính phủ Việt Nam đã cam kết đóng cửu các trại nuôi, nhốt gấu lấy mật; đặc biệt, ngày càng có nhiều chủ nuôi gấu tự nguyện giao, nộp gấu cho Nhà nước mà không đòi hỏi bất kỳ một khoản hỗ trợ nào, cho thấy sự chuyển biến tích cực trong nhận thức của chính các chủ cơ sở nuôi, nhốt gấu về sự cần thiết phải chấm dứt hoạt động này. Ông Hiệp cho biết, số lượng cá thể gấu nuôi nhốt từ 2006 2012 có 2.289 cá thể (trong đó: Gấu ngựa 2.192, gấu chó 97 cá thể); đến tháng 12/2017 còn 1.062 cá thể (Gấu ngựa 1.017, gấu chó 45 cá thể, trong đó có 69 cá thể gấu sinh tại trại nuôi từ năm 2006 đến nay). Gấu được nuôi nhốt tại 268 cơ sở (16 tổ chức và 252 hộ gia đình), 42 tỉnh với số lượng là 843 cá thể, tại các trung tâm cứu hộ là 219 cá thể."
shortPara_Sci_150para_0007,"Mặc dù đã có nhiều kết quả đáng ghi nhận, nhưng Việt Nam vẫn phải đối mặt với nhiều thách thức như: Số lượng gấu nuôi nhốt vẫn còn nhiều, cần phải được kiểm tra, giám sát thường xuyên; buôn bán và săn bắt bất hợp pháp vẫn là mối đe dọa đối với các loài động vật hoang dã trong đó có gấu; vẫn còn khó khăn về nguồn lực trong việc cứu hộ những cá thể gấu nuôi nhốt. Đặc biệt, chủ nuôi gấu vẫn yêu cầu Nhà nước hỗ trợ kinh phí trong quá trình giao, nộp những cá thể gấu cho các Trung tâm cứu hộ; quá tải tại các Trung tâm cứu hộ gấu; thiếu nguồn lực và kinh nghiệm về bảo tồn gấu trong tự nhiên."
shortPara_Sci_150para_0008,"Từ đó, nhiều phương hướng đã được đặt ra gồm: Theo dõi, kiểm tra để quản lý tốt đối với 1.062 các thể gấu đang nuôi nhốt; tăng cường công tác tuyên truyền, vận động để chủ nuôi gấu tự nguyện giao, nộp gấu cho Nhà nước, để các Trung tâm cứu hộ gấu tiếp tục chăm sóc, nuôi dưỡng theo quy định của pháp luật; phát hiện ngăn chặn, kiên quyết truy cứu trách nhiệm hình sự đối với các chủ thể thực hiện hành vi nuôi nhốt gấu không có hồ sơ nguồn gốc hợp pháp, đảm bảo không tăng số lượng gấu nuôi nhốt và tiến tới chấm dứt hoàn toàn việc nuôi gấu bất hợp pháp tại Việt Nam; phối hợp với các tổ chức quốc tế, bao gồm các tổ chức phi chính phủ để vận động đầu tư, hỗ trợ xây dựng các Trung tâm cứu hộ đủ điều kiện, tiêu chuẩn để thực hiện tiếp nhận gấu do chủ nuôi tự nguyện giao, nộp cho Nhà nước, đặc biệt là các tỉnh phía Nam; triển khai có hiệu quả các hoạt động cứu hộ, bảo tồn và giám sát gấu ở Việt Nam theo Bản ghi nhớ hợp tác giữa Tổng cục Lâm nghiệp với Tổ chức động vật Châu Á, trong đó có việc xây dựng kế hoạch bảo tồn gấu tại Việt Nam; phối hợp với các tổ chức quốc tế thực hiện công tác bảo tồn gấu trong tự nhiên."
shortPara_Sci_150para_0009,"Kết thúc Diễn đàn, ông Trần Thế Liên- Vụ trưởng Vụ Quản lý rừng đặc dụng, phòng hộ- Tổng cục Lâm nghiệp (Bộ Nông nghiệp và Phát triển nông thôn) cho rằng, chúng ta đang đi đúng hướng đẩy nhanh tiến độ để sớm kết thúc việc nuôi nhốt gấu lấy mật trong một tương lai không xa; đồng thời, có những chính sách mới nhằm bảo tồn, phát triển bền vững gấu trong tự nhiên. Thời gian tới cần tập trung triển khai thực hiện một số nội dung sau: Một là , đẩy mạnh công tác tuyên truyền trọng tâm, trọng điểm, đúng đối tượng để chủ nuôi gấu tự nguyện giao, nộp gấu cho Nhà nước mà không đòi hỏi bất kỳ một khoản hỗ trợ nào; nói không với mật gấu và các sản phẩm từ gấu. Hai là , các cơ quan chức năng thường xuyên kiểm tra, giám sát chặt chẽ các cơ sở nuôi nhốt gấu trên địa bàn, để đảm bảo không có cá thể gấu mới bị săn, bắt từ tự nhiên mang về nuôi nhốt trái phép; phát hiện, xử lý nghiêm các chủ trại nuôi không thực hiện đúng nội dung cam kết khi đăng ký trại nuôi gấu, đặc biệt là xử lý nghiêm theo quy định của pháp luật hành vi chích, hút mật gấu trái phép. Năm 2018, Tổ chức Bảo vệ động vật thế giới phối hợp với Tổng cục Lâm nghiệp hoàn thành việc gắn chíp mới cho toàn bộ gấu nuôi nhốt trên toàn quốc. Ba là , 5 năm tới tăng cường năng lực tại các Trung tâm cứu hộ, bảo tồn gấu, để tiếp nhận, nuôi dưỡng, chăm sóc những cá thể gấu mới do các chủ nuôi tự nguyện giao, nộp cho Nhà nước."
shortPara_Sci_150para_0010,"Một người thợ mộc Anh trong chuyến đi đến Na Uy đã câu được cá bơn halibut lớn nhất thế giới, ước tính dài gần 2 mét và nặng 70kg. Con cá nằm bên cạnh thợ mộc người Anh, Theo báo Anh Daily Mail, thợ mộc David mới đây câu được con cá bơn khổng lồ trong chuyến đi đến Bodo, Na Uy. Người đàn ông 45 tuổi nói con cá nặng đến mức giống như câu một chiếc xe buýt London vậy. Con cá bơn halibut sau đó được xác định nặng đến 70kg, vượt kỷ lục thế giới được ghi nhận cho đến nay (50kg). Con cá có để được cắt thành 160 miếng phi lê, ước tính giá trị lên tới 5.700 USD (khoảng 130 triệu đồng) tại các nhà hàng sang trọng. Theo báo Anh, nhiều khả năng thợ mộc đã chia sẻ một phần chiến lợi phẩm của mình cho dân làng ở Bodo, Na Uy. Số cá đông lạnh còn lại được đem về Anh và đấu giá trong thời gian tới. Cá bơn halibut ở Đại Tây Dương là một trong những loài cá bơn lớn nhất thế giới. Chúng sống ở vùng biển trải dài từ đảo Greenland đến biển Barents và vịnh Biscay. Con cá ước tính giá trị lên tới 130 triệu đồng. Chúng có thể dài tới 4,5 mét và nặng hơn 300kg. Tuổi thọ của cá bơn halibut vào khoảng 50 năm. Cá bơn halibut thường ăn những loài cá nhỏ hơn như cá tuyết, cá trích. Chúng lại làm mồi cho hải cẩu và cá mập Greenland."
shortPara_Sci_150para_0011,"Chi cục Kiểm lâm tỉnh Hậu Giang cho biết, đơn vị này vừa tiếp nhận một cá thể rùa răng (càng đước), tên khoa học là Heosemys annandalii, có trọng lượng 11kg do ông Trần Văn Chợ, ở ấp 1, xã Vị Thanh, huyện Vị Thủy bắt được trong lúc làm cỏ vườn. Cá thể rùa được thả về môi trường tự nhiên Theo ông Nguyễn Vĩnh Phúc Chi cục trưởng Chi cục Kiểm lâm Hậu Giang, do biết đây là loài vật quý hiếm nên khi bắt được rùa răng, ông Chợ đã có ý thức tự giác giao nộp lại cho ngành chức năng. Sau khi tiếp nhận cá thể rùa răng này, Chi cục Kiểm lâm đã tiến hành thả lại Khu bảo tồn thiên nhiên Lung Ngọc Hoàng để cá thể rùa tiếp tục sống trong môi trường tự nhiên. Trước đó, vào giữa năm 2017, người dân ở ấp Phương Quới A, xã Phương Bình, huyện Phụng Hiệp cũng bắt được một con rùa răng có trọng lượng 8,7kg, chiều dài khoảng 40cm, bề ngang 20cm. Khi được Hạt Kiểm lâm huyện Phụng Hiệp vận động thì hộ dân đã giao nộp để thả lại Khu bảo tồn thiên nhiên Lung Ngọc Hoàng. Ngoài ra, sáng 22/1, anh Đặng Văn Hòa (34 tuổi, ở thôn Hải Nam, xã Nhơn Hải, TP Quy Nhơn, Bình Định) trong lúc kéo lưới đánh cá tại vùng biển khu vực Bờ Đập ở địa phương đã phát hiện một con rùa biển có màu xanh đen có chiều dài từ đầu đến đuôi khoảng 0,5m, mai rộng khoảng 0,4 m, nặng gần 30 kg bị mắc vào lưới. Ngay trong ngày, anh Hòa đã tiến hành thả về với biển."
shortPara_Sci_150para_0012,"Vì sao có câu 'Thân người khó được, Phật pháp khó nghe'. Phật dạy: 'Thân người khó được, Phật pháp khó nghe'. Câu này mới nghe qua chúng ta thấy hơi vô lý, vì mình đã có thân người rồi. Ở đây đức Phật ý nói thân tương lai, chứ không phải thân hiện tại. Nếu sau này chúng ta chết đi, liệu có được tái sinh trở lại làm người hay không? Đó là sự thắc mắc của một số người, chúng ta cần phải quán chiếu và suy nghiệm để tìm ra nguyên nhân."
shortPara_Sci_150para_0013,"Thường thì một số học thuyết thế gian cho rằng chết là hết, mọi thứ đều trở về với cát bụi, không có nhân quả nghiệp báo tái sinh luân hồi nên họ mặc tình làm việc xấu ác mà không sợ tội. Đức Phật do tu chứng, nên thấy được cái vòng lẩn quẩn của con người, sau khi chết thân này sẽ hoại, nhưng tâm thức của chúng ta vẫn còn và tiếp tục tái sinh vào cõi lành hay cõi dữ, do thói quen đã gieo tạo. Một đứa bé mới sinh ra, chưa được ai dạy bảo điều gì cả, mà chúng đã có những sở thích riêng biệt, đứa thì hay khóc la, đứa thì thích đồ chơi, đứa thì ham ăn, đứa thì thích ngủ. Khi lớn lên đi học thầy cô giáo dạy bình đẳng như nhau, nhưng có đứa giỏi toán, đứa giỏi văn, đứa giỏi vật lý v.v Vậy thì tại sao có sự khác biệt như thế?"
shortPara_Sci_150para_0014,"Theo giáo lý nhà Phật có ba cõi sáu đường, hay còn gọi là lục đạo luân hồi, đó là các cõi trời, người, A tu la, địa ngục, súc sinh, ngạ quỷ, riêng các cõi người và trời là cõi lành dành cho chúng sinh biết giữ giới tu mười điều lành và ứng dụng tu tập thiền định. Chúng sinh sau khi mất đi, được tái sinh chỗ tốt hay xấu tùy theo nghiệp báo đã gây tạo trong hiện tại. Các nghiệp lực do ta tạo ra trong hiện đời, sẽ đưa ta vào một trong sáu cõi luân hồi, điều đó còn tùy thuộc vào cận tử nghiệp, tức là nghiệp lúc cận kề với cái chết.Người đang làm ác nhưng khi gần chết khởi tâm mạnh mẽ về những việc làm tốt, có thể tái sinh đến cõi lành và ngược lại."
shortPara_Sci_150para_0015,"Đức Phật dạy: Có hai loại người có thể tái sinh thẳng mà không cần phải qua giai đoạn thân trung ấm trong 49 ngày. Thứ nhất là loại người gây nhiều tội ác nặng như giết cha mẹ, giết người tu hành chân chính, kích động thù hằn gây chiến tranh xâm lăng chiếm đoạt tài nguyên thiên nhiên, giết người bừa bãi và bao gồm làm mười điều ác, thì sau khi chết, bị đọa thẳng vào địa ngục, không thông qua thân trung ấm. Và hạng người thứ hai tạo nhiều thiện duyên, phước huệ song tu, từ bi hỷ xả, làm lợi ích chúng sinh không biết mệt mỏi nhàm chán, tâm an nhiên tự tại trong mọi hoàn cảnh nên đã vượt qua sống chết luân hồi, ứng biến vô ngại. Còn lại sáu đường luân hồi sống chết sau khi mất đi, tùy theo thói quen huân tập mà có thể tái sinh vào cõi lành hay cõi dữ."
shortPara_Sci_150para_0016,"Để nói lên sự khó được làm người trở lại, đức Phật dùng hình ảnh một con rùa mù ở dưới đáy biển, cứ một trăm năm mới trồi lên mặt biển một lần, để tìm cách chui đầu vào một cái lỗ của một khúc cây. Một con rùa mù một trăm năm mới nổi lên mặt biển để tìm cách chui đầu vào bọng cây quả thật là rất khó! Chúng ta được làm người trở lại cũng khó khăn như vậy. Bởi gì thế gian này ít ai giữ được năm giới."
shortPara_Sci_150para_0017,"Có nhiều người thắc mắc, hiện nay dân số thế giới có khoảng trên 7 tỷ người so với thời Phật ra đời, con người đông hơn gấp mấy lần. Như vậy, Phật nói thân người khó được thì e rằng có sự nhầm lẫn. Chúng ta đọc kỷ các bản kinh, Phật nói trong bầu vũ trụ bao la này gồm có ba cõi sáu đường luân hồi. Chư thiên các cõi trời khi hết phước bị đọa xuống trần gian, nên số lượng con người cứ tăng dần. Số lượng con người trong cõi thế gian này là con số chúng ta có thể thống kê được. Nhưng thử hỏi có ai thống kê được số lượng các loài súc sinh từ lớn đến nhỏ từ trên không, mặt đất và dưới nước, vô số không thể tính đếm được, thì rõ ràng thân người khó được trong tương lai là có lý. Tóm lại số lượng 7 tỷ con người trong thế gian này, thật là quá ít ỏi so với số lượng súc sinh hằng hà sa số không thể tính đếm được."
shortPara_Sci_150para_0018,"Tu hài Canada là một trong số loại hải sản được chị em ""săn"" mua. Tu hài (tên gọi tiếng Anh là Geoduck Clam) là loài hai mảnh lớn nhất thế giới, nặng khoảng 1,5-2 kg, sống dải rác tại các vùng duyên hải của các đại dương. Tại khu vực bờ phía Thái Bình Dương của Mỹ và Canada, tu hài phát triển rất mạnh về kích cỡ. Tu hài Canada thường có giá từ 2 - 2,5 triệu/kg, nhưng vào lúc trái vụ như thế này mỗi con giá có thể lên đến 5 triệu/kg, cân nặng trung bình mỗi con tầm 1,5 - 2kg. Đắt đỏ là vậy nhưng loài tu hài này vẫn được chị em không tiếc tiền mua về tẩm bổ cho ông xã. Mặc dù chưa có nghiên cứu khoa học chính thức nào công nhận nhưng nhiều người vẫn tin rằng tu hài đặc biệt tốt với nam giới, có tác dụng cải thiện rõ rệt khả năng sinh lý, có thể tăng cường sinh lực, bổ thận tráng dương. Thậm chí, nó còn được đồn thổi là món thần dược có tác dụng với các quý ông còn hơn cả Viagra."
shortPara_Sci_150para_0019,"Trả cả cây vàng cho cặp trăn khủng xứ Mường Gia đình anh Quách Ngọc Chương (thôn Đồng Rẽ, xã Thành Lập, huyện Lương Sơn, tỉnh Hòa Bình) luôn coi cặp trăn ""khủng"" đã nuôi được 5 năm trong nhà như những người bạn. Thức ăn cho loài động vật này là gà, vịt chẳng may bị chết dịch hoặc cóc nhái. Loài này ăn rất khỏe, nhưng 1 tháng chúng chỉ ăn một lần. Mỗi bữa, chúng có thể ăn 5-6 con vịt loại 3kg. Tuy nhiên, suốt 4 tháng mùa đông, chúng không hề ăn chút nào , anh Chương cho biết."
shortPara_Sci_150para_0020,"Kể về ""xuất thân"" của cặp trăn khủng này, anh Chương nói, cách đây 5 năm, anh đi rừng và bắt được 2 con trăn nhỏ bằng chuôi dao nên đã mang về nuôi. Sau 5 năm nuôi đôi trăn, anh Chương cũng nắm được tương đối đặc tính sinh trưởng của chúng. Vào mùa hè, trăn lột da liên tục. Có tháng chúng lột xác 3-4 lần. Sau mỗi lần lột xác là một lần cơ thể nó phát triển to hơn."
shortPara_Sci_150para_0021,"Biết nhà anh Chương có cặp trăn quý, đã có không ít người đến hỏi mua, nhưng gia đình anh vẫn giữ nuôi và không bán. Thậm chí, có người trả giá đến cả cây vàng, nhưng vẫn chưa nhận được cái gật đầu từ phía gia chủ."
shortPara_Sci_150para_0022,"Cụ gà 5 tuổi thích xem tivi, hóng gió, giữ nhà thay chó Đá người, giữ nhà thay chó, thích xem tivi, hóng gió, chỉ muốn ăn và ở chung nhà với chủ...là những sở thích kỳ lạ, có một không hai của ""cụ gà"" 5 tuổi ở Cần Thơ. Chị Tăng Thị Bích Tuyền, ngụ ở phường Thường Thạnh, quận Cái Răng, TP. Cần Thơ, chủ nhân của cụ gà 5 tuổi cho biết, chị đang nuôi con gà trống hết sức kỳ lạ vì nó có khả năng giữ nhà rất hay. Theo chị Tuyền, những ai đi qua con đường trước nhà mà đùa giỡn, gây ồn ào cũng bị con gà của chị đá, tấn công. Vì con vật nuôi này có thể giữ nhà được nên gia đình không nuôi thêm chó. Hiện nay, con gà tuổi này đã sống chung, ăn ở như một thành viên thật sự của gia đình chị. Chủ nhân của cụ gà trên còn cho biết, chị còn thấy vật nuôi kỳ lạ của mình ra bờ sông trước nhà để hóng gió vào những buổi sáng sớm hoặc chiều tối. Còn em Huỳnh Ngọc Giàu con của chị Tuyền thì thông tin: Con gà còn có sở thích xem tivi, nhất là những phim kinh dị. Tuy nhiên, sau khi xem xong, mặt của cụ gà lại sợ đến tái mét."
shortPara_Sci_150para_0023,"Bọ bọ biển - trông thì ghê nhưng thịt ngon miễn chê. Trái ngược với hình dáng khá xấu xí, thịt của bọ bọ biển được ngư dân đánh giá là ngon hơn cả tôm hùm. Chính vì vậy mà loại hải sản này dù hiện có giá bán tới 1,2-1,5 triệu đồng/kg, nhưng cũng không dễ tìm mua được. Nhiều ngư dân Quảng Ngãi giải thích: ""Sở dĩ loại hải sản này có tên gọi như vậy, là do có hình dáng giống như con bọ sống trên cạn nhưng sống ở dưới biển, nên người ta đặt và gọi nó là bọ bọ biển"". Thịt của bọ bọ biển có màu trắng đục. Khi luộc ăn có vị béo nhưng không ngậy, thơm ngọt và thanh. Lượng thịt của bọ bọ biển khá ít, theo đó với con cân nặng khoảng 0,5 kg, thì sau khi bỏ vỏ chỉ còn lại 150-250 gram thịt. ""Nói về độ ngon của thịt bọ bọ biển thì ngay cả tôm hùm - vốn được ví là ""vua hải sản"" - cũng kém hơn vài bậc"", ngư dân Quảng Ngãi khẳng định. Cho nên bọ bọ biển hiện có giá gấp gần 1,5 lần so với tôm hùm, ở mức từ 1,2-1,5 triệu đồng/kg."
shortPara_Sci_150para_0024,"Gà cười Indonesia: Thú chơi độc nhất vô nhị năm con gà. Gà cười Indonesia đang là một trào lưu rất mới của giới chơi sinh vật cảnh tại Việt Nam. Điều thú vị của loại gà này không phải ở hình dáng, màu lông hay chất lượng thịt mà ở tiếng gáy độc đáo của nó. Anh Nguyễn Xuân Trường - một thành viên trong hội sinh vật cảnh Hải Dương cho biết: Chơi gà cười hiện ở Việt Nam vẫn còn khá mới mẻ, nên giá mỗi nơi một khác. Tuy nhiên, nếu chơi gà nhập từ Indonesia về thì giá không dưới 10 triệu đồng/cặp. Còn loại đã ấp nở thuần ở Việt Nam thì giá dao động từ khoảng 3 - 5 triệu đồng/cặp. Trong quá khứ giống gà này được coi là một biểu tượng quyền lực của gia đình hoàng gia. Hiện tại nó vẫn là biểu tượng của lòng dũng cảm, của địa vị xã hội và chủ nghĩa anh hùng, anh Trường cho biết. Ở Indonesia mọi tầng lớp đều có thể chơi, chứ không chỉ giới hạn ở những tầng lớp giàu có hay có địa vị xã hội cao. Hiện nay có rất nhiều cuộc thi gà cười tổ chức khắp mọi miền trên đất nước Indonesia và nó trở thành một nét văn hóa khá độc đáo và tao nhã. Anh Trường kể, từ khoảng năm 2000, khi hình ảnh Tổng thống Indonesia bên cạnh những chú gà cười được lan truyền rộng rãi trên các phương tiện thông tin đại chúng, thú chơi này đã thu hút được sự quan tâm của giới chơi gà lúc đó. Và cho đến nay, hội thi gà cười của tổng thống vẫn được tổ chức thường xuyên và được coi là một trong những chiếc Cup danh giá nhất trong làng gà cười Indonesia."
shortPara_Sci_150para_0025,"Rắn long thừa bạch tạng cực hiếm. Sở hữu con rắn toàn thân màu trắng, mắt và lưỡi màu đỏ, dài hơn 2m, nặng hơn 2kg được nhiều đại gia hỏi mua và trả giá 100 triệu đồng nhưng anh Phạm Văn Điệp ở huyện Kim Sơn (Ninh Bình) vẫn chưa muốn bán. Theo anh Điệp, con rắn trên thuộc loại rắn hổ trâu hay còn gọi rắn long thừa, rắn hổ hèo, rắn hổ dện, rắn ráo trâu. Trái ngược với các con cùng loài màu nâu nhạt thì con rắn của anh lại có màu trắng bạch tạng cực lạ. Nói về con rắn đặc biệt của mình, anh Điệp cho hay: ""Khoảng 4 năm về trước, trong một lần đi kiểm tra trứng rắn nở tôi phát hiện ra con rắn thân màu trắng đặc biệt này. Thấy con rắn có màu lạ, tôi tách riêng và chăm sóc, đến giờ rắn đã trưởng thành đạt trọng lượng 2kg"". Thời gian gần đây rất nhiều người biết, trong đó có nhiều đại gia tìm đến trại rắn của gia đình tôi hỏi mua. Có nhiều người trả cao trên dưới 100 triệu đồng nhưng tôi không muốn bán mà có ý định giữ lại để nghiên cứu và nhân giống"" - anh Điệp tiết lộ."
shortPara_Sci_150para_0026,"Bạch xà kiểng khác người ở Cà Mau Anh Trần Trung Kiên ngụ tại huyện Thới Bình, tỉnh Cà Mau có một thú chơi khác người: chơi trăn kiểng. Ngoài giờ làm, về đến nhà là anh lao vào chăm sóc đàn bạch xà , hay còn gọi là trăn trắng, trăn đột biến. Anh Kiên cho biết thêm, đối với loại trăn đột biến giá trị của nó nằm ở hoa văn, màu sắc, lạ mắt hơn so với trọng lượng cơ thể. Trăn gấm đột biến mới nở sẽ có giá 6-7 triệu đồng/con; trăn đột biến có trọng lượng từ 4-5kg là trên 10 triệu đồng; trên 15kg là 20-30 triệu đồng, còn nếu là trăn bạch sẽ có giá khoảng từ 25 40 triệu đồng/con. Lí giải vì sao trăn đột biến lại có giá cao như vậy, nhiều hộ nuôi và thương lái thu mua trăn cho biết trăn đột biến có giá cao bởi thị trường của loài vật này chủ yếu là nước ngoài và người nuôi chơi kiểng nên rất được ưa chuộng, trong khi đó mặt hàng này trong nước lại rất hiếm."
shortPara_Sci_150para_0027,"Huyền bí cặp cá tra bạch tạng 13 năm tuổi sống trong ngôi chùa cổ. Một ngôi chùa ở miền Tây đang nuôi dưỡng 2 con cá tra bạch tạng. Mỗi con dài khoảng 80cm, nặng trên 8kg. Vào buổi trưa trời nắng, da cá chuyển sang màu hồng nhẹ, rất đẹp. Năm nay cặp cá tra bạch tạng đã bước sang tuổi thứ 13, cặp cá này được coi là ""lộc"", hàng năm nhà chùa đón rất nhiều người tới tham quan và ngắm cá. Theo ghi nhận của phóng viên Dân Việt, trong ao có rất nhiều loài cá khác nhau nhưng ấn tượng nhất là hai con cá tra màu trắng. Cá tra độc , lạ này dài khoảng 80cm, nặng trên 8kg mỗi con. Một sư thầy tu tại chùa cho biết, hai con cá tra trên là do một phật tử mang đến phóng sinh cách nay khoảng hơn 13 năm. Khi ấy phật tử đó mang đến khoảng 10 con cá tra có màu trắng đến thả. Thời gian qua, nhiều con đã chết, chỉ còn lại hai con - sư thầy nói. Vì chỉ còn 2 con, nên nhà chùa nuôi dưỡng rất kỹ. Các sư thầy thường xuyên bơm nước sạch thay, thả lục bình để lọc nước, tạo bóng mát. Thức ăn chính của cá là cám gạo trộn cháo. Mọi người đến chùa chỉ được ngắm chứ không được vớt cá lên hay cho ăn thức ăn lạ."
shortPara_Sci_150para_0028,"Thủy quái cá đuối nước ngọt: Báu vật khủng 216kg, dài 3,2m chưa từng thấy ở Việt Nam Sáng 22/9/2017, một nhà hàng ở TP Hà Nội mua được một con cá đuối nước ngọt khổng lồ, nặng 216kg, chiều dài 3,2m, chiều rộng 1,9m. Loài ""thủy quái"" đuối ngọt này được chủ nhà hàng khẳng định chắc nịch: ""Nó là báu vật dài nặng khủng và chưa từng thấy ở Việt Nam"". Được biết, hiện ở Việt Nam, cá đuối nước ngọt ""khủng"" nhất từng xuất hiện chỉ có cân nặng khoảng 163 kg, do một ngư dân ấp Tân Hòa B xã Tân An, thị xã Tân Châu, An Giang trong lúc kéo ghe cào trên sông Tiền đã bắt được. Cá đuối nước ngọt là loài động vật phải dùng cần câu chứ không thể đánh bắt được, ngư dân đánh bắt cá khủng tiết lộ, phải dòng cá hàng giờ liền khi cá mắc câu mới có thể bắt được chúng. Chúng là một trong những loài cá nước ngọt lớn nhất thế giới."
shortPara_Sci_150para_0029,"Chuẩn bị thả chim về Vườn Quốc gia Tràm Chim. Ngày 5/2/2018, Trung tâm Bảo tồn và phát triển sinh vật Vườn Quốc gia Tràm Chim đã tiếp nhận 9 cá thể chim cuốc ngực trắng và 1 con chim cúm núm từ một người dân là ông Huỳnh Tấn Lộc (sinh năm 1966) ở ấp Tân Trong, xã Tân Mỹ, huyện Lấp Vò, tỉnh Đồng Tháp bàn giao và thả về tự nhiên. Đây là hai loài động vật quý hiếm có tên trong Sách đỏ, cấm săn bắt, mua bán với mọi hình thức. Theo ông Huỳnh Tấn Lộc cho biết: Nhiều người đến hỏi mua mỗi con chim trên từ 1,5 - 3 triệu đồng, nhưng tôi không bán."
shortPara_Sci_150para_0030,"Sau khi xem truyền hình và đọc trên các báo thấy nhiều người thả các động vật hoang dã về Vườn Quốc gia Tràm Chim nên anh chọn nơi này để thả chim về tự nhiên cho an toàn, ít bị săn bắt và luôn được cán bộ nhân viên Vườn Quốc gia Tràm Chim bảo vệ."
shortPara_Sci_150para_0031,"Phát hiện gây sốc về người Trung Quốc cổ đại. Ngay từ thời cổ đại, người Trung Quốc đã biết dùng mỡ động vật làm tròn đầu kim châm cứu, khoét băng để bảo quản thực phẩm. Xem giờ bằng hương vòng Người cổ đại dùng đồng hồ bằng hương vòng để xem giờ. Tức là chế hương thành một vòng tròn đặc biệt, với những vòng hương có độ dày mỏng phải thật đều thì mới có tác dụng chính xác về thời gian. Sau khi đốt hương, căn cứ vào những đoạn khắc đánh dấu trên hương còn sót lại để tính giờ. Sau này, người cổ đại đã cải tiến bằng cách khắc các đốt cố định trên vòng hương, phía trên treo vật nặng để cháy đến đoạn đấy hương sẽ tự rụng vật treo trên hương sẽ rơi vào cái đĩa kim loại đặt dưới vòng hương và phát ra tiếng kêu có tác dụng báo thức."
shortPara_Sci_150para_0032,"Tìm ra lửa từ sớm. Khi này quan sát thấy chim gõ kiến gõ vào thân cây do ma sát mà bốc khói nên người Trung Quốc cổ đại đã biết cách khoan vào cây để đánh lửa. Thời Tây Chu phát minh ra cách lấy lửa dương thoại , tức lợi dụng sức nóng của mặt trời chiếu vào mặt lõm của gương đồng để đánh lửa. Sau này khi con người hiểu cách đánh đá ra lửa thì lửa được dùng phổ biến."
shortPara_Sci_150para_0033,"Tự chế ra đồ trang điểm. Phụ nữ cổ đại đã biết trang điểm bằng cách sử dụng bột than được làm từ một khoáng vật có màu đen mài với nước để kẻ mày. Dùng bột làm bánh để làm phấn trang điểm, dùng hoa có tên là hồng lam và một số đồ phụ trợ trang điểm khác trộn lại để tạo ra son."
shortPara_Sci_150para_0034,"Chế tác kim khâu và kim châm cứu. Trong xã hội Trung Quốc cổ đại những vật dụng được chế tác từ kim loại đều là những vật quý giá. Người cổ đại đã biết cách dùng sắt nung đỏ, đánh nhỏ, tán mỏng cắt thành từng đoạn ngắn. Một đầu mài cho nhọn, một đầu đục lỗ để tạo thành chiếc kim khâu. Nếu là kim dùng để châm cứu sẽ phải kỳ công hơn rất nhiều. Kim sẽ phải được cắm vào thịt động vật sấy nhằm dùng mỡ có trong thịt làm đầy các vết xước trên kim, đầu nhọn cũng phải mài kỹ cho nhọn nhưng lại phải tròn mịn để khi châm cứu tránh làm đứt mạch máu."
shortPara_Sci_150para_0035,"Khoét băng để bảo quản thực phẩm. Khi chưa có tủ lạnh người cổ đại đã có phát minh rất thông minh để bảo quản thực phẩm. Thời Xuân Thu, đến mùa đông lạnh giá, các nô lệ đã khoét băng để cất giữ đồ để mùa hè đem ra cho giới quý tộc dùng."
shortPara_Sci_150para_0036,"Bản đồ xuất hiện từ sớm. Bản đồ cổ xưa nhất ở Trung Quốc xuất hiện từ thời Hán cách đây hơn 2000 năm. Chế đồ lục thể do nhà địa lý học thời Tây Tấn Bùi Tú sáng lập chính là độ chính xác khá lớn dành cho việc biên tập và sản xuất bản đồ. Bản đồ cổ lấy bước chân làm cơ sở để định lượng, vì thế những người vẽ bản đồ đầu tiên cần phải làm người khổ hành giả như Đường Tăng, cần phải mất hơn 10 năm mới có thể tạo ra được một tấm bản đồ."
shortPara_Sci_150para_0037,"Dự báo thời tiết. Vào triều Thương, con người đã biết vận dụng hệ thống giác quan để dự báo thời tiết. Đến triều Chu, mọi người học được kinh nghiệm xem hành động và nghe tiếng kêu của động vật để dự báo thời tiết. Thời Tần Hán, người cổ đại đã hoàn thành xong cách chia 24 tiết trong năm theo lịch mặt trăng."
shortPara_Sci_150para_0038,Nuôi tóc dài. Bất kể đàn ông hay đàn bà thời cổ đại đều có thói quen nuôi tóc dài với tiêu chí càng dài càng đẹp. Hầu như họ không cắt tóc mà chỉ tỉa hai bên mai tóc. Con trai đến tuổi đi học thì tết tóc. Đối với người cổ đại bị cắt tóc chính là một hình thức trừng phạt rất nhục nhã.
shortPara_Sci_150para_0039,"Hoàng đế sở hữu vố số mỹ nhân. Hoàng đế có tam cung lục viện, giai nhân 3000 người. Đây chỉ là một con số ước lượng để chỉ số phi tần, cung nữ của hoàng đế là rất nhiều."
shortPara_Sci_150para_0040,"Nhưng trong lịch sử Trung Quốc, có những hoàng đế sở hữu số mỹ nữ còn nhiều hơn con số kể trên. Nổi tiếng nhất phải kể đến hôn quân Tùy Dương Đế, từng hạ chiếu tuyển mỹ nữ với quy mô khắp thiên hạ và tuyển gần 3000 thiếu nữ đồng trinh nhập cung. Tiếp đến là Đường Huyền Tông, đừng nhìn vào mối tình kinh thiên động địa của ông ta và Dương Quý Phi mà nghĩ ông không màng đến giai nhân khác, thực ra số giai nhân trong hậu cung của ông ta nhiều đến mức chỉ cần mỗi ngày lâm hạnh một nàng cũng phải hơn trăm năm mới hết một vòng."
shortPara_Sci_150para_0041,"Vì sao người Mỹ không tin Trung Quốc có hệ thống cao tốc đứng đầu thế giới? Trung Quốc và Mỹ đã trở thành hai cường quốc mạnh trên thế giới. Tuy nhiên một số người dân Mỹ vẫn còn nghi ngờ về Trung Quốc. Trên trang mạng Quora của Mỹ có bài khảo sát: 'Trung Quốc có đường cao tốc không?'. Mặc dù tổng chiều dài hệ thống đường cao tốc Trung Quốc đứng đầu thế giới, nhưng vẫn có người hài hước trả lời: 'Họ không có, họ vẫn đang cưỡi lừa! Câu hỏi khuyết danh này đã gây tiếng vang cho dân mạng. Bạn bè toàn cầu nhiệt tình tham gia trả lời. Một người nước ngoài sống ở Trung Quốc lâu năm còn khẳng định : Không có, người Trung Quốc vẫn đi trên những con đường bùn lầy, phương tiện giao thông chủ yếu của họ vẫn là lừa và ngựa. Một dân mạng Mỹ, chắc là người xem nhiều phim võ thuật trả lời: Trung Quốc không có đường, đơn giản là bởi vì họ không cần."
shortPara_Sci_150para_0042,"Theo truyền thông địa phương, có một lưu học sinh tự xưng học khoa cơ khí công trình, Đại học hàng không và phi hành gia Nam Kinh nói: Các bạn đang đặt Trung Quốc vào thế kỷ trước, hiện Trung Quốc có dân số đông nhất thế giới, là quốc gia giàu thứ hai thế giới, có tàu tốc hành nhanh nhất thế giới, sao các bạn lại nghĩ họ không có hệ thống đường cao tốc? Hầu hết dân cư mạng đều trả lời vấn đề ở chỗ, khái niệm về Trung Quốc của rất nhiều người phương Tây chịu ảnh hưởng từ phương tiện thông tin đại chúng của phương Tây, họ vẫn đang dừng lại ở cảnh quay từ thế kỷ 19. Trong thực tế, sự phát triển giao thông đường bộ của Trung Quốc là một phép lạ trong lịch sử xây dựng của nhân loại. Chỉ trong thời gian ngắn ngủi mấy chục năm, Trung Quốc đã xây dựng mạng lưới đường cao tốc lớn nhất thế giới, tạo thành cầu nối giữa các ngành kỹ thuật cao."
shortPara_Sci_150para_0043,"Mặc dù lịch sử phát triển đường cao tốc Trung Quốc mới chỉ hai mươi năm, nhưng đến nay Trung Quốc đã xây dựng hơn 130.000km đường cao tốc. Đến cuối năm 2020 kế hoạch con số này sẽ là 169.000 km. Từ năm 2014 Trung Quốc đã vượt Mỹ và trở thành quốc gia có tổng số km đường cao tốc dài nhất trên thế giới. Nhiều người Mỹ không biết rằng, kỹ thuật xây dựng đường của Trung Quốc còn được bán ra nước ngoài. Từ Nam Mỹ đến Châu Phi, từ Nam Á đến Quần đảo Thái Bình Dương, Trung Quốc đã trúng thầu rất nhiều công trình đường bộ, đường hầm và cầu đường. Trung Quốc thông xe hệ thống đường cao tốc dài nhất thế giới 130.000km Theo thông tin từ Bộ giao thông vận tải Trung Quốc, hiện hệ thống đường cao tốc Trung Quốc đã đạt 131.000km, tăng thêm 41.000km kể từ cuối năm 2012, vươn lên đứng đầu thế giới."
shortPara_Sci_150para_0044,"Trạm tín hiệu số 23' là cuốn sách dành cho những người đang đơn độc chống chịu đau khổ. Trạm tín hiệu giống như một ngọn hải đăng. Nhưng NASA không thích các trạm viên gọi nó là hải đăng vì thời buổi này ai còn di chuyển trên biển nữa. Mà đã không ở biển thì làm sao được gọi là ""hải đăng"". Trạm tín hiệu số 23 đương nhiên là có người canh gác. Một anh lính mà đến cuối truyện ta vẫn chưa biết tên tuổi. Ngày ngày, anh ta giải trí bằng cách ngắm một bức ảnh ở dưới Trái Đất nhiều hơn ngắm vũ trụ qua bức chắn trong suốt ở thành trạm. Anh dành hàng giờ đồng hồ để quan sát đốm sáng nhấp nháy của trạm tín hiệu bên cạnh cách xa hàng trăm cây số. Anh cũng tình cờ nuôi được một con thú cưng không phải chó cũng chẳng phải mèo, và luôn đinh ninh rằng nó có thể kết nối với tâm trí mình."
shortPara_Sci_150para_0045,"Trạm viên trạm số 23 vô cùng kiệm lời, dù thực tế anh ta cũng chẳng có mấy ai để nói chuyện cùng. Trừ một hòn đá. Mà là hòn đá phù thủy hẳn hoi nhé. Nó khiến anh cười nghiêng ngả, rồi ngay sau đó lại khóc tu tu. Nó quan tâm đến anh, lắng nghe thật sự những điều anh chia sẻ, và khiến anh phải mở lòng kể về những ký ức chiến tranh thậm tệ. Hòn đá ấy lẽ ra sẽ là một người bạn đồng hành tuyệt vời, nếu như người ta không bị ảo tưởng khi đã cô đơn quá lâu rồi. Ảo tưởng bị cái vấn đề như thế đấy: hình thành thì dễ như chơi, nhưng một khi đã bị đập tan, có trời cũng không ghép lại được. Về mặt này chúng cũng giống con người. Nhưng anh chàng ở trạm số 23 lại không như vậy. Anh đục một lỗ giữa hòn đá và đeo nó lên cổ, chờ đợi một ngày nào đó nó sẽ quay lại nói chuyện với anh. Vì anh biết mình có thời gian. Và có cả vũ trụ đang chờ đợi cùng anh. Hoặc ít nhất đó là điều anh nghĩ."
shortPara_Sci_150para_0046,"Tìm ra dấu tích của 15 triệu người Maya nhờ công nghệ thăm dò laser. Các nhà nghiên cứu vừa khám phá ra thêm ít nhất 60.000 công trình mới của người Maya ở miền bắc Guatemala sau khi sử dụng tia laser để thăm dò khu vực này. Theo kết quả thăm dò, họ nhận thấy rằng nền văn minh Maya tại đây phức tạp và liên kết với nhau nhiều hơn rất nhiều so với những dự đoán của các chuyên gia trước đó. Để thực hiện việc tìm kiếm, các nhà nghiên cứu đã lập bản đồ của hơn 800 dặm vuông trong Khu bảo tồn sinh quyển Maya của Guatemala, và sau đó sử dụng công nghệ thăm dò LiDAR từ trên không. Ngay cả trong những khu vực tưởng chừng không có người ở cũng chứa đầy các vết tích văn minh Maya, và các nhà nghiên cứu ước tính có khoảng 10-15 triệu người từng sinh sống trong khu vực này. Phát hiện này không chỉ mang ý nghĩa lớn về khoa học, mà còn có thể góp phần phát triển kinh tế Guatemala."
shortPara_Sci_150para_0047,"NASA giải thích về công nghệ LiDAR Công nghệ LiDAR (Light Detection and Ranging, tạm dịch: phát hiện và đo đạc bằng ánh sáng) sử dụng tia laser được phát triển từ những năm 60 của thế kỷ trước, và đang trở thành một công cụ cực hữu dụng cho các nhà địa chất, khảo cổ trong những năm gần đây. Cách vận hành của LiDAR thật ra khá đơn giản: các máy bay trang bị LiDAR sẽ chiếu tia laser xuống mặt đất, và các tia này phản xạ lại lên không khi chạm vào vật cản. Cảm biến trang bị trên máy bay sẽ thu nhận các tia phản xạ và khi được xử lý qua máy tính, các nhà khoa học có thể lột bỏ phần lá, cây cỏ trong rừng để nhìn thấy những gì bị ẩn sâu bên dưới. Tuy nhiên, trở ngại chính của việc sử dụng LiDAR vào việc thăm dò là chi phí sử dụng nó rất đắt tiền. Một lần khảo sát bằng công nghệ này có thể ngốn tới 150.000 USD, và lượng dữ liệu khổng lồ mà nó thu thập có thể rất choáng ngợp ngay cả với sự trợ giúp của máy tính. Pacunam cho biết chi phí cho việc vận hành LiDAR lên đến hơn 600.000 USD chỉ trong giai đoạn đầu tiên này. Trong tương lai, Pacunam mong muốn sử dụng LiDAR để lập bản đồ toàn bộ khu vực Bảo tồn sinh quyển Maya."
shortPara_Sci_150para_0048,"Everest cao bao nhiêu: Câu hỏi nhạy cảm và niềm tự hào của Nepal. Sau nhiều năm để các nhà địa chất học nước ngoài tranh cãi về chiều cao của Everest, chính phủ Nepal đã quyết định họ sẽ là người giải quyết câu hỏi này. Ai cũng biết Everest là đỉnh núi cao nhất thế giới, nhưng không ai biết chính xác nó cao bao nhiêu. Trong nhiều năm dài, các nhà địa chất đã không thể thống nhất nhau về cách tính toán chiều cao của đỉnh Everest: Họ có nên tính cả chiều dày của lớp tuyết phủ trên đỉnh núi không? Hay chiều cao chỉ nên tính từ phần đỉnh núi đá? Trận động đất gần đây ở Nepal đã làm Everest ""sụt"" xuống một chút, nhưng đó là 2,5 hay 3 cm? Chưa kể những cơn gió liên tục làm thay đổi độ dày của lớp tuyết phủ. Không những vậy, các nhà địa chất học còn phải đối mặt với các thử thách về địa hình khi họ chỉ có thể leo đến đỉnh Everest vài tuần trong một năm và việc đo độ cao của đỉnh núi tính từ mực nước biển là không hề dễ dàng, đặc biệt với một quốc gia nằm hoàn toàn trong đất liền, không giáp biển như Nepal."
shortPara_Sci_150para_0049,"Chiều cao được công nhận của đỉnh Everest là 8.848 m. Dù vậy, các nhóm nghiên cứu địa chất trên khắp thế giới đã đưa ra những kết quả tính toán khác. Năm 1992, một nhóm địa chất của Italy đã công bố kết quả là 8.845 m. Kết quả đo đạc của các nhà khoa học Mỹ vào năm 1999 là 8.849 m. Nepal ""cự tuyệt"" chuyên gia nước ngoài Những chuyến đi đo đạc trên thường không có mặt các chuyên gia địa phương. Giờ đây, những người Nepal đang muốn hạn chế sự can thiệp của nước ngoài và muốn tự mình giải quyết vấn đề chiều cao của Everest. New York Times nhận định động thái này, bên cạnh động cơ khoa học, còn có cả niềm tự hào dân tộc. ""Everest là báu vật của chúng tôi"", tờ báo dẫn lời ông Buddhi Narayan, người từng đứng đầu Cơ quan Khảo sát Nepal. ""Điều gì sẽ xảy ra nếu các chuyên gia nước ngoài cứ liên tục hạ thấp chiều cao đỉnh núi của chúng tôi mà không có sự tham gia của chúng tôi?""."
shortPara_Sci_150para_0050,"Chính phủ Nepal không công nhận mọi kết quả đo đạc từ các chuyên gia nước ngoài, có một số phương pháp được ưu ái hơn các phương pháp khác. Năm 2005, sau khi các chuyên gia từ Trung Quốc, đất nước chia sẻ đỉnh Everest với Nepal, đo đạc chiều cao từ cả phần núi đá lẫn phần tuyết phủ, một cuộc tranh cãi nảy lửa đã nổ ra. Sherpa, người từng đứng đầu Hiệp hội Leo núi Nepal, nói rằng Trung Quốc đã gây áp lực lên chính phủ Nepal và các cơ quan quốc tế để công nhận chiều cao là 8.844 m, tức chỉ tính từ phần núi đá mà không bao gồm lớp tuyết. Nepal không đồng ý và Trung Quốc cuối cùng phải nhượng bộ. Việc ngọn núi được chứng nhận cao thêm vài mét có thể khiến những người leo núi thay đổi lịch trình, điểm bắt đầu leo hoặc tiêu thêm tiền tại Nepal. ""Năm ngoái, Trung Quốc thay đổi con số tính toán của họ sau khi số người leo núi từ phía bắc (phía Tây Tạng) giảm mạnh"", ông Sherpa cho biết."
shortPara_Sci_150para_0051,"Roger Bilham, nhà địa chất học tại Đại học Colorado Boulder, nói rằng Everest nằm ở một vùng chịu đè nén giữa phía nam Tây Tạng và Ấn Độ. Điều này có nghĩa là nó sẽ sụt xuống vào những trận động đất và cao lên vào những thời điểm giữa hai trận động đất. Trận động đất mạnh vào năm 1934 đã làm ngọn núi thấp đi 63 cm. Vào thế kỷ 19, người ta đo độ cao của Everest bằng việc tính góc của đỉnh núi và các điểm trên mặt đất mà vị trí tương đối của chúng với mực nước biển đã được xác định trước đó. Ngày nay, các nhà đo đạc đặt một hệ thống định vị toàn cầu trên đỉnh núi trong một giờ và dùng các công thức toán học để tính toán chiều cao so với mực nước biển từ vệ tinh và lực hấp dẫn từ vị trí đặt máy. Các kết quả đo đạc chiều cao của Everest, dù chênh lệch vài m, có thể ảnh hưởng để lịch trình của các tay leo núi. Trong tháng này, các nhà đo đạc của Nepal sẽ thu thập các số liệu dọc theo các vùng đồng bằng của nước này, nơi họ dự tính đo đạc chiều cao so với mực nước biển. Chi phí đo đạc rơi vào khoảng 250.000 USD."
shortPara_Sci_150para_0052,"Alan Arnette, một người leo núi nổi tiếng, nói rằng bất cứ việc đo đạc chiều cao nào cũng chỉ là nhất thời khi lượng tuyết đóng trên đỉnh thay đổi liên tục. Ông chất vấn liệu số tiền bỏ ra có đáng để thực hiện việc đo đạc này không. ""Là một người leo núi, tôi muốn nhìn thấy kết quả"", ông Arnette nói. ""Nhưng với tư cách một người đứng về phía người Nepal, số tiền này có thể chi cho công việc, thực phẩm, không khí sạch hay những chương trình quan trọng hơn đối với sức khỏe của một quốc gia""."
shortPara_Sci_150para_0053,"Đừng nghe nhạc khi tập thể thao! Một nghiên cứu mới công bố của Đức cho thấy thói quen nghe nhạc khi tập gym, chạy bộ, chơi thể thao chẳng những không giúp ích mà còn tăng các rủi ro khi tập luyện. Thể loại motivational music (nhạc sôi động để nghe khi luyện tập, thường được gọi là nhạc tập gym) cũng được nhiều người tải về điện thoại với hy vọng có thêm động lực lúc tập. Tuy nhiên, thí nghiệm của Viện Mỹ học thực nghiệm Max Planck (Đức) cho thấy việc nghe nhạc thật sự không hề giúp bạn luyện tập tốt hơn!"
shortPara_Sci_150para_0054,"Nhóm nghiên cứu đứng đầu bởi tiến sĩ Paul Elvers đã mời 150 người chia làm 3 nhóm, tham gia nhiệm vụ ném bóng và điền vào bảng câu hỏi. Một nhóm tự chọn nhạc và vừa nghe vừa chơi bóng, một nhóm nghe nhạc do nhóm nghiên cứu cung cấp, một nhóm không nghe gì cả. Điểm số ném bóng cùng các số liệu đo đạc khác cho thấy không hề có sự khác biệt tích cực hay tiêu cực giữa ba nhóm nói trên. Hiệu suất tập luyện của họ không thay đổi dù có nghe nhạc hay không và nghe nhạc gì; tâm trạng, nhận thức cá nhân, mức độ lo lắng khi luyện tập cũng là như nhau giữa các nhóm. Các bước nghiên cứu tiếp theo cũng phù hợp với kết quả nêu trên. Tuy nhiên, các nhà khoa học phát hiện ra có một tác động tiêu cực xảy đến với một số nam giới: khi vừa tập vừa thưởng thức những bản nhạc thể thao sôi động, họ dễ gặp rủi ro hơn do thiếu tính kềm chế khi thực hiện những động tác quá sức, gây hại cho bản thân. Điều đó đồng nghĩa với việc gia tăng các tai nạn, chấn thương thể thao. Thế nhưng, theo tiến sĩ Paul Elvers, vẫn cần những nghiên cứu đầy đủ hơn về việc nghe nhạc làm tăng cường hành vi nguy cơ. Nhóm nghiên cứu vẫn đang tiếp tục mở rộng và nâng tầm công trình của mình."
shortPara_Sci_150para_0055,"Những khung hình đẹp đến ám ảnh tại nơi từng xảy ra thảm họa nguyên tử Chernobyl. Thảm họa nguyên tử Chernobyl năm 1986 khi nhà máy điện nguyên tử Chernobyl bị nổ được coi là vụ tai nạn hạt nhân trầm trọng nhất trong lịch sử năng lượng hạt nhân. Một nhiếp ảnh gia đã quyết định tới đây và ghi lại những hình ảnh về sự sống ở Chernobyl. Nhà máy điện nguyên tử Chernobyl ở Pripyat, Ukraine (khi ấy còn là một phần của Liên bang Xô viết) bị phát nổ vào ngày 26/4/1986. Đây được coi là vụ tai nạn hạt nhân trầm trọng nhất trong lịch sử năng lượng hạt nhân. Do không có tường chắn, đám mây bụi phóng xạ tung lên từ nhà máy lan rộng ra nhiều vùng phía tây Liên bang Xô viết, Đông và Tây Âu, Scandinavia, Anh quốc, và đông Hoa Kỳ. Nhiều vùng rộng lớn thuộc Ukraina, Belarus và Nga bị ô nhiễm nghiêm trọng, dẫn tới việc phải sơ tán và tái định cư cho hơn 336.000 người."
shortPara_Sci_150para_0056,"Nhiếp ảnh gia Vladimir Migutin đã quyết định ghé thăm vùng đất nơi từng hứng chịu thảm họa nguyên tử nghiêm trọng này. 'Đó là một quyết định rất tự phát' - Vladimir chia sẻ - 'Tôi sinh ra tại Belarus năm 1986, cũng là năm thảm họa Chernobyl xảy ra, ký ức tuổi thơ trong tôi là những ngày tươi đẹp. Tôi rất muốn tới thăm lại vài nơi để xem nó thay đổi ra sao và gặp gỡ bạn bè. Thế rồi ý tưởng tới Chernobyl nảy ra trong đầu tôi. Tôi thử tìm trên mạng về những nhóm người tới Chernobyl, chuẩn bị giấy phép để vào đây, tìm người hướng dẫn và một nhóm từ Belarus cũng có chuyến đi gần thời điểm đó'. 'Trở ngại duy nhất mà nhiều người gặp phải khi chuẩn bị cho chuyến đi kiểu này chính là định kiến của họ - rằng đây là một nơi rất nguy hiểm. Sau khi lục lọi trên mạng thì tôi phát hiện ra rằng nó không nguy hiểm đến thế. Chúng tôi sẽ không vào những nơi mà mức độ phóng xạ vẫn còn cao. Thực tế, mức độ phóng xạ trung bình trong chuyến đi này cũng chỉ như mức độ trên một chuyến bay với độ cao 10.000m'."
shortPara_Sci_150para_0057,"Bộ óc vĩ đại nhất thế giới đã bị nữ điệp viên Nga chinh phục thế nào? Nhà khoa học 'Thuyết tương đối' Albert Einstein từng có mối tình sâu sắc với một người phụ nữ nước Nga mà về sau này, người ta cho rằng cô là một nữ điệp viên tình báo. Năm 1998, một cuộc bán đấu giá các kỷ vật của Albert Einstein đã thu hút sự chú ý, khi có một bức thư đề tên người nhận là Margarita Konenkova. Ngôn từ lãng mạn của nhà khoa học gia lỗi lạc khiến nhiều người tin rằng, khi viết những dòng này, ông đang đắm say trong một tình yêu cuồng nhiệt. Nhưng trong một lá thư gửi đi ngày 11/11/1945, Einstein đề cập đến cuộc gặp với các nhân viên lãnh sự vốn là nhân viên tình báo của Liên Xô ở Mỹ. Nhiều người bắt đầu tò mò về danh tính thực sự của Margarita Konenkova."
shortPara_Sci_150para_0058,"Người phụ nữ này là ai? Vì sao cô chiếm được tình cảm của Einstein, nhưng lại sắp xếp cuộc họp giữa khoa học gia người Đức nổi tiếng với điệp viên Liên Xô chỉ vài tháng sau khi Mỹ tạo ra vũ khí hạt nhân đầu tiên? Sinh ra tại một thị trấn xa xôi nước Nga, Konenkova bắt đầu sự nghiệp khi chuyển đến Moscow và ngay lập tức tạo được sức hút với vẻ ngoài quyến rũ. Người ta đồn rằng ngôi sao Feodor Shalyapin (ca sĩ nổi tiếng) và Sergei Rachmaninoff (một trong những nhà soạn nhạc vĩ đại nhất của Nga) từng có quan hệ tình cảm với nữ điệp viên kiều diễm. Tuy nhiên, Konenkova đã chọn kết hôn với Sergei Konenkov, một nhà điêu khắc tài năng của nước Nga khi đó."
shortPara_Sci_150para_0059,"Năm 1923, cặp vợ chồng chuyển đến Mỹ sinh sống và Konenkova trở nên nổi tiếng trong cộng đồng người nhập cư Nga. Cô tham dự nhiều sự kiện và hoạt động xã hội, trong khi người chồng Konenkov tiếp tục sáng tạo nghệ thuật. Năm 1935, đại học Princeton có nhã ý nhờ Konenkov tạc một bức tượng Einstein để trưng bày - và đó là lần đầu tiên Margarita Konenkova gặp người đàn ông được cho là có bộ óc vĩ đại nhất thế giới - Albert Einstein. Einstein là một người khiêm tốn đến ngạc nhiên, người hay nói đùa rằng ông nổi tiếng chỉ vì mái tóc tươi tốt hơn người khác , Konenkova viết trong cuốn hồi ký, đồng thời nhắc đến việc thường xuyên thảo luận về Thuyết tương đối của ông. Mặc dù Konenkova có vẻ như không thành công trong việc thấu hiểu khái niệm này, nhưng cô chắc chắn là người hiểu về tác giả của nó hơn bất kỳ ai khác."
shortPara_Sci_150para_0060,"Khi vợ thứ hai của Einstein là Elsa qua đời vào năm 1936, mối quan hệ của ông với Konenkova mới dần được định hình. Năm 1939 ông nhờ bác sĩ tư vấn cho Margarita nên dành thời gian đến nghỉ ngơi ở nơi có khí hậu trong lành như Saranac Lake, New York (nơi Einstein sống). Mỗi năm Konenkova dành vài tháng sống chung với Einstein ở Saranac trong khi người chồng Sergei làm việc ở Chicago. Tình yêu của cả hai thậm chí còn được gọi với cái tên trìu mến Almar (Albert-Margarita). Như những tình cảm dạt dào thể hiện trong bức thư gửi người tình, Einstein luôn khắc khoải với quãng thời gian hạnh phúc ngắn ngủi bên Margarita và sẵn sàng làm bất cứ điều gì cho người phụ nữ mình yêu."
shortPara_Sci_150para_0061,"Nhà báo Oleg Odnokolenko từ tờ Nezavisimaya Gazeta - người dành thời gian tìm hiểu về câu chuyện của Einstein và Konenkova cho rằng, rất khó để xác định xem Konenkova có tình cảm thực sự với nhà khoa học người Đức hay chỉ là nhiệm vụ mà cô phải tuân thủ trong vai trò điệp viên tình báo. Theo Pavel Sudoplatov, một vị tướng tình báo dưới thời Joseph Stalin, Konenkova là đặc vụ không thể thiếu trong nhiệm vụ thu thập thông tin về chương trình hạt nhân của Mỹ - Dự án Manhattan."
shortPara_Sci_150para_0062,"Nội dung thảo luận giữa nhà khoa học Đức với Liên Xô vẫn còn là bí ẩn. Trong bức thư gửi cho một người bạn Nga, Einstein úp mở rằng ông đã làm tất cả những gì có thể. Sau khi trở về Moscow vào năm 1946, vợ chồng Konenkova được Chính phủ đãi ngộ một trong những lý do để đánh giá nhiệm vụ của cả hai đã thành công. Tuy nhiên, người ta vẫn không biết chính xác điều gì đã xảy ra giữa Einstein và nữ điệp viên Liên Xô hơn 70 năm về trước. Cả tình báo Nga và Mỹ vẫn lưu giữ câu chuyện này trong mục tài liệu mật và chưa có ý định công khai. Nhưng có một điều rõ ràng, bộ óc vĩ đại nhất của nhân loại cũng không tránh khỏi những giây phút yếu lòng."
shortPara_Sci_150para_0063,"Sắp bán vàng trong kho báu lớn nhất lịch sử Mỹ. Theo FoxNews và nhiều kênh tin khác, số vàng tìm thấy dưới đáy biển Mỹ sau hơn 150 năm chuẩn bị được trưng bày và bán đấu giá. Tập đoàn Tiếp thị Vàng của California đã mua lại quyền sở hữu kho báu này. Hiện, số vàng trục vớt được đang nằm tại một phòng thí nghiệm ở thành phố Santa Ana. Do bị chìm lâu dưới đáy đại dương sâu 2.134 mét nên số vàng này đã bị tích tụ gỉ sét, bụi bẩn và ố màu. Các chuyên gia đang tích cực làm việc hàng tuần để làm sạch từng miếng vàng bằng tay, phục hồi chúng về nguyên trạng. Dự kiến, kho báu này sẽ được bày bán trước công chúng vào cuối tháng 2/2018, tại trung tâm hội nghị Long Beach (phía Nam Los Angeles, California). Theo tiết lộ của đại diện Tập đoàn Tiếp thị Vàng California, chỉ một đồng xu tiền vàng nhỏ trong kho báu này cũng có thể được trả giá 1 triệu USD vì sự hiếm có của khối tài sản này và câu chuyện lịch sử đằng sau nó."
shortPara_Sci_150para_0064,"Vào ngày 3/9/1857, tàu SS Central America đã chở khoảng 15 tấn vàng (khoảng 300 triệu USD) rời cảng Panaman đi tới New York. Phác họa tàu SS Central America Trên đường đi, con tàu nặng nề này đã gặp phải cơn bão khủng khiếp. Nó đã bị bão lớn đánh chìm ngoài khơi bờ biển Nam Carolina. 15 tấn vàng và 425 hành khách trên tàu đã cùng chìm xuống đáy đại dương. Sự mất mát này đã khiến nhiều ngân hàng của Mỹ lao đao, kéo theo cuộc khủng hoảng năm 1857 và tình trạng suy thoái kinh tế kéo dài suốt ba năm. Sau gần 150 năm, vị trí xác tàu đắm đã được định vị chính xác và kho báu đồ sộ này đã được tiến hành khai quật."
shortPara_Sci_150para_0065,"Các nhà đầu tư Mỹ đã đổ hàng triệu USD vào cuộc tìm kiếm khối tài sản khổng lồ này. Công cuộc trục vớt số vàng này diễn ra ròng rã trong thời gian dài và được tiến hành rất nhiều lần. Nhưng đến nay, chỉ có 5% kho báu được tìm thấy. Số vàng trục vớt được gồm 3.100 đồng xu tiền vàng, 45 miếng vàng khối và hơn 30 kg bụi vàng thu hồi được từ đống đổ nát của tàu SS Central America. Tập đoàn Tiếp thị Vàng của California đã mua lại số vàng này với trị giá 50 triệu USD và chuẩn bị tiến hành bán đấu giá chúng. Truyền thông xứ cờ hoa mô tả, đây là kho báu bị thất lạc hay bị mất lớn nhất trong lịch sử Hoa Kỳ."
shortPara_Sci_150para_0066,"Thiên nga thả thí điểm ở hồ Gươm nhập từ Bỉ, giá 20 triệu đồng. Lãnh đạo Công ty TNHH MTV Thoát nước Hà Nội cho biết 12 con thiên nga được thả thí điểm ở hồ Gươm thích nghi với khí hậu Việt Nam và được các chuyên gia ủng hộ. Nhiều người dân cho rằng việc nuôi thiên nga tại hồ Gươm (Hà Nội) không phù hợp với văn hóa, khí hậu Việt Nam. Trao đổi với Zing.vn , ông Võ Tiến Hùng, Tổng giám đốc Công ty TNHH MTV Thoát nước Hà Nội cho hay sau khi hoàn thành việc nạo vét và bổ sung nước hồ Gươm (Hà Nội), đơn vị thả thí nghiệm thiên nga ở góc hồ và quây lưới để du khách và người dân tham quan, chiêm ngưỡng. Loại thiên nga này được nhập từ Bỉ, thích nghi được với khí hậu của Việt Nam.Trước mắt đơn vị này chỉ thả thí điểm một số cặp xuống hồ Gươm, và nhận góp ý từ các chuyên gia và người dân."
shortPara_Sci_150para_0067,"Trao đổi với báo chí, GS Nguyễn Lân Dũng, Chủ tịch Hội các ngành sinh học Việt Nam ủng hộ việc thí điểm nói trên. Theo ông, các nước trên thế giới đều thả thiên nga ở hồ. Việc thả ở hồ Gươm chỉ làm đẹp thêm chứ không ảnh hưởng đến môi trường sinh thái. Chia sẻ với Zing.vn , GS. Nguyễn Lân Dũng cho biết thêm ông là người được lãnh đạo Hà Nội tham vấn ý tưởng thả thiên nga Bỉ ở hồ Gươm. Giá mỗi con khoảng 20 triệu đồng, được tài trợ từ nguồn xã hội hóa. ""Việc thả thiên nga khoảng từ 50-100 con là phù hợp. Thiên nga Bỉ chịu rét và nóng rất tốt nên việc chăm sóc không phức tạp. Điều tôi lo ngại là những người câu trộm ở hồ"", GS Nguyễn Lân Dũng nói."
shortPara_Sci_150para_0068,"Sáng 5/2 tại khuôn viên đền Ngọc Sơn (hồ Gươm) người dân thủ đô và du khách bất ngờ khi thấy một đàn thiên nga bơi tung tăng dưới mặt hồ. Sự kiện này thu hút nhiều người hiếu kỳ đến chiêm ngưỡng. Theo ghi nhận, tổng cộng 12 con thiên nga, cả trắng lẫn đen được thả xuống hồ. 12 con thiên nga bơi tung tăng ở hồ Gươm Sáng 5/2 tại khuôn viên đền Ngọc Sơn (hồ Hoàn Kiếm, Hà Nội), người dân thủ đô và du khách ghé thăm đền bất ngờ khi thấy một đàn thiên nga bơi tung tăng dưới mặt hồ."
shortPara_Sci_150para_0069,"Trăn đói không ăn thịt, sống chung với chó con. Một sở thú ở Trung Quốc đang khiến dư luận phẫn nộ vì nhốt những chú chó con vào cùng một nơi với những con trăn khổng lồ. Vườn thú này nằm ở thành phố Bình Đỉnh Sơn (tỉnh Hà Nam, Trung Quốc). Sự việc bại lộ sau khi trên mạng lan truyền những video, hình ảnh cho thấy cảnh tượng những chú chó nhỏ ngồi, nằm bên cạnh những con trăn lớn. Sở thú Trung Quốc nhốt chó chung với trăn Một đại diện của sở thú đã lên tiếng thừa nhận, thực sự có việc nuôi những chú chó con làm thức ăn cho trăn. Nhưng đó là hành động tùy tiện của nhân viên ở đây. Điều này được xem là vi phạm luật bảo vệ động vật tại nước này và bị những người yêu động vật, đặc biệt là người yêu chó lên án dữ dội."
shortPara_Sci_150para_0070,"May mắn thay, những con trăn đói đã không ăn thịt những chú chó nhỏ. Ngược lại, chúng còn chung sống cùng, ngủ cùng những chú chó con. Hình ảnh lan truyền trên mạng Tuy nhiên, nhiều người vẫn cảm thấy lo lắng cho sự an toàn của những chú chó. Chúng nhỏ bé và yếu ớt, trong khi loài trăn xưa nay nổi tiếng máu lạnh. Những chú chó con có thể bị ăn thịt bất cứ lúc nào nếu cơn đói dày vò con trăn quá lâu và chúng không còn tình thương để dành cho một kẻ khác loài. Đây không phải lần đầu tiên sở thú này bị lên án như vậy. Trước đó, vườn thú này từng bị phát hiện nhốt những chú chó nhà bị thương, què quặt vào chung chuồng với những con chó sói, để làm thức ăn tươi sống cho những con sói ở đây."
shortPara_Sci_150para_0071,"Nghiên cứu mới: Đàn ông sợ phụ nữ thông minh. Một nghiên cứu gần đây đăng trên tờ Tâm lý học cá nhân và xã hội khiến dư luận xôn xao khi chỉ ra rằng, rất nhiều người đàn ông không muốn thừa nhận rằng họ sợ hãi phụ nữ thông minh. Nghiên cứu được thực hiện bởi nhóm các nhà khoa học đến từ Đại học Buffalo, Đại học California Lutheran và Đại học Texas, trong đó có một chi tiết: ""105 người đàn ông lần đầu tiên tiếp cận với giả thuyết về một người phụ nữ có thành tích cao hơn hoặc kém hơn họ trong môn Toán và Tiếng Anh, sau đó, hãy tưởng tượng đó là những người phụ nữ lãng mạn"". Một số người đàn ông tham gia thử nghiệm đánh giá rằng, những người phụ nữ thông minh rất quyến rũ, và họ muốn phụ nữ thông minh thể hiện trí tuệ của mình nhiều hơn nữa."
shortPara_Sci_150para_0072,"Tuy nhiên, phần thứ hai của nghiên cứu này chỉ ra, khi đàn ông được hỏi rằng liệu họ có muốn hẹn hò với mẫu phụ nữ đó trong cuộc sống thực hay không, một số người cho hay: ""Chúng tôi cảm thấy rằng mình ở khoảng cách quá xa so với mẫu phụ nữ này, có xu hướng đánh giá cô ấy kém hấp dẫn hơn và không muốn trao đổi thông tin liên lạc, hay lên kế hoạch hẹn hò với cô ấy"". Một số khác thì cho biết, họ đã ""rùng mình"" khi chỉ nghe đến cụm từ ""phụ nữ thông minh"" và trở nên e dè khi phải thừa nhận: Họ không thích thú, có phần sợ hãi trước ý tưởng đó. Ở dưới bản nghiên cứu, các nhà khoa học cho biết vẫn cần phải có thêm nhiều thử nghiệm hơn nữa để khẳng định kết luận này. Tuy nhiên, nhóm nghiên cứu cũng bày tỏ sự tín nhiệm đối với khảo sát này: ""Áp lực xã hội làm giảm đi sự quan tâm của nam giới đối với những người phụ nữ mà họ thấy giỏi giang. Đàn ông bị hấp dẫn bởi ý tưởng hẹn hò với phụ nữ thông minh, nhưng họ sẽ không thực hiện điều đó""."
shortPara_Sci_150para_0073,"Kính viễn vọng James Webb của NASA chịu nhiệt độ siêu lạnh ra sao? NASA vừa có bài kiểm tra quan trọng với kĩnh viễn vọng không gian James Webb trong buồng lạnh về khả năng chịu đựng của thiết bị này trong những điều kiện đặc biệt khắc nghiệt ngoài vũ trụ. Những phần quan trọng của kính thiên văn James Webb đã được đưa vào thử nghiệm trong buồng lạnh -223 độ C. Kính viễn vọng James Webb dự kiến sẽ được ra mắt vào năm 2019, đại diện cho thế hệ tiếp theo của kính viễn vọng không gian. Nó là thiết bị mạnh nhất từng được chế tạo và sẽ đón nhận những hình ảnh tiếp theo ngoài vũ trụ, nơi mà kính Hubble và Spitzer đã phải ""thúc thủ"". Nó được kỳ vọng sẽ giúp các nhà khoa học tìm kiếm các đầu mối dẫn đến khám phá sự hình thành sớm của vũ trụ."
shortPara_Sci_150para_0074,"Điều kiện thử thách được đưa ra với kính viễn vọng không gian thế hệ mới của NASA là phơi mình trong nhiệt độ -370 độ F (- 223 độ C). Ở nhiệt độ này, không một người bình thường nào có thể chịu đựng được dù chỉ là trong chốc lát. Cuộc thử nghiệm được tiến hành tại phòng A, Trung tâm Vũ trụ Johnson của NASA ở Texas. Nó có một môi trường chân không nhân tạo đặc biệt và đã được tân trang để giúp mô phỏng các điều kiện khắc nghiệt ngoài vũ trụ. Những phần quan trọng của kính thiên văn James Webb đã được đưa vào đây cùng với một chiếc máy ảnh của NASA để ghi lại những diễn biến bên trong."
shortPara_Sci_150para_0075,"Một bức ảnh đã được chụp lại, được phát hành bởi NASA, trông như một bức ảnh chụp lại từ một bộ phim khoa học viễn tưởng, nhưng nó cho thấy các yếu tố quan trọng của kính viễn vọng phản ứng như thế nào trong điều kiện cực lạnh có thể sẽ phải đối mặt trong không gian. NASA cho biết, kính thiên văn đã thu nhỏ lại một cách nhẹ nhàng trong điều kiện lạnh giá của căn phòng. Điều này cho biết, kính thiên văn James Webb hoạt động khá tốt trong môi trường này. Các nhà khoa học hoàn toàn có thể yên tâm cho những dự định khám phá vũ trụ ngay sau khi kính thiên văn này chính thức hoạt động trong tương lai gần. Trước James Webb, những ""người tiền nhiệm"" của kính thiên văn thế hệ mới này là Hubble và Spitzer đã thực hiện khá tốt sứ mệnh của mình."
shortPara_Sci_150para_0076,"Thiên nga vừa thả ở Hồ Gươm đã lo bị bắt trộm. Theo Giáo sư Nguyễn Lân Dũng ông ủng hộ việc thả chim thiên nga ở Hồ Gươm tuy nhiên ông cũng bày tỏ lo lắng sẽ có người bắt trộm những chú chim này. 12 chú thiên nga lần đầu tiên xuất hiện tại Hồ Gươm khiến nhiều du khách thích thú. Ngày 5/2, 12 chú thiên nga được công ty TNHH MTV thoát nước Hà Nội thả thí điểm tại khu vực Hồ Gươm (quận Hoàn kiếm, Hà Nội). Theo ông Võ Tiến Hùng (Tổng giám đốc công ty TNHH MTV thoát nước Hà Nội), đây là loại thiên nga này được nhập từ Bỉ, thích nghi được với khí hậu của Việt Nam. Trước mắt chúng tôi chỉ thả thí điểm một vài cặp vào Hồ Gươm. Nếu được nhân dân, dư luận ủng hộ và thiên nga thích nghi tốt với môi trường thì tiếp tục nghiên cứu thả thêm , ông Hùng cho biết. Giáo sư Nguyễn Lân Dũng ủng hộ việc thả thiên nga tại Hồ Gươm, tuy nhiên ông cũng lo sợ sẽ có người bắt mất những chú chim này. Cũng trong buổi thả thử nghiệm 12 chú thiên nga tại Hồ Gươm, Giáo sư Nguyễn Lân Dũng (Chủ tịch Hội Các ngành sinh học Việt Nam) bày tỏ quan điểm ủng hộ việc thả chim thiên nga tại Hồ Gươm."
shortPara_Sci_150para_0077,"Giải mã căn phòng bí mật của các linh mục thời Trung cổ. Thời Trung cổ ở Anh, không ít cuộc bạo loạn, xung đột đẫm máu xảy ra, Theo đó, nhiều lâu đài, biệt thự và cả các nhà ở của các linh mục, tầng lớp thượng lưu... có những căn phòng bí mật hay lối đi bí mật. Trong suốt triều đại của Nữ hoàng Elizabeth I, số lượng các căn phòng bí mật tăng mạnh. Nhiều ngôi nhà của các tín đồ Công giáo cũng thiết kế các căn phòng, lối đi đặc biệt như vậy để các linh mục có thể ẩn nấp hoặc tẩu thoát khi gặp nguy hiểm trong các trường hợp khẩn cấp. Đặc biệt, vào thế kỷ 16, căng thẳng giữa các tôn giáo diễn ra khá gay gắt. Tình hình Anh ngày càng rối ren khi vua Henry VIII quyết định ly dị vợ - hoàng hậu Catherine nhưng đã vấp phải sự phản đối của giáo hội Roma."
shortPara_Sci_150para_0078,"Do đó, vua Henry VIII quyết định tách nước Anh khỏi nhà thờ để có thể ly hôn với hoàng hậu Catherine nhằm kết hôn với Anne Boleyn. Những linh mục Công giáo từng có thời gian bị cấm hoạt động ở Anh. Người nào bị bắt đều sẽ bị trừng phạt nặng là tống giam, tra tấn và treo cổ. Giới chức trách còn có mạng lưới cung cấp thông tin, truy tìm gắt gao linh mục Công giáo. Để tránh bị bắt và treo cổ, các linh mục sống cùng với các gia đình giàu có theo đạo Công giáo. Họ sống với thân phận giả là anh em họ hoặc giáo viên của gia đình người chủ. Trong những ngôi nhà đó luôn có căn phòng bí mật để các linh mục có thể kịp thời thoát thân trong các trường hợp khẩn cấp. Hầu hết các căn phòng, lối đi bí mật dành cho các linh mục được xây dựng tại lò sưởi, đằng sau những bức tường giả hay phía dưới cầu thang. Trong một số trường hợp căn phòng bí mật không có lối đi thoát ra bên ngoài, linh mục sẽ ở trong đó suốt nhiều ngày khi có người tới kiểm tra. Một số linh mục tử vong trong căn phòng bí mật do đói khát hoặc thiếu oxy. Họ cũng buộc phải giữ im lặng, không được gây ra tiếng ồn để tránh bị phát hiện."
shortPara_Sci_150para_0079,"Người dân Tiền Giang bắt được cá lạ. Sáng 30/1,một người dân ở xã Tân Lý Đông (huyện Châu Thành, Tiền Giang) đã phát hiện và bắt được một con cá lạ trong dớn của mình đặt dưới sông. Cá lạ bắt được, gây sự tò mò cho người dân Theo thông tin, chủ nhân của con cá lạ trên là ông Lê Văn Hùng, ấp Tân Thạnh, xã Tân Lý Đông (huyện Châu Thành). Con cá lạ bắt được có hình giống con cá trê, nhưng có màu vàng trắng nặng 2,5 kg."
shortPara_Sci_150para_0080,"Ông Hùng kể: Khoảng 8h sáng ngày 30/1, trong lúc đi bộ trên đường, ông nhìn xuống cái dớn của gia đình đặt dưới sông và thấy trong đuôi dớn có một con gì thoi thớp rất lớn. Ông vội lấy bao xuống xuồng để đi đổ. Giở dớn lên, ông bất ngờ khi thấy con cá có màu vàng trắng, giống cá trê và khá lạ so với cá trê thông thường. Khi biết tin ông Hùng bắt được con cá lạ được người dân kéo đến xem ngày một đông, và nhận xét chưa từng thấy con cá có màu sắc kỳ lạ như thế trên vùng đất này. Trước đó, sáng 26/1 hai cần thủ là ông Lê Văn Hằng và Hoàng Quốc Đại, ở tổ dân phố 2 Phước Trung, Phước Long, thành phố Nha Trang (Khánh Hòa), là hai cần thủ may nắm câu được cá sủ vàng quý hiếm."
shortPara_Sci_150para_0081,"Trung Quốc thiếu phụ nữ, búp bê tình dục có thể lấp khoảng trống? Trong bối cảnh Trung Quốc đang đối mặt trước khoảng cách giới tính quá lớn và dân số đông, một công ty muốn kết nối những người đàn ông cô đơn và đã về hưu với bạn đồng hành là búp bê tình dục thông minh, có thể trò chuyện, chơi nhạc và bật máy rửa bát. Hàng dài mô hình búp bê tình dục bằng silicon với thân hình gợi cảm được treo trong kho của EXDOLL, một công ty có trụ sở tại thành phố cảng Đại Liên, nhưng các kỹ sư cũng đang nỗ lực đưa chúng trở nên phổ biến hơn trong cuộc sống."
shortPara_Sci_150para_0082,"Hiện Trung Quốc, quốc gia 1,4 tỷ dân, có số lượng nam giới nhiều hơn nữ giới là 33,6 triệu người. Khoảng cách chênh lệnh lớn như vậy là hệ quả của chính sách một con mà nước này áp dụng trước đây, cùng quan niệm trọng nam khinh nữ vẫn tồn tại, dẫn tới việc chọn giới tính thai nhi bất hợp pháp. Cứ 114 bé trai mới có 100 bé gái - đây là mức chênh lệch giới tính rất lớn so với mức trung bình toàn cầu. Ngồi giữa hai mô hình bằng silicon, một cô mặc váy ngắn màu đen và cô còn lại trong trang phục học sinh, giám đốc tiếp thị của EXDOLL Wu Xingliang nói, các sản phẩm của công ty ông có thể giải quyết được những vấn đề lớn trong xã hội Trung Quốc. Trung Quốc thiếu nữ giới và điều đó giải thích vì sao nhu cầu búp bê tình dục tăng cao, nhưng nó không chỉ là yếu tố tình dục , Wu nói."
shortPara_Sci_150para_0083,"Khách hàng của ông có cả người trẻ, người lớn tuổi cũng như người đã kết hôn. Chúng tôi đang thiết kế loại robot tình dục sao cho chúng có thể trò chuyện thực sự với bạn và giúp bạn việc nhà. Chúng thậm chí có thể làm trợ lý hoặc lễ tân , Wu nói. Cơ thể hấp dẫn nhất Xiaodie về cơ bản là một con búp bê tình dục kết nối wifi tương tự ứng dụng Siri trên iPhone, có thể lướt Internet và phản hồi các lệnh thoại.Nó có thể bật/tắt các thiết bị gia đình có kết nối wifi. Người dùng có thể kiểm soát nó bằng ứng dụng trên điện thoại hoặc qua khẩu lệnh. Xiaodie có giá 25.000 nhân dân tệ (4.000 USD), đắt hơn nhiều so với những búp bê tình dục truyền thống (chỉ có giá 2.500 tệ)."
shortPara_Sci_150para_0084,"Trong năm tới, EXDOLL hy vọng tung ra thị trường nhiều loại robot tiên tiến có trí tuệ nhân tạo, biểu hiện khuôn mặt phức tạp và chuyển động cơ thể, hệ thống nhận diện giọng nói và mắt có thể theo dõi các động thái của con người. Tại nhà máy của EXDOLL, các kỹ sư đang điều chỉnh một mô hình robot tình dục. Các lập trình viên tập trung nhìn kỹ mô hình 3D trên màn hình máy tính, trong khi những người khác lắp ráp khung xương, để lộ ra dây điện và mối nối. Mô hình này giống robot trắng trong phim khoa học viễn tưởng. Mô hình sau đó trở nên sống động hơn khi được các kỹ sư dán lớp silicon da, sơn móng tay và mặt."
shortPara_Sci_150para_0085,"Qiao Wu, giám đốc phát triển của EXDOLL, cho biết mục tiêu của họ là tạo ra robot đẹp nhất và giống con người nhất có thể. Công nghệ robot đã phát triển vì vậy chúng tôi muốn tập trung vào việc có một con robot có khuôn mặt đẹp nhất và sở hữu cơ thể hấp dẫn nhất, ông nói. Ý kiến trái chiều Nếu năm 2009, mỗi tháng, công ty EXDOLL chỉ sản xuất được 10 búp bê, con số này giờ đây đã là 400. Công ty bắt đầu nghiên cứu robot tình dục từ giữa năm 2016. Wu nói người mua có thể tùy chỉnh chiều cao, tông màu da, kích cỡ ngực, màu mắt và màu tóc của búp bế tình dục. Tuy nhiên, những con búp bê được lựa chọn nhiều nhất có làn da trắng, ngực không cân xứng và chiều cao từ 158 cm tới 170 cm."
shortPara_Sci_150para_0086,"Khi được hỏi những con búp bê loại nhỏ như vậy liệu có vẻ giống trẻ em hay không, Wu phản đối và lý giải rằng một số có kích cỡ nhỏ bởi khách hàng thích búp bê nhẹ hơn và dễ mang vác hơn. Trên các phương tiện truyền thông xã hội Trung Quốc, một số người cho rằng những sản phẩm búp bê như vậy lại đang cổ xúy cho khuôn mẫu giới và lạm dụng tình dục trẻ em. Khi những con robot tình dục được trang bị công nghệ hiện đại hơn, có chăng nam giới sẽ thích chúng thay vì tôn trọng phụ nữ? một người dùng Weibo bình luận."
shortPara_Sci_150para_0087,"Trong khi đó, những người khác, tự gọi mình là bạn của búp bê , chia sẻ đánh giá của người dùng và lời tư vấn trên các diễn đàn trực tuyến. Tôi cảm thấy rất thoải mái , một người giấu tên bình luận trong bài đánh giá về búp bê tình dục đúng chuẩn. Theo số liệu ước tính, Trung Quốc là quốc gia sản xuất hơn hơn 80% lượng đồ chơi tình dục trên thế giới, với hơn một triệu người làm việc trong ngành công nghiệp trị giá 6,6 tỷ USD."
shortPara_Sci_150para_0088,"Nhà hoạt động vì nữ quyền tiên phong ở Trung Quốc Xiao Meili cho rằng, một số người đàn ông hiện vẫn giữ quan điểm lỗi thời và những robot tình dục có thể làm việc nhà thực sự sẽ giúp nữ giới được giải phóng. Rất nhiều người đàn ông có lối suy nghĩ áp đặt rằng phụ nữ gắn với tình dục, việc nhà, sinh đẻ và sống hiếu thuận với hai bên gia đình, họ không nghĩ rằng phụ nữ cũng cần sống cho bản thân. Nếu mỗi nam giới đều có búp bê tình dục cho riêng họ, điều đó sẽ giúp giải phóng nhiều phụ nữ khỏi những người đàn ông có lối suy nghĩ cổ hủ như vậy , Xiao nêu suy nghĩ."
shortPara_Sci_150para_0089,"Hé mở bí ẩn sự sống ngoài hành tinh về trận mưa máu ở Ấn Độ. Hiện tượng mưa máu xảy ra tại Ấn Độ năm 2001 đã khiến cho nhiều dự đoán rằng đó là bằng chứng xác thực đầu tiên của sự sống ngoài trái đất. Tháng 7/2001, một trận mưa đỏ như máu trút xuống một khu vực rộng lớn ở miền Nam Ấn Độ. Một nhà khoa học trong khu vực, tiến sĩ Godfrey Louis, nhà vật lý học tại Đại học Mahatma Gandhi, cho rằng có điều gì đó bất thường đã xảy ra. Vì các tế bào sinh học bé nhỏ trong nước mưa không chứa ADN - thành phần chủ yếu của mọi dạng sống trên trái đất - nên Louis lập luận rằng có thể nó là các dạng sống ngoài hành tinh."
shortPara_Sci_150para_0090,"Trước Louis vài thập niên, đã có hai nhà khoa học Anh đưa ra lý thuyết này. Các tế bào trên có cấu trúc kỳ lạ, thành dày, màu đỏ giống như tế bào, kích thước khoảng 10 micron. Điều lạ lùng hơn, hàng chục thí nghiệm của Louis cho thấy rằng các phần tử thiếu ADN nhưng vẫn còn khả năng sinh sản dồi dào, thậm chí có thể tồn tại trong nước ở 300 độ C (giới hạn cao nhất cho sự sống trong nước được biết đến là khoảng 120 độ C)."
shortPara_Sci_150para_0091,"Tiến sĩ Louis suy luận rằng các phần tử có thể là vi khuẩn ngoài trái đất thích ứng với những điều kiện khắc nghiệt trong không gian. Chúng bám vào sao chổi hay thiên thạch rồi sau đó vỡ ra trong khí quyển trên cao, hòa vào các đám mây gây mưa bên trên vùng trời Ấn Độ. Nếu lý thuyết của Louis là đúng thì các tế bào này sẽ là bằng chứng đầu tiên về sự sống ngoài hành tinh và có thể là bằng chứng mới về nguồn gốc sự sống trên trái đất."
shortPara_Sci_150para_0092,"Kinh ngạc cá voi 'sát thủ' biết nói tiếng người duy nhất thế giới. Việc động vật bắt chước được tiếng người cũng không có gì quá lạ. Vẹt, khướu, thậm chí là quạ cũng làm được. Tuy nhiên nói đến cá voi có khả năng này thì thật là kinh ngạc. Xin giới thiệu Wikie - cô cá voi sát thủ 16 tuổi sống tại một công viên hải dương của Pháp. Cô đã trở thành con cá đầu tiên có khả năng nói được tiếng người. Nói một cách chính xác, thì thứ ""tiếng người"" mà Wikie phát ra không phải đến từ miệng, mà là từ lỗ thổi đặc trưng phía đỉnh đầu của các loài thuộc bộ cá voi. Âm thanh phát ra rất giống tiếng sáo thổi, nhưng hoàn toàn có thể hiểu là các từ tiếng Anh."
shortPara_Sci_150para_0093,"Theo các chuyên gia, họ đã dạy cho Wikie bắt chước các từ ngữ của con người. Cô có thể nói ""hello"", ""bye bye"", đếm từ 1 - 3 bằng tiếng Anh được. Thậm chí, cô bắt chước luôn cả ngữ điệu của người dạy. Thật vậy, dù các loài chim với cấu trúc lưỡi đặc trưng có thể dễ dàng mô phỏng các âm thanh phức tạp, thì đối với các loài thú, đây là kỹ năng rất hiếm. Thậm chí trong các loài linh trưởng - những sinh vật gần gũi với con người nhất - cũng chẳng con nào làm được. Theo Abramson, ông thực hiện nghiên cứu này dựa trên các dấu hiệu tiềm năng của loài cá voi sát thủ. Trong tự nhiên, loài vật này có khả năng ""sủa"" như sư tử biển, hoặc bắt chước các âm huýt sáo tần số cao của cá heo. Và nay, Wikie chính là cô cá voi sát thủ đầu tiên có thể bắt chước âm thanh của con người."
shortPara_Sci_150para_0094,"Một số người cho rằng khả năng của cá voi đơn thuần chỉ là sự bắt chước. Tuy nhiên, cũng có các chuyên gia tin tưởng rằng điều này cho thấy cá voi sát thủ có khả năng giao tiếp xã hội của những sinh vật bậc cao. Các nhà khoa học tại Đại học Manchester, Anh, sau khi tiến hành nghiên cứu 90 loài cá heo và cá voi đã phát hiện mức độ phát triển xã hội và văn hóa của chúng rất đáng kể, giống như con người. Những động vật biển có vú này nói chuyện được với nhau và có cả tiếng địa phương."
shortPara_Sci_150para_0095,"Chúng có tiếng huýt riêng biệt để xác định danh tính cá nhân, giống như tên gọi của con người. Điều thú vị là những con cá heo sử dụng tên gọi để nói chuyện với nhau, kể cả khi chúng có mặt hoặc thậm chí vắng mặt ở đó, Susanne Shultz, tác giả chính của nghiên cứu, cho biết. Ngoài ra, cá voi và cá heo có khả năng xây dựng một khối liên minh cùng có lợi, hợp tác đi săn và làm việc cùng với loài khác, chẳng hạn như con người. Thật khó để so sánh trực tiếp giữa các loài và nhóm động vật, nhưng động vật biển có vú chắc chắn bao gồm một số loài thông minh nhất thế giới."
shortPara_Sci_150para_0096,"Shultz cho biết, cá heo mũi chai và cá voi sát thủ nổi bật là những động vật có xã hội phức tạp nhất. Nhưng điều này là do chúng ta biết về chúng nhiều nhất. Đời sống xã hội của nhiều động vật biển khác có thể tương đương hoặc phát triển hơn mà chúng ta chưa biết đến. Cùng với cấu trúc xã hội phức tạp, kích thước và khả năng hoạt động não bộ của cá heo và cá voi liên quan mật thiết đến phạm vi môi trường biển mà chúng chinh phục được. Những con vật có bộ não lớn hơn thành công hơn trong việc chiếm nhiều môi trường sống đa dạng."
shortPara_Sci_150para_0097,"Theo Shultz, điều kìm hãm cá voi và cá heo không phải ở bộ não mà là những chân chèo. Chúng thiếu ngón cái đối diện, thứ giúp khỉ hình người biết cách sử dụng nhiều công cụ khác nhau. ""Động vật biển có vú không thực sự chế tạo ra các công cụ bởi vì chúng không có ngón cái. Cá heo biết cách dùng bọt biển nhưng không có bàn tay và cánh tay để làm nhiều thứ khác""."
shortPara_Sci_150para_0098,"Thuyết âm mưu quanh cái chết của Hitler, Công nương Diana. Trong những năm qua, trùm phát xít Hitler hay Công nương Diana qua đời để lại nhiều bí ẩn khó lý giải. Trước cái chết của họ, nhiều học thuyết âm mưu xuất hiện và lan truyền rộng rãi với những chi tiết gây sốc dư luận. Adolf Hitler là một trong những nhân vật lịch sử có nhiều thuyết âm mưu. Cụ thể, như chúng ta đã biết, trùm phát xít Đức Adolf Hitler tự tử trong hầm ngầm ngày 30/4/1945 tại Berlin, Đức."
shortPara_Sci_150para_0099,"Tuy nhiên, trong những năm qua, một số học thuyết âm mưu cho rằng, trùm phát xít Hitler đã không chết năm 1945 mà thay vào đó vẫn còn sống và nhiều năm sau chết vì tuổi già. Cụ thể, một số tài liệu mật của FBI được giải mật tiết lộ khi Thế chiến 2 gần kết thúc, Hitler đã đào tẩu khỏi Đức, trốn sang Argentina. Để che giấu danh tính thật, Hitler đã thay đổi tên họ và sống dưới cái tên giả Adolf Leipzig. Người ta còn tiết lộ trùm phát xít Hitler còn có quan hệ với một phụ nữ da đen tên là Cutinga sau khi đào tẩu khỏi Đức năm 1945.Theo giả thuyết này, Hitler sống tới năm 1984 và qua đời vì tuổi già."
shortPara_Sci_150para_0100,"Công nương Diana - vợ cũ của Thái tử Charles - qua đời trong một tai nạn xe hơi kinh hoàng ở Paris, Pháp năm 1997. Trên chuyến đi định mệnh ấy, người tình của Công nương Diana là Dodi Fayed và người tài xế thiệt mạng. Cái chết của Công nương Diana đã gây sốc dư luận và khiến công chúng không khỏi bàng hoàng, tiếc thương. Trước sự ra đi đột ngột của Công nương Diana, một trong những học thuyết âm mưu nổi tiếng về sự kiện này là việc có một số người tin rằng Công nương Diana bị ám sát. Người đứng sau vụ ám sát Công nương Diana là Hoàng gia Anh. Những người này cho rằng Hoàng gia Anh gây ra cái chết của Công nương Diana để ngăn cản bà tái hôn. Thậm chí, người ta còn tìm được một số bức thư khẳng định Thái tử Charles đã âm mưu giết Công nương Diana."
shortPara_Sci_150para_0101,"Văn hóa' ăn thịt chó và vấn đề vì một thế giới công bằng cho tất cả các loài động vật. Dư luận luôn quan tâm đặc biệt về một vấn đề gây nhiều tranh cãi - văn hóa ăn thịt chó. Nhưng hãy thử nhìn vấn đề này trên mọi khía cạnh. Và câu hỏi đặt ra là, đâu mới là khía cạnh thật sự cần được lên án."
shortPara_Sci_150para_0102,"Ăn thịt chó có phải là xấu? Việc lên án những người ăn thịt chó đã bắt đầu từ lâu, nhưng ngày nay, với sức mạnh và tốc độ lan truyền của truyền thông, hành động này bị lên án một cách mạnh mẽ và quyết liệt hơn bao giờ hết. Rất nhiều người yêu chó và có thể kể cả những người không yêu chó đều có những lí lẽ cho việc lên án của họ. Họ cho rằng, không nên ăn thịt chó vì như thế là dã man."
shortPara_Sci_150para_0103,"Xét cho cùng, chó cũng chỉ là loài động vật như rất nhiều các con vật khác. Ta không ăn thịt chó, vậy thịt những con vật khác thì sao? Có một số người lại cho rằng chó là loài vật thông minh và gần gũi như một người bạn chứ không phải như một vật nuôi. Xét về mức độ thông minh thì khoa học đã chứng minh chó không phải là loài thông minh nhất. Có những người họ không nuôi chó để làm bạn. Họ nuôi lợn, nuôi gà, thậm chí là trăn rắn, họ yêu thương và cũng hoàn toàn xem chúng là một người bạn."
shortPara_Sci_150para_0104,"Vậy chúng ta cũng không nên ăn thịt những con vật ấy?! Vấn đề là có những người họ chỉ xem chó là một vật nuôi, mục đích là để lấy thịt, như khi họ nuôi lợn, nuôi gà hay bò... Nếu họ xem chó như một người bạn, họ chắc chắn sẽ không ăn thịt chúng. Quan niệm mỗi người là khác nhau, liệu hành động lên án có là đúng đắn? Đâu mới là mặt đáng bị lên án Việc bạn nuôi chó và bạn ăn thịt chúng, hoặc bạn bỏ một món tiền ra cửa hàng để mua là hoàn toàn bình thường."
shortPara_Sci_150para_0105,"Vấn đề là nạn trộm chó hiện nay, những chú chó bị trộm bằng những cách thức rất tinh vi. Chó bị bắt trộm có thể được chuyển đến nhiều nơi, nhưng đích cuối cùng vẫn là các lò mổ. Ở đó, hàng trăm hoặc thậm chí là hàng ngàn chú chó bị đối xử một cách dã man và vô cùng tàn nhẫn. Chó bị đánh đập, bị bỏ đói hoặc quá đáng hơn là bị ép ăn để giữ được số cân mong muốn. Không một ai có quyền hành động như thế, không một ai... Số phận của những chú chó không may mắn bị trộm chỉ có thể là chờ ngày bị giết thịt."
shortPara_Sci_150para_0106,"Trộm chó mới là hành động thật sự đáng bị lên án! Giải pháp nào Bạn không nên chỉ cứ khăng khăng nhìn vào một mặt của vấn đề. Việc phản đối ăn thịt chó hoàn toàn không sai lầm. Nhưng còn những con vật khác, chúng cũng cần có sự công bằng ở đây. Quy luật của tự nhiên là luôn luôn phải có những loài ăn thịt loài khác để tồn tại, đó có thể là loài thực vật hay động vật. Hằng ngày không biết có bao nhiêu con gà, lợn và bò,... bị giết thịt để phục vụ cho nhu cầu của con người."
shortPara_Sci_150para_0107,"Chúng ta càng tinh tế trong việc ăn uống, càng đòi hỏi nhiều thịt hơn. Vậy không thể nào xem việc ăn thịt một loài nào đó là dã man được. Cách chúng ta ăn chúng ra sao mới quyết định điều đó. Mỗi ngày có hàng triệu con gà được giết thịt để phục vụ cho nền công nghiệp thức ăn nhanh. Nhưng chúng được nuôi dưỡng, được cho ăn uống, chăm sóc theo dõi bệnh.... Đó mới chính là cách chúng ta làm."
shortPara_Sci_150para_0108,"Tôn trọng văn hóa Ở các nước phương Tây, cộng đồng cũng lên án về việc nuôi ngỗng lấy gan. Món ăn đắt tiền này trở thành một phần trong ""văn hóa sang chảnh"" của các vị thực khách Tây Âu. Nhìn chung, ăn thịt chó cũng chỉ là một hình thức văn hóa, khi văn hóa của mình khác với các nền văn hóa khác, chắc chắn sẽ gây ra tâm lý khó chấp nhận và lên án."
shortPara_Sci_150para_0109,"Nhưng hãy suy nghĩ, nhìn mọi mặt của vấn đề và đưa ra nhận xét khách quan đúng đắn, tôn trọng sự khác biệt và có cái nhìn đúng đắn nhất. Không chỉ loài chó, bất kì con vật nào cũng cần được bảo vệ để-làm-đúng-chức-năng của chúng. Hãy là một dư luận thông minh, để góp tiếng nói của mình, vì một thế giới công bằng cho tất cả các loài động vật."
shortPara_Sci_150para_0110,"Tới nay, quần đảo Solomon vẫn được coi là khu vực biệt lập với thế giới. Tại nhiều đảo của quần đảo này, người ta vẫn bắt gặp cuộc sống của người dân như từng diễn ra từ hàng trăm năm trước. Nói như nhiếp ảnh gia người Pháp Fabien Astre thì 'nơi đây thời gian ngừng trôi'."
shortPara_Sci_150para_0111,"Câu chuyện của Moses Cũng giống như nhiều người đàn ông khác sinh sống trên đảo Owarigi thuộc quần đảo Solomon ngoài khơi nam Thái Bình Dương, Moses kiếm sống bằng nghề săn quái thú đại dương, không loại trừ cả những trận kịch chiến với cá mập. Hơn 1000 người dân trên đảo thì hầu như ai cũng phải làm nghề nguy hiểm như vậy, nhưng bản lĩnh như Moses cũng không nhiều."
shortPara_Sci_150para_0112,"Trừ ngày giông bão hay ốm đau, còn lại ngày nào Moses cũng đằm mình trong nước biển. Anh lặn biển với những thiết bị thô sơ để đánh bắt cá kiếm sống, bất chấp lũ cá mập khổng lồ với hàm răng như đao kiếm vây xung quanh. Trong số đó có cá búa nhám và cá mập vi trắng đại dương - hai sát thủ nằm trong tốp thủy quái nguy hiểm nhất thế giới."
shortPara_Sci_150para_0113,"Theo nhà làm phim Gordon Bucanan (đến từ Glasgow, Scotland) thì người dân trên hòn đảo này luôn sống cạnh nguy hiểm, mà việc chạm trán với cá mập là nỗi ám ảnh cả đời đối với bất cứ ai. Nhưng với cư dân trên đảo Owarigi, hàng ngày họ vẫn phải bơi lội giữa đàn cá mập ăn thịt người đến độ mất cả cảm giác sợ hãi - Gordon nói. Vẫn theo Gordon, Moses cũng giống như đồng bào của mình họ đã tích lũy được những kinh nghiệm đánh bắt cá cổ xưa và kinh nghiệm có thể tồn tại giữa bầy sát thủ đại dương."
shortPara_Sci_150para_0114,"Nói thế để nhắc lại câu chuyện, trong thế chiến thứ hai, một chiếc tàu có tên là Nova Scotia bị tàu ngầm Đức đánh chìm ngoài khơi Nam Phi. 1/4 trong số 750 binh lính thiệt mạng là do cá mập vi trắng tấn công."
shortPara_Sci_150para_0115,"Làm sao thoát chết khi gặp cá mập? Theo Moses, người dân ở đây thường tắt đồng hồ và đèn pin khi bơi lội vào ban đêm để tránh việc thu hút sự chú ý của cá mập."
shortPara_Sci_150para_0116,"Những gì đã và đang đến Quần đảo Solomon là một đảo quốc của người Melanesia, nằm ở phía Đông Papua New Guinea. Vào năm 1890, người Anh đã tới vùng đảo này. Quần đảo qua nhiều thăng trầm nhưng dữ dội nhất là khoảng thời gian 1942-1945, do gặp những tổn thất nặng nề trong chiến tranh thế giới thứ hai. Nhiều trận đánh ác liệt đã diễn ra nơi đây, trong đó khủng khiếp nhất là trận Guadalcanal."
shortPara_Sci_150para_0117,"Theo giới nghiên cứu, có thể 30.000 trước Công nguyên quần đảo này đã có người cổ đại sinh sống. Người ta tìm được những đồ vật thời tiền sử, nhiều nhất là đồ gốm. Nói như nhiếp ảnh gia Gordon thì tới nay người quần đảo Solomon vẫn có thói quen dùng đồ gốm tự nung hơn là đồ kim loại, đồ nhựa. Và hàng ngày, khi ra biển khơi, người ta vẫn cưỡi trên những chiếc thuyền độc mộc đơn sơ khoét từ thân những cây gỗ lớn."
shortPara_Sci_150para_0118,"Do bị tàn phá trong chiến tranh thế giới thứ hai, nhiều người dân nơi đây đã bỏ nhà cửa đi nơi khác. Những người còn lại gần như sống cuộc sống biệt lập, hoàn toàn phụ thuộc vào thiên nhiên. Đây cũng là nơi chịu rất nhiều cơn bão biển mỗi năm, cũng là nơi có rất nhiều ngọn núi lửa tuy đã tắt nhưng không ai có thể khẳng định chúng đã chết."
shortPara_Sci_150para_0119,"Bằng chứng là ngày 2/4/2007, quần đảo Solomon bị chấn động bởi một trận động đất lớn và tiếp sau đó là một vụ sóng thần. Con số người chết do cơn sóng thần ít nhất là 52 người, và sóng thần đã phá hủy hơn 900 ngôi nhà và khiến hàng nghìn người mất nhà cửa."
shortPara_Sci_150para_0120,"Tới nay, đa số người dân trên đảo vẫn sống bằng nghề đánh bắt cá biển và trồng trọt. Sau này, một số hòn đảo của quần đảo được khai thác du lịch tạo thêm một nghề mới cho cư dân bản địa, tuy nhiên con số đó không nhiều. Một số người vẫn giữ thói quen sống trong những khu rừng mưa nhiệt đới mà không màng gì tới sự phát triển mới đang diễn ra bên cạnh. Họ sống trong những ngôi nhà đơn sơ dựng sơ sài trên những thân cây, mái cũng lợp bằng lá cây. Tại khu trung tâm của quần đảo, nhiều kiến trúc mới đã được dựng lên, chủ yếu là những khu nghỉ ngơi dành cho khách du lịch. Những con đường mòn có từ xa xưa được thay thế bằng đường trải nhựa và bê-tông."
shortPara_Sci_150para_0121,Nền văn minh rực rỡ nghìn năm của người Maya. Bạn biết gì về nền văn minh rực rỡ với những công trình kiến trúc đồ sộ cùng truyền thuyết về những báu vật vô giá tồn tại hàng nghìn năm của người Maya?
shortPara_Sci_150para_0122,"Nền văn minh của người Maya được xây dựng ở khu vực địa lý nào? Bắc Phi Bắc Mỹ Trung Mỹ Nam Mỹ Người Maya sinh sống và lập ra các vương quốc tại Trung Mỹ, trên vùng đất nay là lãnh thổ miền Nam của Mexico, Honduras, Guatemala, El Salvador và Belize."
shortPara_Sci_150para_0123,"Nền văn minh Maya bắt đầu tồn tại từ thời gian nào? Khoảng năm 4000 trước Công nguyên Khoảng năm 2000 trước Công nguyên Khoảng năm 1000 trước Công nguyên Khoảng năm 200 sau Công nguyên Người Maya sinh sống theo bộ lạc tại Trung Mỹ từ khoảng năm 8000 trước Công nguyên. Đến khoảng năm 2000 trước Công nguyên, người Maya bắt đầu phát triển nền văn minh nông nghiệp, dân số tăng nhanh, các vương quốc đầu tiên được thành lập."
shortPara_Sci_150para_0124,"Một trong những vai trò của kim tự tháp trong nền văn minh của người Maya là? Pháo đài chiến đấu Chỉ dấu giao thông Nơi ở của giới quý tộc Nơi thắp lửa truyền tin tức Các kim tự tháp của người Maya được xây dựng từ khoảng năm 200 sau Công nguyên. Đối với người Maya, kim tự tháp là nơi thực hiện các nghi lễ tâm linh, chôn cất giới quý tộc và là chỉ dấu giúp người Maya xác định phương hướng khi di chuyển trong rừng rậm Trung Mỹ."
shortPara_Sci_150para_0125,"Vũ khí chính được người Maya sử dụng trong chiến trận là gì? Giáo Kiếm Rìu Búa Các chiến binh người Maya sử dụng giáo làm vũ khí, cùng với khiên tròn làm từ đá hoặc gỗ, trong chiến trận cũng như trong săn bắn. Ngoài ra, người Maya cũng sử dụng các ống thổi tiêu, một công cụ dài bằng gỗ, phóng ra những mũi tiêu tẩm thuốc độc khi chiến đấu hoặc phóng ra tiêu thường khi đi săn."
shortPara_Sci_150para_0126,Vật liệu chính được người Maya sử dụng trong các công trình xây dựng là gì? Đá vôi Gỗ Đất sét Gạch nung Người Maya sử dụng đá vôi trong xây dựng phần lớn công trình kiến trúc. Đá vôi là vật liệu có sẵn trên lãnh thổ của người Maya. Đặc tính vật lý của đá vôi là một trong các yếu tố ảnh hưởng tới phong cách kiến trúc các công trình xây dựng của người Maya.
shortPara_Sci_150para_0127,"Đỉnh cao của nền văn minh Maya diễn ra vào thời gian nào? Năm 1000 trước Công nguyên tới năm 600 sau Công nguyên Năm 100 sau Công nguyên tới năm 700 sau Công nguyên Năm 200 sau Công nguyên tới năm 800 sau Công nguyên Năm 200 sau Công nguyên tới năm 900 sau Công nguyên Nền văn minh của người Maya đạt tới đỉnh cao trong khoảng thời gian từ năm 200 tới năm 900 sau Công nguyên. Trong thời gian này, hàng nghìn công trình kiến trúc quy mô lớn được xây dựng, nhiều vương quốc đồng thời tồn tại. Dân số của người Maya ước tính đạt tới 10 triệu người."
shortPara_Sci_150para_0128,"Sự kiện nào đánh dấu sự chấm dứt của nền văn minh Maya? Hạn hán nghiêm trọng vào thế kỷ 10 Nội chiến giữa các vương quốc của người Maya vào thế kỷ 12 Người Tây Ban Nha chinh phục Trung Mỹ vào thế kỷ 16 Chiến tranh với các vương quốc lân cận vào thế kỷ 14 Người Tây Ban Nha bắt đầu đặt chân tới Yucatan năm 1511, nay là miền Nam của Mexico, bắt đầu quá trình chinh phục các vương quốc Trung Mỹ. Tới năm 1697, vương quốc cuối cùng của người Maya là Itza bị người Tây Ban Nha chinh phục, chấm dứt sự tồn tại của nền văn minh Maya."
shortPara_Sci_150para_0129,"Phát hiện kim tự tháp 2.000 tuổi cao 30 m của người Maya. Công nghệ dò tìm mới đã giúp các nhà khoa học phát hiện ra hàng nghìn công trình kiến trúc của người Maya, trong đó có kim tự tháp cao hàng chục mét, tại Guatemala. Theo AFP , hơn 60.000 công trình xây dựng của người Maya đã được phát hiện trong thời gian qua tại thị trấn El Peten, gần biên giới Guatemala, Belize và Mexico."
shortPara_Sci_150para_0130,"Những công trình mới được phát hiện bao gồm các trung tâm đô thị lớn với nhiều đường đi lại, nhà cửa, trung tâm tôn giáo, kênh rạch nông nghiệp và công sự chiến đấu. Trong số những di tích mới được tìm thấy, nổi bật nhất là một kim tự tháp cao 30 m ở Tikal, di chỉ khảo cổ lừng danh được cho là tồn tại nhiều công trình của người Maya. Cũng tại Tikal, các nhà khoa học phát hiện một loạt hố sâu và một bức tường dài tới 14 km. Những công trình này được cho là có niên đại khoảng 2.000 năm tuổi. Những phát hiện gần đây khiến các nhà khoa học tin rằng trong thời kỳ hoàng kim của nền văn minh, dân số của người Maya có thể đạt 10 triệu người, cao hơn nhiều các tính toán trước đây."
shortPara_Sci_150para_0131,"Để đạt được bước tiến trong khám phá những di tích khảo cổ nghìn năm tuổi của người Maya, các nhà khoa học sử dụng công nghệ dò tìm cảm ứng từ trên không có tên LiDAR. Máy bay trang bị máy quét LiDAR sẽ xây dựng các bản đồ thực địa 3 chiều bằng cách sử dụng tia laser kết nối với hệ thống định vị toàn cầu GPS. Công nghệ LiDAR giúp các nhà khoa học khám phá các di chỉ khảo cổ nhanh chóng hơn phương pháp trước đây và không cần phải dò dẫm trong rừng rậm Trung Mỹ vốn tiềm ẩn nhiều nguy hiểm từ tự nhiên."
shortPara_Sci_150para_0132,"Nền văn minh của người Maya có niên đại từ hơn 8.000 trước Công nguyên tại vùng Trung Mỹ, nay là các lãnh thổ miền Nam Mexico, Guatemala, Belize, Honduras và El Salvador. Nền văn minh Maya đạt tới đỉnh cao từ năm 250-950 sau Công nguyên trước khi rơi vào thời kỳ suy tàn do dịch bệnh và điều kiện thời tiết khắc nghiệt."
shortPara_Sci_150para_0133,"Cây Lim xanh nghìn năm tuổi: 'Báu vật' của Xứ Thanh. Vườn quốc gia Bến En (Vườn Quốc Gia) là khu vực chuyển tiếp từ vùng núi Tây bắc và Bắc Trường Sơn, đồng thời cũng là nơi chuyển tiếp giữa đồng bằng ven biển Thanh Hóa Nghệ An Hà Tĩnh. Nơi đây còn là trung tâm phân bố của loài Lim xanh nổi tiếng. Tuy nhiên, hiện nay chỉ còn xót lại một cây Lim xanh cổ thụ, có tuổi thọ lên đến hàng trăm năm tuổi mà nhân dân trong vùng thường gọi là cây Lim nghìn năm tuổi."
shortPara_Sci_150para_0134,"Theo kết quả đo đạc năm 2013 cho thấy cây có chiều cao 43m, đường kính ngang ngực đạt 1,78 m với nhiều bạnh vè nhô ra rất đẹp mắt, uy nghiêm. Gốc cây sần sùi, mốc meo và có 2 vết cắt, trong đó có một vết khá lớn được cắt sâu vào thân cây. Được biết, đó là những vết cắt mà lâm tặc đã nhiều lần cố đốn hạ cây. Lực lượng kiểm lâm kiểm tra, bảo vệ cây Lim xanh Còn theo các cụ Già làng, Trưởng bản ở đây cho biết: Những năm 1991, 1992 là thời điểm rừng ở Như Thanh bị tàn phá nặng nề, để bảo vệ một số cánh rừng còn sót lại, Vườn Quốc Gia Bến En đã được thành lập."
shortPara_Sci_150para_0135,"Tuy nhiên, giữa thời điểm giao thời, có nhiều khu rừng vẫn bị chặt phá không thương tiếc. Nhận định cây lim nghìn tuổi sẽ bị lâm tặc nhòm ngó, Vườn Quốc Gia Bến En đã cho đặt ngay một trạm kiểm lâm cách cây không xa để bảo vệ cây gỗ quý. Ông Lê Xuân Thái, Cán bộ Vườn Quốc Gia Bến En cho biết: cây Lim xanh này là cây gỗ quý có đường kính lớn, được xem là báu vật còn sót lại trong Vườn Quốc Gia Bến En."
shortPara_Sci_150para_0136,"Để bảo vệ cây lim đứng vững trước nạn phá rừng tàn khốc của những năm cuối thế kỷ trước, nhiều cán bộ kiểm lâm và người dân địa phương đã phải vất vả lắm mới giữa được."
shortPara_Sci_150para_0137,"Vườn Quốc Gia Bến En hiện đang còn nhiều cây gỗ quý có giá trị, nhưng cây lim xanh này được xem là báu vật của rừng do có giá trị lớn về mặt kinh tế và bảo tồn nguồn gen quý nên lâm tặc vẫn nhiều lần nhăm nhe tìm cách hạ cây, nhưng nhờ có sự phát giác, chung tay bảo vệ rừng của người dân nên cây lim cổ thụ và nhiều khu rừng quanh vùng vẫn phát triển xanh tốt."
shortPara_Sci_150para_0138,"Ông Lê Đình Phương, Phó Giám đốc Vườn Quốc Gia Bến En cho biết: Năm 2011 2013, Vườn Quốc Gia Bến En đã thực hiện dự án ""Bảo tồn và phát triển loài Lim xanh tại Vườn Quốc gia Bến En tỉnh Thanh Hóa"", trong đó có một nội dung cực kỳ quan trọng, đó là phục tráng và bảo tồn cây Lim nghìn năm tuổi bằng nhiều biện pháp như: Xây dựng hàng rào bảo vệ, tuyên truyền cho cộng đồng về công tác bảo tồn đa dạng sinh học nói chung và bảo tồn cây Lim xanh cổ thụ nói riêng; phát dọn dây leo, bụi rậm; phun thuốc xử lý nấm, mục, diệt mối quanh gốc; phun thuốc kích thích sinh trưởng, thuốc liền vết thương, Thông qua đề án này, Vườn Quốc Gia Bến En đang khoanh vùng khoảng 1.000 ha lim xanh tự nhiên và trồng mới khoảng 5 ha rừng lim (được lấy hạt từ cây lim cổ thụ và hạt lim trong rừng) để phục vụ cho việc phát triển, bảo tồn loài."
shortPara_Sci_150para_0139,"Nhờ đó mà giờ đây, nhiều cánh rừng lim xanh tại Vườn Quốc Gia Bến En đang phát triển sinh trưởng tốt, góp phần tạo nên sự đa dạng sinh học tại đây. Theo kết quả điều tra của Vườn Quốc Gia Bến En, cây Lim xanh nghìn năm tuổi đã không còn khả năng ra hoa từ năm 2011 và đã bị lâm tặc cắt 1/4 đường kính gốc. Tuy nhiên đến nay sau hơn 3 năm bảo vệ, chăm sóc, phục tráng lại cây Lim đã xanh tốt trở lại, hiện nay đã phục vụ cho việc phát triển, bảo tồn loài và đã trở thành biểu tượng cho sự trường tồn của cộng đồng địa phương cũng như đời sống tâm linh của đồng bào dân tộc."
shortPara_Sci_150para_0140,"Châu Phi: Cơn sốt vàng và giấc mơ đổi đời tại châu Âu. Người tị nạn Sudan ở phía bắc Chad đang mạo hiểm với chính cuộc đời mình để khai thác quặng quý hiếm trong nỗ lực tuyệt vọng đổi đời tại châu Âu. Dân tị nạn từ khu vực Sudan khó khăn, Darfur, đang sống trong các trại ở nước láng giềng Chad. Họ bị cuốn vào cơn sốt vàng trong nỗ lực tuyệt vọng có đủ tiền trả cho những kẻ buôn lậu để được đưa đến châu Âu."
shortPara_Sci_150para_0141,"Cuộc sống mới đến từ những khối vàng Đào các hố sâu tới 50 m, người tị nạn Sudan đang mạo hiểm cuộc sống của họ ở một khu vực không chỉ lở đất mà còn bị tàn phá bởi bạo lực, nơi ít nhất 25 người đã thiệt mạng năm ngoái. Được hạ xuống dưới lòng đất bằng dây thừng trong bóng tối, họ dành hàng giờ dưới ánh đèn đuốc cuốc những tảng đá cứng. Hy vọng của những người này là tìm thấy miếng vàng đủ to để chi trả hàng nghìn bảng mà những kẻ buôn lậu đòi. Nếu thành công, họ sẽ được đưa qua Libya lên những con tàu cho họ cơ hội sống mới ở đất châu Âu."
shortPara_Sci_150para_0142,"Nasrudin Omar Bahar, 29 tuổi, dành số tiền tiết kiệm 200 bảng để tham gia một nhóm đào vàng ở Tibesti, phía bắc Chad. Tôi đã nghĩ rằng mình có thể kiếm đủ vàng để tới được châu Âu , anh nói, tôi không quan tâm sẽ đến nước nào. Nơi tôi mơ ước là nơi có hòa bình, yên ổn và một cuộc sống tốt. Nhưng Bahar giờ nằm trên giường trong một căn nhà bằng bùn ở trại tị nạn Farchana gần biên giới Darfur. Anh trốn khỏi Darfur vào năm 2007 khi dân quân Arab, hay còn gọi là Janjaweed, tấn công và đốt làng Tandikoro."
shortPara_Sci_150para_0143,"Sự rung chuyển từ máy móc nghiền đá nặng nề đã khiến hầm mỏ đổ sập lên người Bahar. Đất đá rơi làm anh bị liệt từ eo trở xuống. Anh giải thích rằng điều kiện sống ở trại chính là thứ thúc giục anh phải rời khỏi đó. Guardian dẫn lời Bahar, Cuộc sống rất khó khăn và chúng tôi không thể tự chu cấp cho bản thân. Sau đó tôi nghe được về một nhóm người đi tìm vàng, vậy nên tôi rời khỏi trại."
shortPara_Sci_150para_0144,"Sở thú Trung Quốc cho trăn ăn thịt chó con còn sống. Sau một đoạn video quay cảnh một chú chó con nằm cuộn mình gần con trăn vàng trong chuồng được tung lên mạng xã hội, Sở thú Bờ Sông ở Pingdingshan (tỉnh Hồ Nam, Trung Quốc) phải hứa sẽ ngưng cho trăn ăn thịt chó con sống. Theo báo Bưu điện Hoa Nam buổi sáng ngày 4.2, một nhân viên sở thú tiết lộ chó con được đem làm thức ăn cho trăn, nhưng đấy không là chủ trương chính thức của lãnh đạo Sở thú Bờ Sông."
shortPara_Sci_150para_0145,"Người này đổ trách nhiệm cho một nhân viên hợp đồng: Chúng tôi đã làm việc với anh ta, chỉ đạo anh ta phải ngưng các hành động này. Bà Zi Yue, một khách tham quan Sở thú Bờ Sông cho biết: tuần trước, bà trông thấy một chú chó con còn sống bị đem làm thức ăn cho một con trăn trong giờ tham quan. Bà đã quay cảnh nhân viên cho trăn ăn thịt chó con sống lên mạng xã hội. Bà Zi Yue nói: Tôi không hiểu tại sao sở thú này làm thế. Tôi cho rằng họ tìm được một bầy chó con trong công viên, nên họ quyết đem làm thức ăn cho lũ trăn."
shortPara_Sci_150para_0146,"Tổ chức Bảo vệ thú vật PETA châu Á cũng tham gia chỉ trích Sở thú Bờ Sông. Người phát ngôn nói trong tuyên bố rằng đó là ví dụ khác về tầm quan trọng của luật bảo vệ thú vật và tại sao Trung Quốc cần có luật này. PETA châu Á nói ở Trung Quốc không có luật nào cấm ngược đãi gia súc, chỉ có luật bảo tồn thú hoang."
shortPara_Sci_150para_0147,"10 điểm thú vị về Mặt trời bạn có thể chưa biết. Mặt trời là ngôi sao ở trung tâm của Hệ mặt trời nó quyết định thời tiết, khí hậu trên trái đất. Dưới đây là những đặc điểm của Mặt trời bạn có thể chưa biết."
shortPara_Sci_150para_0148,"Mặt trời chiếm 99,86% khối lượng trong Hệ mặt trời. Khối lượng của Mặt trời lớn hơn so với Trái đất khoảng 330.000 lần. Hầu như ba phần tư là Hydrogen, còn lại là Helium. Các kim loại khác chỉ chiếm 0.1% khối lượng khí của Mặt trời. Mặt trời có thể chứa hàng triệu trái đất."
shortPara_Sci_150para_0149,"Nếu bên trong Mặt trời hoàn toàn rỗng, có thể lấp đầy nó bằng 960.000 Trái Đất dạng hình cầu và 1.300.000 Trái Đất dạng dẹp (bị ép lại). Nhiệt độ bên trong Mặt trời có thể đạt đến 15 triệu độ C. Bên trong lõi của Mặt trời, năng lượng được tạo ra bởi phản ứng nhiệt hạch chuyển đổi hydro sang heli. Nhiệt độ trên bề mặt của Mặt trời khoảng 5.600 độ Celsius. Mặt trời là một quả cầu gần như hoàn hảo."
shortPara_Sci_150para_0150,"Chỉ có một sự khác biệt 10 km đường kính ở vùng cực nó so với đường kính xích đạo của nó, điều này có nghĩa là Mặt trời gần như một khối cầu hoàn hảo được quan sát thấy trong tự nhiên. Trong tương lai Mặt trời sẽ có kích thước bằng Trái Đất."
shortPara_Sci_150para_0151,"Sau giai đoạn sao khổng lồ đỏ, Mặt trời sẽ sụp đổ, giữ lại khối lượng khổng lồ của nó, nhưng có thể tích gần bằng hành tinh chúng ta. Khi điều này xảy ra, nó sẽ được gọi là một ngôi sao lùn trắng. Cuối cùng, Mặt trời sẽ nuốt chửng rái đất: Khi tất cả hydro đã được đốt cháy, Mặt trời sẽ tiếp tục đốt heli trong khoảng 130 triệu năm nữa, trong thời gian đó, nó sẽ nuốt sao thủy, sao Kim và trái đất. Ở giai đoạn này, nó sẽ là một sao đỏ khổng lồ."
shortPara_Sci_150para_0152,"Mặt trời di chuyển với vận tốc 220 km / giây: Mặt trời cách tâm thiên hà khoảng 24 đến 26 nghìn năm ánh sáng và phải mất đến 225 250 triệu năm Mặt trời mới có thể hoàn thành một vòng quay. Giả sử Mặt trời quay xung quanh tâm thiên hà Milky Way mất đến 225 250 triệu năm với vận tốc trung bình 220km/giây (khoảng 136.7 dặm/giây). Theo Wikipedia thì ánh sáng mất tám phút từ Mặt trời tới trái đất. Với khoảng cách trung bình trung bình là 150 triệu km từ Mặt trời tới trái đất và vận tốc ánh sáng truyền đi là 300.000 km mỗi giây, thì sẽ mất khoảng tám phút và 20 giây để ánh sang từ Mặt trời truyền tới trái đất."
shortPara_Sci_150para_0153,"Mặt trời đang ở tuổi trung niên. Với hơn 4.6 tỷ năm tuổi, Mặt trời được coi là một ngôi sao lùn vàng trung niên nghĩa là Mặt trời đã sống được nửa cuộc đời mình 9. Khoảng cách giữa trái đất và Mặt trời thay đổi liên tục vì trái đất di chuyển trên một quỹ đạo elip quanh Mặt trời, Khoảng cách thay đổi từ 147 đến 152 triệu km. Theo trang space-facts, Mặt trời có từ trường rất mạnh, đó là lý do tại sao xảy ra hiện tượng bão từ. Trong khoảng thời gian hiện tượng bão từ xảy ra, chúng ta hoàn toàn có thể nhìn thấy bão từ trên Mặt trời thông qua hình ảnh: chúng là những nốt màu đen nhỏ hay còn gọi là Sunspots vết đen Mặt trời. Trong cơn bão từ, các đường sức từ sẽ xoắn và quay mạnh tương tự như lốc xoáy trên Trái Đất vậy."
