VR_COMMAND_ASK_USER_00001_01,"Hiện tại quạt gió đang bật ở mức 1, bạn muốn chỉnh tăng hay giảm?"
VR_COMMAND_ASK_USER_00001_02,"Hiện tại quạt gió đang bật ở mức 2, bạn muốn chỉnh tăng hay giảm?"
VR_COMMAND_ASK_USER_00001_03,"Hiện tại quạt gió đang bật ở mức 3, bạn muốn chỉnh tăng hay giảm?"
VR_COMMAND_ASK_USER_00001_04,"Hiện tại quạt gió đang bật ở mức 4, bạn muốn chỉnh tăng hay giảm?"
VR_COMMAND_ASK_USER_00001_05,Hiện tại quạt gió đang bật ở mức 5 bạn muốn chỉnh tăng hay giảm?
VR_COMMAND_ASK_USER_00001_06,"Hiện tại quạt gió đang bật ở mức 6, bạn muốn chỉnh tăng hay giảm?"
VR_COMMAND_ASK_USER_00002,Đã bật quạt gió
VR_COMMAND_ASK_USER_00003,Đã bật quạt gió mức 6 tối đa
VR_COMMAND_ASK_USER_00004,Đã đặt quạt gió mức 1 thấp nhất
VR_COMMAND_ASK_USER_00005_01,Đã đặt quạt gió mức 1
VR_COMMAND_ASK_USER_00005_02,Đã đặt quạt gió mức 2
VR_COMMAND_ASK_USER_00005_03,Đã đặt quạt gió mức 3
VR_COMMAND_ASK_USER_00005_04,Đã đặt quạt gió mức 4
VR_COMMAND_ASK_USER_00005_05,Đã đặt quạt gió mức 5
VR_COMMAND_ASK_USER_00005_06,Đã đặt quạt gió mức 6
VR_COMMAND_ASK_USER_00006,"Đã giảm nhiệt độ điều hòa xuống 2 độ và tăng quạt gió thêm 1 mức, đặt quạt gió hướng mặt và bật nhạc"
VR_COMMAND_ASK_USER_00007_01,"Hiện tại điều hòa đang bật ở 16,5 độ C, bạn muốn tăng hay giảm nhiệt độ?"
VR_COMMAND_ASK_USER_00007_02,"Hiện tại điều hòa đang bật ở 17 độ C, bạn muốn tăng hay giảm nhiệt độ?"
VR_COMMAND_ASK_USER_00007_03,"Hiện tại điều hòa đang bật ở 17,5 độ C, bạn muốn tăng hay giảm nhiệt độ?"
VR_COMMAND_ASK_USER_00007_04,"Hiện tại điều hòa đang bật ở 18 độ C, bạn muốn tăng hay giảm nhiệt độ?"
VR_COMMAND_ASK_USER_00007_05,"Hiện tại điều hòa đang bật ở 18,5 độ C, bạn muốn tăng hay giảm nhiệt độ?"
VR_COMMAND_ASK_USER_00007_06,"Hiện tại điều hòa đang bật ở 19 độ C, bạn muốn tăng hay giảm nhiệt độ?"
VR_COMMAND_ASK_USER_00007_07,"Hiện tại điều hòa đang bật ở 19,5 độ C, bạn muốn tăng hay giảm nhiệt độ?"
VR_COMMAND_ASK_USER_00007_08,"Hiện tại điều hòa đang bật ở 20 độ C, bạn muốn tăng hay giảm nhiệt độ?"
VR_COMMAND_ASK_USER_00007_09,"Hiện tại điều hòa đang bật ở 20,5 độ C, bạn muốn tăng hay giảm nhiệt độ?"
VR_COMMAND_ASK_USER_00007_10,"Hiện tại điều hòa đang bật ở 21 độ C, bạn muốn tăng hay giảm nhiệt độ?"
VR_COMMAND_ASK_USER_00007_11,"Hiện tại điều hòa đang bật ở 21,5 độ C, bạn muốn tăng hay giảm nhiệt độ?"
VR_COMMAND_ASK_USER_00007_12,"Hiện tại điều hòa đang bật ở 22 độ C, bạn muốn tăng hay giảm nhiệt độ?"
VR_COMMAND_ASK_USER_00007_13,"Hiện tại điều hòa đang bật ở 22,5 độ C, bạn muốn tăng hay giảm nhiệt độ?"
VR_COMMAND_ASK_USER_00007_14,"Hiện tại điều hòa đang bật ở 23 độ C, bạn muốn tăng hay giảm nhiệt độ?"
VR_COMMAND_ASK_USER_00007_15,"Hiện tại điều hòa đang bật ở 23,5 độ C, bạn muốn tăng hay giảm nhiệt độ?"
VR_COMMAND_ASK_USER_00007_16,"Hiện tại điều hòa đang bật ở 24 độ C, bạn muốn tăng hay giảm nhiệt độ?"
VR_COMMAND_ASK_USER_00007_17,"Hiện tại điều hòa đang bật ở 24,5 độ C, bạn muốn tăng hay giảm nhiệt độ?"
VR_COMMAND_ASK_USER_00007_18,"Hiện tại điều hòa đang bật ở 25 độ C, bạn muốn tăng hay giảm nhiệt độ?"
VR_COMMAND_ASK_USER_00007_19,"Hiện tại điều hòa đang bật ở 25,5 độ C, bạn muốn tăng hay giảm nhiệt độ?"
VR_COMMAND_ASK_USER_00007_20,"Hiện tại điều hòa đang bật ở 26 độ C, bạn muốn tăng hay giảm nhiệt độ?"
VR_COMMAND_ASK_USER_00007_21,"Hiện tại điều hòa đang bật ở 26,5 độ C, bạn muốn tăng hay giảm nhiệt độ?"
VR_COMMAND_ASK_USER_00007_22,"Hiện tại điều hòa đang bật ở 27 độ C, bạn muốn tăng hay giảm nhiệt độ?"
VR_COMMAND_ASK_USER_00007_23,"Hiện tại điều hòa đang bật ở 27,5 độ C, bạn muốn tăng hay giảm nhiệt độ?"
VR_COMMAND_ASK_USER_00007_24,"Hiện tại điều hòa đang bật ở 28 độ C, bạn muốn tăng hay giảm nhiệt độ?"
VR_COMMAND_ASK_USER_00007_25,"Hiện tại điều hòa đang bật ở 28,5 độ C, bạn muốn tăng hay giảm nhiệt độ?"
VR_COMMAND_ASK_USER_00007_26,"Hiện tại điều hòa đang bật ở 29 độ C, bạn muốn tăng hay giảm nhiệt độ?"
VR_COMMAND_ASK_USER_00007_27,"Hiện tại điều hòa đang bật ở 29,5 độ C, bạn muốn tăng hay giảm nhiệt độ?"
VR_COMMAND_ASK_USER_00007_28,"Hiện tại điều hòa đang bật ở 30 độ C, bạn muốn tăng hay giảm nhiệt độ?"
VR_COMMAND_ASK_USER_00007_29,"Hiện tại điều hòa đang bật ở 30,5 độ C, bạn muốn tăng hay giảm nhiệt độ?"
VR_COMMAND_ASK_USER_00007_30,"Hiện tại điều hòa đang bật ở 31 độ C, bạn muốn tăng hay giảm nhiệt độ?"
VR_COMMAND_ASK_USER_00007_31,"Hiện tại điều hòa đang bật ở 31,5 độ C, bạn muốn tăng hay giảm nhiệt độ?"
VR_COMMAND_ASK_USER_00007_32,"Hiện tại điều hòa đang bật ở 32 độ C, bạn muốn tăng hay giảm nhiệt độ?"
VR_COMMAND_ASK_USER_00007_33,"Hiện tại điều hòa đang bật ở 60 độ F, bạn muốn tăng hay giảm nhiệt độ?"
VR_COMMAND_ASK_USER_00007_34,"Hiện tại điều hòa đang bật ở 60,5 độ F, bạn muốn tăng hay giảm nhiệt độ?"
VR_COMMAND_ASK_USER_00007_35,"Hiện tại điều hòa đang bật ở 61 độ F, bạn muốn tăng hay giảm nhiệt độ?"
VR_COMMAND_ASK_USER_00007_36,"Hiện tại điều hòa đang bật ở 61,5 độ F, bạn muốn tăng hay giảm nhiệt độ?"
VR_COMMAND_ASK_USER_00007_37,"Hiện tại điều hòa đang bật ở 62 độ F, bạn muốn tăng hay giảm nhiệt độ?"
VR_COMMAND_ASK_USER_00007_38,"Hiện tại điều hòa đang bật ở 62,5 độ F, bạn muốn tăng hay giảm nhiệt độ?"
VR_COMMAND_ASK_USER_00007_39,"Hiện tại điều hòa đang bật ở 63 độ F, bạn muốn tăng hay giảm nhiệt độ?"
VR_COMMAND_ASK_USER_00007_40,"Hiện tại điều hòa đang bật ở 63,5 độ F, bạn muốn tăng hay giảm nhiệt độ?"
VR_COMMAND_ASK_USER_00007_41,"Hiện tại điều hòa đang bật ở 64 độ F, bạn muốn tăng hay giảm nhiệt độ?"
VR_COMMAND_ASK_USER_00007_42,"Hiện tại điều hòa đang bật ở 64,5 độ F, bạn muốn tăng hay giảm nhiệt độ?"
VR_COMMAND_ASK_USER_00007_43,"Hiện tại điều hòa đang bật ở 65 độ F, bạn muốn tăng hay giảm nhiệt độ?"
VR_COMMAND_ASK_USER_00007_44,"Hiện tại điều hòa đang bật ở 65,5 độ F, bạn muốn tăng hay giảm nhiệt độ?"
VR_COMMAND_ASK_USER_00007_45,"Hiện tại điều hòa đang bật ở 66 độ F, bạn muốn tăng hay giảm nhiệt độ?"
VR_COMMAND_ASK_USER_00007_46,"Hiện tại điều hòa đang bật ở 66,5 độ F, bạn muốn tăng hay giảm nhiệt độ?"
VR_COMMAND_ASK_USER_00007_47,"Hiện tại điều hòa đang bật ở 67 độ F, bạn muốn tăng hay giảm nhiệt độ?"
VR_COMMAND_ASK_USER_00007_48,"Hiện tại điều hòa đang bật ở 67,5 độ F, bạn muốn tăng hay giảm nhiệt độ?"
VR_COMMAND_ASK_USER_00007_49,"Hiện tại điều hòa đang bật ở 68 độ F, bạn muốn tăng hay giảm nhiệt độ?"
VR_COMMAND_ASK_USER_00007_50,"Hiện tại điều hòa đang bật ở 68,5 độ F, bạn muốn tăng hay giảm nhiệt độ?"
VR_COMMAND_ASK_USER_00007_51,"Hiện tại điều hòa đang bật ở 69 độ F, bạn muốn tăng hay giảm nhiệt độ?"
VR_COMMAND_ASK_USER_00007_52,"Hiện tại điều hòa đang bật ở 69,5 độ F, bạn muốn tăng hay giảm nhiệt độ?"
VR_COMMAND_ASK_USER_00007_53,"Hiện tại điều hòa đang bật ở 70 độ F, bạn muốn tăng hay giảm nhiệt độ?"
VR_COMMAND_ASK_USER_00007_54,"Hiện tại điều hòa đang bật ở 70,5 độ F, bạn muốn tăng hay giảm nhiệt độ?"
VR_COMMAND_ASK_USER_00007_55,"Hiện tại điều hòa đang bật ở 71 độ F, bạn muốn tăng hay giảm nhiệt độ?"
VR_COMMAND_ASK_USER_00007_56,"Hiện tại điều hòa đang bật ở 71,5 độ F, bạn muốn tăng hay giảm nhiệt độ?"
VR_COMMAND_ASK_USER_00007_57,"Hiện tại điều hòa đang bật ở 72 độ F, bạn muốn tăng hay giảm nhiệt độ?"
VR_COMMAND_ASK_USER_00007_58,"Hiện tại điều hòa đang bật ở 72,5 độ F, bạn muốn tăng hay giảm nhiệt độ?"
VR_COMMAND_ASK_USER_00007_59,"Hiện tại điều hòa đang bật ở 73 độ F, bạn muốn tăng hay giảm nhiệt độ?"
VR_COMMAND_ASK_USER_00007_60,"Hiện tại điều hòa đang bật ở 73,5 độ F, bạn muốn tăng hay giảm nhiệt độ?"
VR_COMMAND_ASK_USER_00007_61,"Hiện tại điều hòa đang bật ở 74 độ F, bạn muốn tăng hay giảm nhiệt độ?"
VR_COMMAND_ASK_USER_00007_62,"Hiện tại điều hòa đang bật ở 74,5 độ F, bạn muốn tăng hay giảm nhiệt độ?"
VR_COMMAND_ASK_USER_00007_63,"Hiện tại điều hòa đang bật ở 75 độ F, bạn muốn tăng hay giảm nhiệt độ?"
VR_COMMAND_ASK_USER_00007_64,"Hiện tại điều hòa đang bật ở 75,5 độ F, bạn muốn tăng hay giảm nhiệt độ?"
VR_COMMAND_ASK_USER_00007_65,"Hiện tại điều hòa đang bật ở 76 độ F, bạn muốn tăng hay giảm nhiệt độ?"
VR_COMMAND_ASK_USER_00007_66,"Hiện tại điều hòa đang bật ở 76,5 độ F, bạn muốn tăng hay giảm nhiệt độ?"
VR_COMMAND_ASK_USER_00007_67,"Hiện tại điều hòa đang bật ở 77 độ F, bạn muốn tăng hay giảm nhiệt độ?"
VR_COMMAND_ASK_USER_00007_68,"Hiện tại điều hòa đang bật ở 77,5 độ F, bạn muốn tăng hay giảm nhiệt độ?"
VR_COMMAND_ASK_USER_00007_69,"Hiện tại điều hòa đang bật ở 78 độ F, bạn muốn tăng hay giảm nhiệt độ?"
VR_COMMAND_ASK_USER_00007_70,"Hiện tại điều hòa đang bật ở 78,5 độ F, bạn muốn tăng hay giảm nhiệt độ?"
VR_COMMAND_ASK_USER_00007_71,"Hiện tại điều hòa đang bật ở 79 độ F, bạn muốn tăng hay giảm nhiệt độ?"
VR_COMMAND_ASK_USER_00007_72,"Hiện tại điều hòa đang bật ở 79,5 độ F, bạn muốn tăng hay giảm nhiệt độ?"
VR_COMMAND_ASK_USER_00007_73,"Hiện tại điều hòa đang bật ở 80 độ F, bạn muốn tăng hay giảm nhiệt độ?"
VR_COMMAND_ASK_USER_00007_74,"Hiện tại điều hòa đang bật ở 80,5 độ F, bạn muốn tăng hay giảm nhiệt độ?"
VR_COMMAND_ASK_USER_00007_75,"Hiện tại điều hòa đang bật ở 81 độ F, bạn muốn tăng hay giảm nhiệt độ?"
VR_COMMAND_ASK_USER_00007_76,"Hiện tại điều hòa đang bật ở 81,5 độ F, bạn muốn tăng hay giảm nhiệt độ?"
VR_COMMAND_ASK_USER_00007_77,"Hiện tại điều hòa đang bật ở 82 độ F, bạn muốn tăng hay giảm nhiệt độ?"
VR_COMMAND_ASK_USER_00007_78,"Hiện tại điều hòa đang bật ở 82,5 độ F, bạn muốn tăng hay giảm nhiệt độ?"
VR_COMMAND_ASK_USER_00007_79,"Hiện tại điều hòa đang bật ở 83 độ F, bạn muốn tăng hay giảm nhiệt độ?"
VR_COMMAND_ASK_USER_00007_80,"Hiện tại điều hòa đang bật ở 83,5 độ F, bạn muốn tăng hay giảm nhiệt độ?"
VR_COMMAND_ASK_USER_00007_81,"Hiện tại điều hòa đang bật ở 84 độ F, bạn muốn tăng hay giảm nhiệt độ?"
VR_COMMAND_ASK_USER_00007_82,"Hiện tại điều hòa đang bật ở 84,5 độ F, bạn muốn tăng hay giảm nhiệt độ?"
VR_COMMAND_ASK_USER_00007_83,"Hiện tại điều hòa đang bật ở 85 độ F, bạn muốn tăng hay giảm nhiệt độ?"
VR_COMMAND_ASK_USER_00007_84,"Hiện tại điều hòa đang bật ở 85,5 độ F, bạn muốn tăng hay giảm nhiệt độ?"
VR_COMMAND_ASK_USER_00007_85,"Hiện tại điều hòa đang bật ở 86 độ F, bạn muốn tăng hay giảm nhiệt độ?"
VR_COMMAND_ASK_USER_00007_86,"Hiện tại điều hòa đang bật ở 86,5 độ F, bạn muốn tăng hay giảm nhiệt độ?"
VR_COMMAND_ASK_USER_00007_87,"Hiện tại điều hòa đang bật ở 87 độ F, bạn muốn tăng hay giảm nhiệt độ?"
VR_COMMAND_ASK_USER_00007_88,"Hiện tại điều hòa đang bật ở 87,5 độ F, bạn muốn tăng hay giảm nhiệt độ?"
VR_COMMAND_ASK_USER_00007_89,"Hiện tại điều hòa đang bật ở 88 độ F, bạn muốn tăng hay giảm nhiệt độ?"
VR_COMMAND_ASK_USER_00007_90,"Hiện tại điều hòa đang bật ở 88,5 độ F, bạn muốn tăng hay giảm nhiệt độ?"
VR_COMMAND_ASK_USER_00007_91,"Hiện tại điều hòa đang bật ở 89 độ F, bạn muốn tăng hay giảm nhiệt độ?"
VR_COMMAND_ASK_USER_00007_92,"Hiện tại điều hòa đang bật ở 89,5 độ F, bạn muốn tăng hay giảm nhiệt độ?"
VR_COMMAND_ASK_USER_00007_93,"Hiện tại điều hòa đang bật ở 90 độ F, bạn muốn tăng hay giảm nhiệt độ?"
VR_COMMAND_ASK_USER_00008,Đã bật điều hòa khách và tăng quạt lên 1 mức
VR_COMMAND_ASK_USER_00009,Đã bật điều hòa lái và tăng quạt lên 1 mức
VR_COMMAND_ASK_USER_00010,Đã bật điều hòa và tăng quạt lên 1 mức
VR_COMMAND_ASK_USER_00011,Đã bật quạt gió và giảm điều hòa khách xuống 2 độ
VR_COMMAND_ASK_USER_00012,Đã bật quạt gió và giảm điều hòa lái xuống 2 độ
VR_COMMAND_ASK_USER_00013,Đã bật quạt gió và giảm điều hòa xuống 2 độ
VR_COMMAND_ASK_USER_00014,"Đã giảm điều hòa khách xuống 2 độ, và tăng quạt gió thêm 1 mức"
VR_COMMAND_ASK_USER_00015,"Đã giảm điều hòa lái xuống 2 độ, và tăng quạt gió thêm 1 mức"
VR_COMMAND_ASK_USER_00016,"Đã giảm điều hòa xuống 2 độ, và tăng quạt gió thêm 1 mức"
VR_COMMAND_ASK_USER_00017,Đã bật điều hòa khách và quạt gió
VR_COMMAND_ASK_USER_00018,Đã bật điều hòa lái và quạt gió
VR_COMMAND_ASK_USER_00019,Đã bật điều hòa và quạt gió
VR_COMMAND_ASK_USER_00020,Đã bật điều hòa khách và giảm quạt xuống 1 mức
VR_COMMAND_ASK_USER_00021,Đã bật điều hòa lái và giảm quạt xuống 1 mức
VR_COMMAND_ASK_USER_00022,Đã bật điều hòa và giảm quạt xuống 1 mức
VR_COMMAND_ASK_USER_00023,Đã bật quạt gió và tăng điều hòa khách thêm 2 độ
VR_COMMAND_ASK_USER_00024,Đã bật quạt gió và tăng điều hòa lái thêm 2 độ
VR_COMMAND_ASK_USER_00025,Đã bật quạt gió và tăng điều hòa thêm 2 độ
VR_COMMAND_ASK_USER_00026,"Đã tăng điều hòa khách thêm 2 độ, và giảm quạt gió xuống 1 mức"
VR_COMMAND_ASK_USER_00027,"Đã tăng điều hòa lái thêm 2 độ, và giảm quạt gió xuống 1 mức"
VR_COMMAND_ASK_USER_00028,"Đã tăng điều hòa thêm 2 độ, và giảm quạt gió xuống 1 mức"
VR_COMMAND_ASK_USER_00029,Đang gọi mami
VR_COMMAND_ASK_USER_00030,"Có cuộc gọi nhỡ gần đây, bạn có muốn gọi lại không?"
VR_COMMAND_ASK_USER_00031,Đang gọi 19001731
VR_COMMAND_ASK_USER_00032,Đang gọi 0915324987
VR_COMMAND_ASK_USER_00033,Bạn muốn gọi cho ai?
VR_COMMAND_ASK_USER_00034,Bạn có muốn chuyển qua bài kế tiếp hay mở bài khác không?
VR_COMMAND_ASK_USER_00035,"Chào bạn, tôi đang nghe bạn hãy nói đi"
VR_COMMAND_ASK_USER_00036,Bạn muốn gọi cho ai?
VR_COMMAND_ASK_USER_00037,Đang gọi 113
VR_COMMAND_ASK_USER_00038,Đang gọi 0244567234
VR_COMMAND_ASK_USER_00039,Đã đặt điều hòa khách tối thiểu 60 độ F
VR_COMMAND_ASK_USER_00040,Đã đặt điều hòa lái tối thiểu 60 độ F
VR_COMMAND_ASK_USER_00041,Đã đặt nhiệt độ tối thiểu 60 độ F
VR_COMMAND_ASK_USER_00042,Đã đặt điều hòa khách tối thiểu 16 độ C
VR_COMMAND_ASK_USER_00043,Đã đặt điều hòa lái tối thiểu 16 độ C
VR_COMMAND_ASK_USER_00044,Đã đặt nhiệt độ tối thiểu 16 độ C
VR_COMMAND_ASK_USER_00045,Không tìm thấy bài hát Trường Sơn Đông Trường Sơn Tây
VR_COMMAND_ASK_USER_00046,"Xin lỗi, tôi không thể thực hiện lệnh của bạn. Tôi chỉ thực hiện được lệnh này với nhạc và video trong USB"
VR_COMMAND_ASK_USER_00047,"Xin lỗi tôi chưa hiểu ý của bạn, bạn hãy nói lại"
VR_COMMAND_ASK_USER_00048_01,Bây giờ là 04:04
VR_COMMAND_ASK_USER_00048_02,Bây giờ là 14:58
VR_COMMAND_ASK_USER_00048_03,Bây giờ là 23:00
VR_COMMAND_ASK_USER_00048_04,Bây giờ là 00:32
VR_COMMAND_ASK_USER_00049_01,Âm lịch hôm nay là 02/03/2021
VR_COMMAND_ASK_USER_00049_02,Âm lịch hôm nay là 15/12/2020
VR_COMMAND_ASK_USER_00049_03,Âm lịch hôm nay là 6/7/2019
VR_COMMAND_ASK_USER_00050_01,Hôm nay là 4/4/2020
VR_COMMAND_ASK_USER_00050_02,Hôm nay là 8/9/2018
VR_COMMAND_ASK_USER_00050_03,Hôm nay là 4/2/1998
VR_COMMAND_ASK_USER_00051,"Ok, bye"
VR_COMMAND_ASK_USER_00052,Hiện tại đơn vị của hệ thống là độ F. Bạn có muốn đổi sang độ C không?
VR_COMMAND_ASK_USER_00053,Đã đặt điều hòa lái tối thiểu 60 độ F
VR_COMMAND_ASK_USER_00054,Đã đặt điều hòa khách tối thiểu 60 độ F
VR_COMMAND_ASK_USER_00055,Đã đặt nhiệt độ tối thiểu 60 độ F
VR_COMMAND_ASK_USER_00056,Đã đặt điều hòa lái tối thiểu 60 độ F
VR_COMMAND_ASK_USER_00057,Đã đặt điều hòa khách tối thiểu 60 độ F
VR_COMMAND_ASK_USER_00058,Đã đặt nhiệt độ tối thiểu 60 độ F
VR_COMMAND_ASK_USER_00059_01,Đã giảm điều hòa khách xuống 0 độ F
VR_COMMAND_ASK_USER_00059_02,"Đã giảm điều hòa khách xuống 0,5 độ F"
VR_COMMAND_ASK_USER_00059_03,Đã giảm điều hòa khách xuống 1 độ F
VR_COMMAND_ASK_USER_00059_04,"Đã giảm điều hòa khách xuống 1,5 độ F"
VR_COMMAND_ASK_USER_00059_05,Đã giảm điều hòa khách xuống 2 độ F
VR_COMMAND_ASK_USER_00059_06,"Đã giảm điều hòa khách xuống 2,5 độ F"
VR_COMMAND_ASK_USER_00059_07,Đã giảm điều hòa khách xuống 3 độ F
VR_COMMAND_ASK_USER_00059_08,"Đã giảm điều hòa khách xuống 3,5 độ F"
VR_COMMAND_ASK_USER_00059_09,Đã giảm điều hòa khách xuống 4 độ F
VR_COMMAND_ASK_USER_00059_10,"Đã giảm điều hòa khách xuống 4,5 độ F"
VR_COMMAND_ASK_USER_00059_11,Đã giảm điều hòa khách xuống 5 độ F
VR_COMMAND_ASK_USER_00059_12,"Đã giảm điều hòa khách xuống 5,5 độ F"
VR_COMMAND_ASK_USER_00059_13,Đã giảm điều hòa khách xuống 6 độ F
VR_COMMAND_ASK_USER_00059_14,"Đã giảm điều hòa khách xuống 6,5 độ F"
VR_COMMAND_ASK_USER_00059_15,Đã giảm điều hòa khách xuống 7 độ F
VR_COMMAND_ASK_USER_00059_16,"Đã giảm điều hòa khách xuống 7,5 độ F"
VR_COMMAND_ASK_USER_00059_17,Đã giảm điều hòa khách xuống 8 độ F
VR_COMMAND_ASK_USER_00059_18,"Đã giảm điều hòa khách xuống 8,5 độ F"
VR_COMMAND_ASK_USER_00059_19,Đã giảm điều hòa khách xuống 9 độ F
VR_COMMAND_ASK_USER_00059_20,"Đã giảm điều hòa khách xuống 9,5 độ F"
VR_COMMAND_ASK_USER_00059_21,Đã giảm điều hòa khách xuống 10 độ F
VR_COMMAND_ASK_USER_00059_22,"Đã giảm điều hòa khách xuống 10,5 độ F"
VR_COMMAND_ASK_USER_00059_23,Đã giảm điều hòa khách xuống 11 độ F
VR_COMMAND_ASK_USER_00059_24,"Đã giảm điều hòa khách xuống 11,5 độ F"
VR_COMMAND_ASK_USER_00059_25,Đã giảm điều hòa khách xuống 12 độ F
VR_COMMAND_ASK_USER_00059_26,"Đã giảm điều hòa khách xuống 12,5 độ F"
VR_COMMAND_ASK_USER_00059_27,Đã giảm điều hòa khách xuống 13 độ F
VR_COMMAND_ASK_USER_00059_28,"Đã giảm điều hòa khách xuống 13,5 độ F"
VR_COMMAND_ASK_USER_00059_29,Đã giảm điều hòa khách xuống 14 độ F
VR_COMMAND_ASK_USER_00059_30,"Đã giảm điều hòa khách xuống 14,5 độ F"
VR_COMMAND_ASK_USER_00059_31,Đã giảm điều hòa khách xuống 15 độ F
VR_COMMAND_ASK_USER_00059_32,"Đã giảm điều hòa khách xuống 15,5 độ F"
VR_COMMAND_ASK_USER_00059_33,Đã giảm điều hòa khách xuống 16 độ F
VR_COMMAND_ASK_USER_00059_34,"Đã giảm điều hòa khách xuống 16,5 độ F"
VR_COMMAND_ASK_USER_00059_35,Đã giảm điều hòa khách xuống 17 độ F
VR_COMMAND_ASK_USER_00059_36,"Đã giảm điều hòa khách xuống 17,5 độ F"
VR_COMMAND_ASK_USER_00059_37,Đã giảm điều hòa khách xuống 18 độ F
VR_COMMAND_ASK_USER_00059_38,"Đã giảm điều hòa khách xuống 18,5 độ F"
VR_COMMAND_ASK_USER_00059_39,Đã giảm điều hòa khách xuống 19 độ F
VR_COMMAND_ASK_USER_00059_40,"Đã giảm điều hòa khách xuống 19,5 độ F"
VR_COMMAND_ASK_USER_00059_41,Đã giảm điều hòa khách xuống 20 độ F
VR_COMMAND_ASK_USER_00059_42,"Đã giảm điều hòa khách xuống 20,5 độ F"
VR_COMMAND_ASK_USER_00059_43,Đã giảm điều hòa khách xuống 21 độ F
VR_COMMAND_ASK_USER_00059_44,"Đã giảm điều hòa khách xuống 21,5 độ F"
VR_COMMAND_ASK_USER_00059_45,Đã giảm điều hòa khách xuống 22 độ F
VR_COMMAND_ASK_USER_00059_46,"Đã giảm điều hòa khách xuống 22,5 độ F"
VR_COMMAND_ASK_USER_00059_47,Đã giảm điều hòa khách xuống 23 độ F
VR_COMMAND_ASK_USER_00059_48,"Đã giảm điều hòa khách xuống 23,5 độ F"
VR_COMMAND_ASK_USER_00059_49,Đã giảm điều hòa khách xuống 24 độ F
VR_COMMAND_ASK_USER_00059_50,"Đã giảm điều hòa khách xuống 24,5 độ F"
VR_COMMAND_ASK_USER_00059_51,Đã giảm điều hòa khách xuống 25 độ F
VR_COMMAND_ASK_USER_00059_52,"Đã giảm điều hòa khách xuống 25,5 độ F"
VR_COMMAND_ASK_USER_00059_53,Đã giảm điều hòa khách xuống 26 độ F
VR_COMMAND_ASK_USER_00059_54,"Đã giảm điều hòa khách xuống 26,5 độ F"
VR_COMMAND_ASK_USER_00059_55,Đã giảm điều hòa khách xuống 27 độ F
VR_COMMAND_ASK_USER_00059_56,"Đã giảm điều hòa khách xuống 27,5 độ F"
VR_COMMAND_ASK_USER_00059_57,Đã giảm điều hòa khách xuống 28 độ F
VR_COMMAND_ASK_USER_00059_58,"Đã giảm điều hòa khách xuống 28,5 độ F"
VR_COMMAND_ASK_USER_00059_59,Đã giảm điều hòa khách xuống 29 độ F
VR_COMMAND_ASK_USER_00060_01,Đã giảm điều hòa lái xuống 1 độ F
VR_COMMAND_ASK_USER_00060_02,Đã giảm điều hòa lái xuống 2 độ F
VR_COMMAND_ASK_USER_00060_03,Đã giảm điều hòa lái xuống 3 độ F
VR_COMMAND_ASK_USER_00060_04,Đã giảm điều hòa lái xuống 4 độ F
VR_COMMAND_ASK_USER_00060_05,Đã giảm điều hòa lái xuống 5 độ F
VR_COMMAND_ASK_USER_00060_06,Đã giảm điều hòa lái xuống 6 độ F
VR_COMMAND_ASK_USER_00060_07,Đã giảm điều hòa lái xuống 7 độ F
VR_COMMAND_ASK_USER_00060_08,Đã giảm điều hòa lái xuống 8 độ F
VR_COMMAND_ASK_USER_00060_09,Đã giảm điều hòa lái xuống 9 độ F
VR_COMMAND_ASK_USER_00060_10,Đã giảm điều hòa lái xuống 10 độ F
VR_COMMAND_ASK_USER_00060_11,Đã giảm điều hòa lái xuống 11 độ F
VR_COMMAND_ASK_USER_00060_12,Đã giảm điều hòa lái xuống 12 độ F
VR_COMMAND_ASK_USER_00060_13,Đã giảm điều hòa lái xuống 13 độ F
VR_COMMAND_ASK_USER_00060_14,Đã giảm điều hòa lái xuống 14 độ F
VR_COMMAND_ASK_USER_00060_15,Đã giảm điều hòa lái xuống 15 độ F
VR_COMMAND_ASK_USER_00060_16,Đã giảm điều hòa lái xuống 16 độ F
VR_COMMAND_ASK_USER_00060_17,Đã giảm điều hòa lái xuống 17 độ F
VR_COMMAND_ASK_USER_00060_18,Đã giảm điều hòa lái xuống 18 độ F
VR_COMMAND_ASK_USER_00060_19,Đã giảm điều hòa lái xuống 19 độ F
VR_COMMAND_ASK_USER_00060_20,Đã giảm điều hòa lái xuống 20 độ F
VR_COMMAND_ASK_USER_00060_21,Đã giảm điều hòa lái xuống 21 độ F
VR_COMMAND_ASK_USER_00060_22,Đã giảm điều hòa lái xuống 22 độ F
VR_COMMAND_ASK_USER_00060_23,Đã giảm điều hòa lái xuống 23 độ F
VR_COMMAND_ASK_USER_00060_24,Đã giảm điều hòa lái xuống 24 độ F
VR_COMMAND_ASK_USER_00060_25,Đã giảm điều hòa lái xuống 25 độ F
VR_COMMAND_ASK_USER_00060_26,Đã giảm điều hòa lái xuống 26 độ F
VR_COMMAND_ASK_USER_00060_27,Đã giảm điều hòa lái xuống 27 độ F
VR_COMMAND_ASK_USER_00060_28,Đã giảm điều hòa lái xuống 28 độ F
VR_COMMAND_ASK_USER_00060_29,Đã giảm điều hòa lái xuống 29 độ F
VR_COMMAND_ASK_USER_00061_01,Đã giảm điều hòa xuống 1 độ F
VR_COMMAND_ASK_USER_00061_02,Đã giảm điều hòa xuống 2 độ F
VR_COMMAND_ASK_USER_00061_03,Đã giảm điều hòa xuống 3 độ F
VR_COMMAND_ASK_USER_00061_04,Đã giảm điều hòa xuống 4 độ F
VR_COMMAND_ASK_USER_00061_05,Đã giảm điều hòa xuống 5 độ F
VR_COMMAND_ASK_USER_00061_06,Đã giảm điều hòa xuống 6 độ F
VR_COMMAND_ASK_USER_00061_07,Đã giảm điều hòa xuống 7 độ F
VR_COMMAND_ASK_USER_00061_08,Đã giảm điều hòa xuống 8 độ F
VR_COMMAND_ASK_USER_00061_09,Đã giảm điều hòa xuống 9 độ F
VR_COMMAND_ASK_USER_00061_10,Đã giảm điều hòa xuống 10 độ F
VR_COMMAND_ASK_USER_00061_11,Đã giảm điều hòa xuống 11 độ F
VR_COMMAND_ASK_USER_00061_12,Đã giảm điều hòa xuống 12 độ F
VR_COMMAND_ASK_USER_00061_13,Đã giảm điều hòa xuống 13 độ F
VR_COMMAND_ASK_USER_00061_14,Đã giảm điều hòa xuống 14 độ F
VR_COMMAND_ASK_USER_00061_15,Đã giảm điều hòa xuống 15 độ F
VR_COMMAND_ASK_USER_00061_16,Đã giảm điều hòa xuống 16 độ F
VR_COMMAND_ASK_USER_00061_17,Đã giảm điều hòa xuống 17 độ F
VR_COMMAND_ASK_USER_00061_18,Đã giảm điều hòa xuống 18 độ F
VR_COMMAND_ASK_USER_00061_19,Đã giảm điều hòa xuống 19 độ F
VR_COMMAND_ASK_USER_00061_20,Đã giảm điều hòa xuống 20 độ F
VR_COMMAND_ASK_USER_00061_21,Đã giảm điều hòa xuống 21 độ F
VR_COMMAND_ASK_USER_00061_22,Đã giảm điều hòa xuống 22 độ F
VR_COMMAND_ASK_USER_00061_23,Đã giảm điều hòa xuống 23 độ F
VR_COMMAND_ASK_USER_00061_24,Đã giảm điều hòa xuống 24 độ F
VR_COMMAND_ASK_USER_00061_25,Đã giảm điều hòa xuống 25 độ F
VR_COMMAND_ASK_USER_00061_26,Đã giảm điều hòa xuống 26 độ F
VR_COMMAND_ASK_USER_00061_27,Đã giảm điều hòa xuống 27 độ F
VR_COMMAND_ASK_USER_00061_28,Đã giảm điều hòa xuống 28 độ F
VR_COMMAND_ASK_USER_00061_29,Đã giảm điều hòa xuống 29 độ F
VR_COMMAND_ASK_USER_00062,Hiện tại đơn vị của hệ thống là độ C. Bạn có muốn đổi sang độ F không?
VR_COMMAND_ASK_USER_00063,"Xin lỗi tôi chưa hiểu ý của bạn, bạn hãy nói lại"
VR_COMMAND_ASK_USER_00064,Đã đặt điều hòa khách tối thiểu 16 độ C
VR_COMMAND_ASK_USER_00065,Đã đặt điều hòa lái tối thiểu 16 độ C
VR_COMMAND_ASK_USER_00066,Đã đặt nhiệt độ tối thiểu 16 độ C
VR_COMMAND_ASK_USER_00067_01,Đã giảm điều hòa khách xuống 1 độ C
VR_COMMAND_ASK_USER_00067_02,Đã giảm điều hòa khách xuống 2 độ C
VR_COMMAND_ASK_USER_00067_03,Đã giảm điều hòa khách xuống 3 độ C
VR_COMMAND_ASK_USER_00067_04,Đã giảm điều hòa khách xuống 4 độ C
VR_COMMAND_ASK_USER_00067_05,Đã giảm điều hòa khách xuống 5 độ C
VR_COMMAND_ASK_USER_00067_06,Đã giảm điều hòa khách xuống 6 độ C
VR_COMMAND_ASK_USER_00067_07,Đã giảm điều hòa khách xuống 7 độ C
VR_COMMAND_ASK_USER_00067_08,Đã giảm điều hòa khách xuống 8 độ C
VR_COMMAND_ASK_USER_00067_09,Đã giảm điều hòa khách xuống 9 độ C
VR_COMMAND_ASK_USER_00067_10,Đã giảm điều hòa khách xuống 10 độ C
VR_COMMAND_ASK_USER_00067_11,Đã giảm điều hòa khách xuống 11 độ C
VR_COMMAND_ASK_USER_00067_12,Đã giảm điều hòa khách xuống 12 độ C
VR_COMMAND_ASK_USER_00067_13,Đã giảm điều hòa khách xuống 13 độ C
VR_COMMAND_ASK_USER_00067_14,Đã giảm điều hòa khách xuống 14 độ C
VR_COMMAND_ASK_USER_00067_15,Đã giảm điều hòa khách xuống 15 độ C
VR_COMMAND_ASK_USER_00068_01,Đã giảm điều hòa lái xuống 1 độ C
VR_COMMAND_ASK_USER_00068_02,Đã giảm điều hòa lái xuống 2 độ C
VR_COMMAND_ASK_USER_00068_03,Đã giảm điều hòa lái xuống 3 độ C
VR_COMMAND_ASK_USER_00068_04,Đã giảm điều hòa lái xuống 4 độ C
VR_COMMAND_ASK_USER_00068_05,Đã giảm điều hòa lái xuống 5 độ C
VR_COMMAND_ASK_USER_00068_06,Đã giảm điều hòa lái xuống 6 độ C
VR_COMMAND_ASK_USER_00068_07,Đã giảm điều hòa lái xuống 7 độ C
VR_COMMAND_ASK_USER_00068_08,Đã giảm điều hòa lái xuống 8 độ C
VR_COMMAND_ASK_USER_00068_09,Đã giảm điều hòa lái xuống 9 độ C
VR_COMMAND_ASK_USER_00068_10,Đã giảm điều hòa lái xuống 10 độ C
VR_COMMAND_ASK_USER_00068_11,Đã giảm điều hòa lái xuống 11 độ C
VR_COMMAND_ASK_USER_00068_12,Đã giảm điều hòa lái xuống 12 độ C
VR_COMMAND_ASK_USER_00068_13,Đã giảm điều hòa lái xuống 13 độ C
VR_COMMAND_ASK_USER_00068_14,Đã giảm điều hòa lái xuống 14 độ C
VR_COMMAND_ASK_USER_00068_15,Đã giảm điều hòa lái xuống 15 độ C
VR_COMMAND_ASK_USER_00069_01,Đã giảm điều hòa xuống 1 độ C
VR_COMMAND_ASK_USER_00069_02,Đã giảm điều hòa xuống 2 độ C
VR_COMMAND_ASK_USER_00069_03,Đã giảm điều hòa xuống 3 độ C
VR_COMMAND_ASK_USER_00069_04,Đã giảm điều hòa xuống 4 độ C
VR_COMMAND_ASK_USER_00069_05,Đã giảm điều hòa xuống 5 độ C
VR_COMMAND_ASK_USER_00069_06,Đã giảm điều hòa xuống 6 độ C
VR_COMMAND_ASK_USER_00069_07,Đã giảm điều hòa xuống 7 độ C
VR_COMMAND_ASK_USER_00069_08,Đã giảm điều hòa xuống 8 độ C
VR_COMMAND_ASK_USER_00069_09,Đã giảm điều hòa xuống 9 độ C
VR_COMMAND_ASK_USER_00069_10,Đã giảm điều hòa xuống 10 độ C
VR_COMMAND_ASK_USER_00069_11,Đã giảm điều hòa xuống 11 độ C
VR_COMMAND_ASK_USER_00069_12,Đã giảm điều hòa xuống 12 độ C
VR_COMMAND_ASK_USER_00069_13,Đã giảm điều hòa xuống 13 độ C
VR_COMMAND_ASK_USER_00069_14,Đã giảm điều hòa xuống 14 độ C
VR_COMMAND_ASK_USER_00069_15,Đã giảm điều hòa xuống 15 độ C
VR_COMMAND_ASK_USER_00070,Đã đặt điều hòa khách tối thiểu 16 độ C
VR_COMMAND_ASK_USER_00071,Đã đặt điều hòa lái tối thiểu 16 độ C
VR_COMMAND_ASK_USER_00072,Đã đặt nhiệt độ tối thiểu 16 độ C
VR_COMMAND_ASK_USER_00073,Đã giảm điều hòa khách xuống 2 độ
VR_COMMAND_ASK_USER_00074,Đã giảm điều hòa lái xuống 2 độ
VR_COMMAND_ASK_USER_00075,Đã giảm điều hòa xuống 2 độ
VR_COMMAND_ASK_USER_00076,Hiện tại đơn vị của hệ thống là độ F. Bạn có muốn đổi sang độ C không?
VR_COMMAND_ASK_USER_00077,Đã đặt điều hòa khách tối đa 90 độ F
VR_COMMAND_ASK_USER_00078,Đã đặt điều hòa lái tối đa 90 độ F
VR_COMMAND_ASK_USER_00079,Đã đặt điều hòa tối đa 90 độ F
VR_COMMAND_ASK_USER_00080,Đã đặt điều hòa khách tối đa 90 độ F
VR_COMMAND_ASK_USER_00081,Đã đặt điều hòa lái tối đa 90 độ F
VR_COMMAND_ASK_USER_00082,Đã đặt điều hòa tối đa 90 độ F
VR_COMMAND_ASK_USER_00083_01,Đã tăng điều hòa khách thêm 1 độ F
VR_COMMAND_ASK_USER_00083_02,Đã tăng điều hòa khách thêm 2 độ F
VR_COMMAND_ASK_USER_00083_03,Đã tăng điều hòa khách thêm 3 độ F
VR_COMMAND_ASK_USER_00083_04,Đã tăng điều hòa khách thêm 4 độ F
VR_COMMAND_ASK_USER_00083_05,Đã tăng điều hòa khách thêm 5 độ F
VR_COMMAND_ASK_USER_00083_06,Đã tăng điều hòa khách thêm 6 độ F
VR_COMMAND_ASK_USER_00083_07,Đã tăng điều hòa khách thêm 7 độ F
VR_COMMAND_ASK_USER_00083_08,Đã tăng điều hòa khách thêm 8 độ F
VR_COMMAND_ASK_USER_00083_09,Đã tăng điều hòa khách thêm 9 độ F
VR_COMMAND_ASK_USER_00083_10,Đã tăng điều hòa khách thêm 10 độ F
VR_COMMAND_ASK_USER_00083_11,Đã tăng điều hòa khách thêm 11 độ F
VR_COMMAND_ASK_USER_00083_12,Đã tăng điều hòa khách thêm 12 độ F
VR_COMMAND_ASK_USER_00083_13,Đã tăng điều hòa khách thêm 13 độ F
VR_COMMAND_ASK_USER_00083_14,Đã tăng điều hòa khách thêm 14 độ F
VR_COMMAND_ASK_USER_00083_15,Đã tăng điều hòa khách thêm 15 độ F
VR_COMMAND_ASK_USER_00083_16,Đã tăng điều hòa khách thêm 16 độ F
VR_COMMAND_ASK_USER_00083_17,Đã tăng điều hòa khách thêm 17 độ F
VR_COMMAND_ASK_USER_00083_18,Đã tăng điều hòa khách thêm 18 độ F
VR_COMMAND_ASK_USER_00083_19,Đã tăng điều hòa khách thêm 19 độ F
VR_COMMAND_ASK_USER_00083_20,Đã tăng điều hòa khách thêm 20 độ F
VR_COMMAND_ASK_USER_00083_21,Đã tăng điều hòa khách thêm 21 độ F
VR_COMMAND_ASK_USER_00083_22,Đã tăng điều hòa khách thêm 22 độ F
VR_COMMAND_ASK_USER_00083_23,Đã tăng điều hòa khách thêm 23 độ F
VR_COMMAND_ASK_USER_00083_24,Đã tăng điều hòa khách thêm 24 độ F
VR_COMMAND_ASK_USER_00083_25,Đã tăng điều hòa khách thêm 25 độ F
VR_COMMAND_ASK_USER_00083_26,Đã tăng điều hòa khách thêm 26 độ F
VR_COMMAND_ASK_USER_00083_27,Đã tăng điều hòa khách thêm 27 độ F
VR_COMMAND_ASK_USER_00083_28,Đã tăng điều hòa khách thêm 28 độ F
VR_COMMAND_ASK_USER_00083_29,Đã tăng điều hòa khách thêm 29 độ F
VR_COMMAND_ASK_USER_00084_01,Đã tăng điều hòa lái thêm 1 độ F
VR_COMMAND_ASK_USER_00084_02,Đã tăng điều hòa lái thêm 2 độ F
VR_COMMAND_ASK_USER_00084_03,Đã tăng điều hòa lái thêm 3 độ F
VR_COMMAND_ASK_USER_00084_04,Đã tăng điều hòa lái thêm 4 độ F
VR_COMMAND_ASK_USER_00084_05,Đã tăng điều hòa lái thêm 5 độ F
VR_COMMAND_ASK_USER_00084_06,Đã tăng điều hòa lái thêm 6 độ F
VR_COMMAND_ASK_USER_00084_07,Đã tăng điều hòa lái thêm 7 độ F
VR_COMMAND_ASK_USER_00084_08,Đã tăng điều hòa lái thêm 8 độ F
VR_COMMAND_ASK_USER_00084_09,Đã tăng điều hòa lái thêm 9 độ F
VR_COMMAND_ASK_USER_00084_10,Đã tăng điều hòa lái thêm 10 độ F
VR_COMMAND_ASK_USER_00084_11,Đã tăng điều hòa lái thêm 11 độ F
VR_COMMAND_ASK_USER_00084_12,Đã tăng điều hòa lái thêm 12 độ F
VR_COMMAND_ASK_USER_00084_13,Đã tăng điều hòa lái thêm 13 độ F
VR_COMMAND_ASK_USER_00084_14,Đã tăng điều hòa lái thêm 14 độ F
VR_COMMAND_ASK_USER_00084_15,Đã tăng điều hòa lái thêm 15 độ F
VR_COMMAND_ASK_USER_00084_16,Đã tăng điều hòa lái thêm 16 độ F
VR_COMMAND_ASK_USER_00084_17,Đã tăng điều hòa lái thêm 17 độ F
VR_COMMAND_ASK_USER_00084_18,Đã tăng điều hòa lái thêm 18 độ F
VR_COMMAND_ASK_USER_00084_19,Đã tăng điều hòa lái thêm 19 độ F
VR_COMMAND_ASK_USER_00084_20,Đã tăng điều hòa lái thêm 20 độ F
VR_COMMAND_ASK_USER_00084_21,Đã tăng điều hòa lái thêm 21 độ F
VR_COMMAND_ASK_USER_00084_22,Đã tăng điều hòa lái thêm 22 độ F
VR_COMMAND_ASK_USER_00084_23,Đã tăng điều hòa lái thêm 23 độ F
VR_COMMAND_ASK_USER_00084_24,Đã tăng điều hòa lái thêm 24 độ F
VR_COMMAND_ASK_USER_00084_25,Đã tăng điều hòa lái thêm 25 độ F
VR_COMMAND_ASK_USER_00084_26,Đã tăng điều hòa lái thêm 26 độ F
VR_COMMAND_ASK_USER_00084_27,Đã tăng điều hòa lái thêm 27 độ F
VR_COMMAND_ASK_USER_00084_28,Đã tăng điều hòa lái thêm 28 độ F
VR_COMMAND_ASK_USER_00084_29,Đã tăng điều hòa lái thêm 29 độ F
VR_COMMAND_ASK_USER_00085_01,Đã tăng điều hòa thêm 1 độ F
VR_COMMAND_ASK_USER_00085_02,Đã tăng điều hòa thêm 2 độ F
VR_COMMAND_ASK_USER_00085_03,Đã tăng điều hòa thêm 3 độ F
VR_COMMAND_ASK_USER_00085_04,Đã tăng điều hòa thêm 4 độ F
VR_COMMAND_ASK_USER_00085_05,Đã tăng điều hòa thêm 5 độ F
VR_COMMAND_ASK_USER_00085_06,Đã tăng điều hòa thêm 6 độ F
VR_COMMAND_ASK_USER_00085_07,Đã tăng điều hòa thêm 7 độ F
VR_COMMAND_ASK_USER_00085_08,Đã tăng điều hòa thêm 8 độ F
VR_COMMAND_ASK_USER_00085_09,Đã tăng điều hòa thêm 9 độ F
VR_COMMAND_ASK_USER_00085_10,Đã tăng điều hòa thêm 10 độ F
VR_COMMAND_ASK_USER_00085_11,Đã tăng điều hòa thêm 11 độ F
VR_COMMAND_ASK_USER_00085_12,Đã tăng điều hòa thêm 12 độ F
VR_COMMAND_ASK_USER_00085_13,Đã tăng điều hòa thêm 13 độ F
VR_COMMAND_ASK_USER_00085_14,Đã tăng điều hòa thêm 14 độ F
VR_COMMAND_ASK_USER_00085_15,Đã tăng điều hòa thêm 15 độ F
VR_COMMAND_ASK_USER_00085_16,Đã tăng điều hòa thêm 16 độ F
VR_COMMAND_ASK_USER_00085_17,Đã tăng điều hòa thêm 17 độ F
VR_COMMAND_ASK_USER_00085_18,Đã tăng điều hòa thêm 18 độ F
VR_COMMAND_ASK_USER_00085_19,Đã tăng điều hòa thêm 19 độ F
VR_COMMAND_ASK_USER_00085_20,Đã tăng điều hòa thêm 20 độ F
VR_COMMAND_ASK_USER_00085_21,Đã tăng điều hòa thêm 21 độ F
VR_COMMAND_ASK_USER_00085_22,Đã tăng điều hòa thêm 22 độ F
VR_COMMAND_ASK_USER_00085_23,Đã tăng điều hòa thêm 23 độ F
VR_COMMAND_ASK_USER_00085_24,Đã tăng điều hòa thêm 24 độ F
VR_COMMAND_ASK_USER_00085_25,Đã tăng điều hòa thêm 25 độ F
VR_COMMAND_ASK_USER_00085_26,Đã tăng điều hòa thêm 26 độ F
VR_COMMAND_ASK_USER_00085_27,Đã tăng điều hòa thêm 27 độ F
VR_COMMAND_ASK_USER_00085_28,Đã tăng điều hòa thêm 28 độ F
VR_COMMAND_ASK_USER_00085_29,Đã tăng điều hòa thêm 29 độ F
VR_COMMAND_ASK_USER_00086,Hiện tại đơn vị của hệ thống là độ C. Bạn có muốn đổi sang độ F không?
VR_COMMAND_ASK_USER_00087,Hiện tại đơn vị của hệ thống là độ F. Bạn có muốn đổi sang độ C không?
VR_COMMAND_ASK_USER_00088,Hiện tại đơn vị của hệ thống là độ C. Bạn có muốn đổi sang độ F không?
VR_COMMAND_ASK_USER_00089,"Xin lỗi tôi chưa hiểu ý của bạn, bạn hãy nói lại"
VR_COMMAND_ASK_USER_00090,Đã đặt điều hòa khách tối đa 32 độ C
VR_COMMAND_ASK_USER_00091,Đã đặt điều hòa lái tối đa 32 độ C
VR_COMMAND_ASK_USER_00092,Đã đặt điều hòa tối đa 32 độ C
VR_COMMAND_ASK_USER_00093_01,Đã tăng điều hòa khách thêm 0 độ C
VR_COMMAND_ASK_USER_00093_02,"Đã tăng điều hòa khách thêm 0,5 độ C"
VR_COMMAND_ASK_USER_00093_03,Đã tăng điều hòa khách thêm 1 độ C
VR_COMMAND_ASK_USER_00093_04,"Đã tăng điều hòa khách thêm 1,5 độ C"
VR_COMMAND_ASK_USER_00093_05,Đã tăng điều hòa khách thêm 2 độ C
VR_COMMAND_ASK_USER_00093_06,"Đã tăng điều hòa khách thêm 2,5 độ C"
VR_COMMAND_ASK_USER_00093_07,Đã tăng điều hòa khách thêm 3 độ C
VR_COMMAND_ASK_USER_00093_08,"Đã tăng điều hòa khách thêm 3,5 độ C"
VR_COMMAND_ASK_USER_00093_09,Đã tăng điều hòa khách thêm 4 độ C
VR_COMMAND_ASK_USER_00093_10,"Đã tăng điều hòa khách thêm 4,5 độ C"
VR_COMMAND_ASK_USER_00093_11,Đã tăng điều hòa khách thêm 5 độ C
VR_COMMAND_ASK_USER_00093_12,"Đã tăng điều hòa khách thêm 5,5 độ C"
VR_COMMAND_ASK_USER_00093_13,Đã tăng điều hòa khách thêm 6 độ C
VR_COMMAND_ASK_USER_00093_14,"Đã tăng điều hòa khách thêm 6,5 độ C"
VR_COMMAND_ASK_USER_00093_15,Đã tăng điều hòa khách thêm 7 độ C
VR_COMMAND_ASK_USER_00093_16,"Đã tăng điều hòa khách thêm 7,5 độ C"
VR_COMMAND_ASK_USER_00093_17,Đã tăng điều hòa khách thêm 8 độ C
VR_COMMAND_ASK_USER_00093_18,"Đã tăng điều hòa khách thêm 8,5 độ C"
VR_COMMAND_ASK_USER_00093_19,Đã tăng điều hòa khách thêm 9 độ C
VR_COMMAND_ASK_USER_00093_20,"Đã tăng điều hòa khách thêm 9,5 độ C"
VR_COMMAND_ASK_USER_00093_21,Đã tăng điều hòa khách thêm 10 độ C
VR_COMMAND_ASK_USER_00093_22,"Đã tăng điều hòa khách thêm 10,5 độ C"
VR_COMMAND_ASK_USER_00093_23,Đã tăng điều hòa khách thêm 11 độ C
VR_COMMAND_ASK_USER_00093_24,"Đã tăng điều hòa khách thêm 11,5 độ C"
VR_COMMAND_ASK_USER_00093_25,Đã tăng điều hòa khách thêm 12 độ C
VR_COMMAND_ASK_USER_00093_26,"Đã tăng điều hòa khách thêm 12,5 độ C"
VR_COMMAND_ASK_USER_00093_27,Đã tăng điều hòa khách thêm 13 độ C
VR_COMMAND_ASK_USER_00093_28,"Đã tăng điều hòa khách thêm 13,5 độ C"
VR_COMMAND_ASK_USER_00093_29,Đã tăng điều hòa khách thêm 14 độ C
VR_COMMAND_ASK_USER_00093_30,"Đã tăng điều hòa khách thêm 14,5 độ C"
VR_COMMAND_ASK_USER_00093_31,Đã tăng điều hòa khách thêm 15 độ C
VR_COMMAND_ASK_USER_00093_32,"Đã tăng điều hòa khách thêm 15,5 độ C"
VR_COMMAND_ASK_USER_00093_33,Đã tăng điều hòa khách thêm 16 độ C
VR_COMMAND_ASK_USER_00094_01,Đã tăng điều hòa lái thêm 1 độ C
VR_COMMAND_ASK_USER_00094_02,Đã tăng điều hòa lái thêm 2 độ C
VR_COMMAND_ASK_USER_00094_03,Đã tăng điều hòa lái thêm 3 độ C
VR_COMMAND_ASK_USER_00094_04,Đã tăng điều hòa lái thêm 4 độ C
VR_COMMAND_ASK_USER_00094_05,Đã tăng điều hòa lái thêm 5 độ C
VR_COMMAND_ASK_USER_00094_06,Đã tăng điều hòa lái thêm 6 độ C
VR_COMMAND_ASK_USER_00094_07,Đã tăng điều hòa lái thêm 7 độ C
VR_COMMAND_ASK_USER_00094_08,Đã tăng điều hòa lái thêm 8 độ C
VR_COMMAND_ASK_USER_00094_09,Đã tăng điều hòa lái thêm 9 độ C
VR_COMMAND_ASK_USER_00094_10,Đã tăng điều hòa lái thêm 10 độ C
VR_COMMAND_ASK_USER_00094_11,Đã tăng điều hòa lái thêm 11 độ C
VR_COMMAND_ASK_USER_00094_12,Đã tăng điều hòa lái thêm 12 độ C
VR_COMMAND_ASK_USER_00094_13,Đã tăng điều hòa lái thêm 13 độ C
VR_COMMAND_ASK_USER_00094_14,Đã tăng điều hòa lái thêm 14 độ C
VR_COMMAND_ASK_USER_00094_15,Đã tăng điều hòa lái thêm 15 độ C
VR_COMMAND_ASK_USER_00095_01,Đã tăng điều hòa thêm 1 độ C
VR_COMMAND_ASK_USER_00095_02,Đã tăng điều hòa thêm 2 độ C
VR_COMMAND_ASK_USER_00095_03,Đã tăng điều hòa thêm 3 độ C
VR_COMMAND_ASK_USER_00095_04,Đã tăng điều hòa thêm 4 độ C
VR_COMMAND_ASK_USER_00095_05,Đã tăng điều hòa thêm 5 độ C
VR_COMMAND_ASK_USER_00095_06,Đã tăng điều hòa thêm 6 độ C
VR_COMMAND_ASK_USER_00095_07,Đã tăng điều hòa thêm 7 độ C
VR_COMMAND_ASK_USER_00095_08,Đã tăng điều hòa thêm 8 độ C
VR_COMMAND_ASK_USER_00095_09,Đã tăng điều hòa thêm 9 độ C
VR_COMMAND_ASK_USER_00095_10,Đã tăng điều hòa thêm 10 độ C
VR_COMMAND_ASK_USER_00095_11,Đã tăng điều hòa thêm 11 độ C
VR_COMMAND_ASK_USER_00095_12,Đã tăng điều hòa thêm 12 độ C
VR_COMMAND_ASK_USER_00095_13,Đã tăng điều hòa thêm 13 độ C
VR_COMMAND_ASK_USER_00095_14,Đã tăng điều hòa thêm 14 độ C
VR_COMMAND_ASK_USER_00095_15,Đã tăng điều hòa thêm 15 độ C
VR_COMMAND_ASK_USER_00096,Đã đặt điều hòa khách tối thiểu 60 độ F
VR_COMMAND_ASK_USER_00097,Đã đặt điều hòa lái tối thiểu 60 độ F
VR_COMMAND_ASK_USER_00098,Đã đặt nhiệt độ tối thiểu 60 độ F
VR_COMMAND_ASK_USER_00099,Đã đặt điều hòa khách tối đa 90 độ F
VR_COMMAND_ASK_USER_00100,Đã đặt điều hòa lái tối đa 90 độ F
VR_COMMAND_ASK_USER_00101,Đã đặt điều hòa tối đa 90 độ F
VR_COMMAND_ASK_USER_00102_01,Đã đặt điều hòa khách 60 độ F
VR_COMMAND_ASK_USER_00102_02,Đã đặt điều hòa khách 61 độ F
VR_COMMAND_ASK_USER_00102_03,Đã đặt điều hòa khách 62 độ F
VR_COMMAND_ASK_USER_00102_04,Đã đặt điều hòa khách 63 độ F
VR_COMMAND_ASK_USER_00102_05,Đã đặt điều hòa khách 64 độ F
VR_COMMAND_ASK_USER_00102_06,Đã đặt điều hòa khách 65 độ F
VR_COMMAND_ASK_USER_00102_07,Đã đặt điều hòa khách 66 độ F
VR_COMMAND_ASK_USER_00102_08,Đã đặt điều hòa khách 67 độ F
VR_COMMAND_ASK_USER_00102_09,Đã đặt điều hòa khách 68 độ F
VR_COMMAND_ASK_USER_00102_10,Đã đặt điều hòa khách 69 độ F
VR_COMMAND_ASK_USER_00102_11,Đã đặt điều hòa khách 70 độ F
VR_COMMAND_ASK_USER_00102_12,Đã đặt điều hòa khách 71 độ F
VR_COMMAND_ASK_USER_00102_13,Đã đặt điều hòa khách 72 độ F
VR_COMMAND_ASK_USER_00102_14,Đã đặt điều hòa khách 73 độ F
VR_COMMAND_ASK_USER_00102_15,Đã đặt điều hòa khách 74 độ F
VR_COMMAND_ASK_USER_00102_16,Đã đặt điều hòa khách 75 độ F
VR_COMMAND_ASK_USER_00102_17,Đã đặt điều hòa khách 76 độ F
VR_COMMAND_ASK_USER_00102_18,Đã đặt điều hòa khách 77 độ F
VR_COMMAND_ASK_USER_00102_19,Đã đặt điều hòa khách 78 độ F
VR_COMMAND_ASK_USER_00102_20,Đã đặt điều hòa khách 79 độ F
VR_COMMAND_ASK_USER_00102_21,Đã đặt điều hòa khách 80 độ F
VR_COMMAND_ASK_USER_00102_22,Đã đặt điều hòa khách 81 độ F
VR_COMMAND_ASK_USER_00102_23,Đã đặt điều hòa khách 82 độ F
VR_COMMAND_ASK_USER_00102_24,Đã đặt điều hòa khách 83 độ F
VR_COMMAND_ASK_USER_00102_25,Đã đặt điều hòa khách 84 độ F
VR_COMMAND_ASK_USER_00102_26,Đã đặt điều hòa khách 85 độ F
VR_COMMAND_ASK_USER_00102_27,Đã đặt điều hòa khách 86 độ F
VR_COMMAND_ASK_USER_00102_28,Đã đặt điều hòa khách 87 độ F
VR_COMMAND_ASK_USER_00102_29,Đã đặt điều hòa khách 88 độ F
VR_COMMAND_ASK_USER_00102_30,Đã đặt điều hòa khách 89 độ F
VR_COMMAND_ASK_USER_00102_31,Đã đặt điều hòa khách 90 độ F
VR_COMMAND_ASK_USER_00103_01,Đã đặt điều hòa lái 60 độ F
VR_COMMAND_ASK_USER_00103_02,Đã đặt điều hòa lái 61 độ F
VR_COMMAND_ASK_USER_00103_03,Đã đặt điều hòa lái 62 độ F
VR_COMMAND_ASK_USER_00103_04,Đã đặt điều hòa lái 63 độ F
VR_COMMAND_ASK_USER_00103_05,Đã đặt điều hòa lái 64 độ F
VR_COMMAND_ASK_USER_00103_06,Đã đặt điều hòa lái 65 độ F
VR_COMMAND_ASK_USER_00103_07,Đã đặt điều hòa lái 66 độ F
VR_COMMAND_ASK_USER_00103_08,Đã đặt điều hòa lái 67 độ F
VR_COMMAND_ASK_USER_00103_09,Đã đặt điều hòa lái 68 độ F
VR_COMMAND_ASK_USER_00103_10,Đã đặt điều hòa lái 69 độ F
VR_COMMAND_ASK_USER_00103_11,Đã đặt điều hòa lái 70 độ F
VR_COMMAND_ASK_USER_00103_12,Đã đặt điều hòa lái 71 độ F
VR_COMMAND_ASK_USER_00103_13,Đã đặt điều hòa lái 72 độ F
VR_COMMAND_ASK_USER_00103_14,Đã đặt điều hòa lái 73 độ F
VR_COMMAND_ASK_USER_00103_15,Đã đặt điều hòa lái 74 độ F
VR_COMMAND_ASK_USER_00103_16,Đã đặt điều hòa lái 75 độ F
VR_COMMAND_ASK_USER_00103_17,Đã đặt điều hòa lái 76 độ F
VR_COMMAND_ASK_USER_00103_18,Đã đặt điều hòa lái 77 độ F
VR_COMMAND_ASK_USER_00103_19,Đã đặt điều hòa lái 78 độ F
VR_COMMAND_ASK_USER_00103_20,Đã đặt điều hòa lái 79 độ F
VR_COMMAND_ASK_USER_00103_21,Đã đặt điều hòa lái 80 độ F
VR_COMMAND_ASK_USER_00103_22,Đã đặt điều hòa lái 81 độ F
VR_COMMAND_ASK_USER_00103_23,Đã đặt điều hòa lái 82 độ F
VR_COMMAND_ASK_USER_00103_24,Đã đặt điều hòa lái 83 độ F
VR_COMMAND_ASK_USER_00103_25,Đã đặt điều hòa lái 84 độ F
VR_COMMAND_ASK_USER_00103_26,Đã đặt điều hòa lái 85 độ F
VR_COMMAND_ASK_USER_00103_27,Đã đặt điều hòa lái 86 độ F
VR_COMMAND_ASK_USER_00103_28,Đã đặt điều hòa lái 87 độ F
VR_COMMAND_ASK_USER_00103_29,Đã đặt điều hòa lái 88 độ F
VR_COMMAND_ASK_USER_00103_30,Đã đặt điều hòa lái 89 độ F
VR_COMMAND_ASK_USER_00103_31,Đã đặt điều hòa lái 90 độ F
VR_COMMAND_ASK_USER_00104_01,Đã đặt điều hòa ở 60 độ F
VR_COMMAND_ASK_USER_00104_02,Đã đặt điều hòa ở 61 độ F
VR_COMMAND_ASK_USER_00104_03,Đã đặt điều hòa ở 62 độ F
VR_COMMAND_ASK_USER_00104_04,Đã đặt điều hòa ở 63 độ F
VR_COMMAND_ASK_USER_00104_05,Đã đặt điều hòa ở 64 độ F
VR_COMMAND_ASK_USER_00104_06,Đã đặt điều hòa ở 65 độ F
VR_COMMAND_ASK_USER_00104_07,Đã đặt điều hòa ở 66 độ F
VR_COMMAND_ASK_USER_00104_08,Đã đặt điều hòa ở 67 độ F
VR_COMMAND_ASK_USER_00104_09,Đã đặt điều hòa ở 68 độ F
VR_COMMAND_ASK_USER_00104_10,Đã đặt điều hòa ở 69 độ F
VR_COMMAND_ASK_USER_00104_11,Đã đặt điều hòa ở 70 độ F
VR_COMMAND_ASK_USER_00104_12,Đã đặt điều hòa ở 71 độ F
VR_COMMAND_ASK_USER_00104_13,Đã đặt điều hòa ở 72 độ F
VR_COMMAND_ASK_USER_00104_14,Đã đặt điều hòa ở 73 độ F
VR_COMMAND_ASK_USER_00104_15,Đã đặt điều hòa ở 74 độ F
VR_COMMAND_ASK_USER_00104_16,Đã đặt điều hòa ở 75 độ F
VR_COMMAND_ASK_USER_00104_17,Đã đặt điều hòa ở 76 độ F
VR_COMMAND_ASK_USER_00104_18,Đã đặt điều hòa ở 77 độ F
VR_COMMAND_ASK_USER_00104_19,Đã đặt điều hòa ở 78 độ F
VR_COMMAND_ASK_USER_00104_20,Đã đặt điều hòa ở 79 độ F
VR_COMMAND_ASK_USER_00104_21,Đã đặt điều hòa ở 80 độ F
VR_COMMAND_ASK_USER_00104_22,Đã đặt điều hòa ở 81 độ F
VR_COMMAND_ASK_USER_00104_23,Đã đặt điều hòa ở 82 độ F
VR_COMMAND_ASK_USER_00104_24,Đã đặt điều hòa ở 83 độ F
VR_COMMAND_ASK_USER_00104_25,Đã đặt điều hòa ở 84 độ F
VR_COMMAND_ASK_USER_00104_26,Đã đặt điều hòa ở 85 độ F
VR_COMMAND_ASK_USER_00104_27,Đã đặt điều hòa ở 86 độ F
VR_COMMAND_ASK_USER_00104_28,Đã đặt điều hòa ở 87 độ F
VR_COMMAND_ASK_USER_00104_29,Đã đặt điều hòa ở 88 độ F
VR_COMMAND_ASK_USER_00104_30,Đã đặt điều hòa ở 89 độ F
VR_COMMAND_ASK_USER_00104_31,Đã đặt điều hòa ở 90 độ F
VR_COMMAND_ASK_USER_00105,Đã đặt điều hòa khách tối thiểu 16 độ C
VR_COMMAND_ASK_USER_00106,Đã đặt điều hòa lái tối thiểu 16 độ C
VR_COMMAND_ASK_USER_00107,Đã đặt nhiệt độ tối thiểu 16 độ C
VR_COMMAND_ASK_USER_00108,Đã đặt điều hòa khách tối đa 32 độ C
VR_COMMAND_ASK_USER_00109,Đã đặt điều hòa lái tối đa 32 độ C
VR_COMMAND_ASK_USER_00110,Đã đặt điều hòa tối đa 32 độ C
VR_COMMAND_ASK_USER_00111_01,Đã đặt điều hòa khách 16 độ C
VR_COMMAND_ASK_USER_00111_02,Đã đặt điều hòa khách 17 độ C
VR_COMMAND_ASK_USER_00111_03,Đã đặt điều hòa khách 18 độ C
VR_COMMAND_ASK_USER_00111_04,Đã đặt điều hòa khách 19 độ C
VR_COMMAND_ASK_USER_00111_05,Đã đặt điều hòa khách 20 độ C
VR_COMMAND_ASK_USER_00111_06,Đã đặt điều hòa khách 21 độ C
VR_COMMAND_ASK_USER_00111_07,Đã đặt điều hòa khách 22 độ C
VR_COMMAND_ASK_USER_00111_08,Đã đặt điều hòa khách 23 độ C
VR_COMMAND_ASK_USER_00111_09,Đã đặt điều hòa khách 24 độ C
VR_COMMAND_ASK_USER_00111_10,Đã đặt điều hòa khách 25 độ C
VR_COMMAND_ASK_USER_00111_11,Đã đặt điều hòa khách 26 độ C
VR_COMMAND_ASK_USER_00111_12,Đã đặt điều hòa khách 27 độ C
VR_COMMAND_ASK_USER_00111_13,Đã đặt điều hòa khách 28 độ C
VR_COMMAND_ASK_USER_00111_14,Đã đặt điều hòa khách 29 độ C
VR_COMMAND_ASK_USER_00111_15,Đã đặt điều hòa khách 30 độ C
VR_COMMAND_ASK_USER_00111_16,Đã đặt điều hòa khách 31 độ C
VR_COMMAND_ASK_USER_00111_17,Đã đặt điều hòa khách 32 độ C
VR_COMMAND_ASK_USER_00112_01,Đã đặt điều hòa lái 16 độ C
VR_COMMAND_ASK_USER_00112_02,Đã đặt điều hòa lái 17 độ C
VR_COMMAND_ASK_USER_00112_03,Đã đặt điều hòa lái 18 độ C
VR_COMMAND_ASK_USER_00112_04,Đã đặt điều hòa lái 19 độ C
VR_COMMAND_ASK_USER_00112_05,Đã đặt điều hòa lái 20 độ C
VR_COMMAND_ASK_USER_00112_06,Đã đặt điều hòa lái 21 độ C
VR_COMMAND_ASK_USER_00112_07,Đã đặt điều hòa lái 22 độ C
VR_COMMAND_ASK_USER_00112_08,Đã đặt điều hòa lái 23 độ C
VR_COMMAND_ASK_USER_00112_09,Đã đặt điều hòa lái 24 độ C
VR_COMMAND_ASK_USER_00112_10,Đã đặt điều hòa lái 25 độ C
VR_COMMAND_ASK_USER_00112_11,Đã đặt điều hòa lái 26 độ C
VR_COMMAND_ASK_USER_00112_12,Đã đặt điều hòa lái 27 độ C
VR_COMMAND_ASK_USER_00112_13,Đã đặt điều hòa lái 28 độ C
VR_COMMAND_ASK_USER_00112_14,Đã đặt điều hòa lái 29 độ C
VR_COMMAND_ASK_USER_00112_15,Đã đặt điều hòa lái 30 độ C
VR_COMMAND_ASK_USER_00112_16,Đã đặt điều hòa lái 31 độ C
VR_COMMAND_ASK_USER_00112_17,Đã đặt điều hòa lái 32 độ C
VR_COMMAND_ASK_USER_00113_01,Đã đặt điều hòa ở 16 độ C
VR_COMMAND_ASK_USER_00113_02,Đã đặt điều hòa ở 17 độ C
VR_COMMAND_ASK_USER_00113_03,Đã đặt điều hòa ở 18 độ C
VR_COMMAND_ASK_USER_00113_04,Đã đặt điều hòa ở 19 độ C
VR_COMMAND_ASK_USER_00113_05,Đã đặt điều hòa ở 20 độ C
VR_COMMAND_ASK_USER_00113_06,Đã đặt điều hòa ở 21 độ C
VR_COMMAND_ASK_USER_00113_07,Đã đặt điều hòa ở 22 độ C
VR_COMMAND_ASK_USER_00113_08,Đã đặt điều hòa ở 23 độ C
VR_COMMAND_ASK_USER_00113_09,Đã đặt điều hòa ở 24 độ C
VR_COMMAND_ASK_USER_00113_10,Đã đặt điều hòa ở 25 độ C
VR_COMMAND_ASK_USER_00113_11,Đã đặt điều hòa ở 26 độ C
VR_COMMAND_ASK_USER_00113_12,Đã đặt điều hòa ở 27 độ C
VR_COMMAND_ASK_USER_00113_13,Đã đặt điều hòa ở 28 độ C
VR_COMMAND_ASK_USER_00113_14,Đã đặt điều hòa ở 29 độ C
VR_COMMAND_ASK_USER_00113_15,Đã đặt điều hòa ở 30 độ C
VR_COMMAND_ASK_USER_00113_16,Đã đặt điều hòa ở 31 độ C
VR_COMMAND_ASK_USER_00113_17,Đã đặt điều hòa ở 32 độ C
VR_COMMAND_ASK_USER_00114,Đã đặt điều hòa khách tối đa 32 độ C
VR_COMMAND_ASK_USER_00115,Đã đặt điều hòa lái tối đa 32 độ c
VR_COMMAND_ASK_USER_00116,Đã đặt điều hòa tối đa 32 độ C
VR_COMMAND_ASK_USER_00117,Đã tăng điều hòa khách thêm 2 độ
VR_COMMAND_ASK_USER_00118,Đã tăng điều hòa lái thêm 2 độ
VR_COMMAND_ASK_USER_00119,Đã tăng điều hòa thêm 2 độ
VR_COMMAND_ASK_USER_00120,Đã bật điều hòa khách
VR_COMMAND_ASK_USER_00121,Đã bật điều hòa lái
VR_COMMAND_ASK_USER_00122,Đã bật chế độ điều hòa tối đa
VR_COMMAND_ASK_USER_00123,Đã bật chế độ điều hòa tự động
VR_COMMAND_ASK_USER_00124,Đã bật điều hòa
VR_COMMAND_ASK_USER_00125,Tìm thấy 5 số liên quan đến Thùy Chi
VR_COMMAND_ASK_USER_00126,Không tìm thấy số của Chipu trong danh bạ
VR_COMMAND_ASK_USER_00127,Đang gọi Mentor Khoa
VR_COMMAND_ASK_USER_00128,Bạn muốn gọi số thứ mấy?
VR_COMMAND_ASK_USER_00129,Đang gọi cho bà nội
VR_COMMAND_ASK_USER_00130,Không có số thứ 123
VR_COMMAND_ASK_USER_00131,Bạn muốn bật đèn sương mù phía trước hay phía sau?
VR_COMMAND_ASK_USER_00132,Đã bật đèn sương mù phía trước và sau
VR_COMMAND_ASK_USER_00133,Đã bật đèn sương mù phía sau
VR_COMMAND_ASK_USER_00134,Đã bật đèn sương mù phía trước
VR_COMMAND_ASK_USER_00135,Bạn muốn tắt đèn sương mù phía trước hay phía sau?
VR_COMMAND_ASK_USER_00136,Đã tắt đèn sương mù phía trước và sau
VR_COMMAND_ASK_USER_00137,Đã tắt đèn sương mù phía sau
VR_COMMAND_ASK_USER_00138,Đã tắt đèn sương mù phía trước
VR_COMMAND_ASK_USER_00139,Không có cuộc gọi gần đây
VR_COMMAND_ASK_USER_00140,Đang gọi E Phương AI
VR_COMMAND_ASK_USER_00141,Không có cuộc gọi nhỡ nào
VR_COMMAND_ASK_USER_00142,"Để điều chỉnh gương, bạn hãy chọn gương trái hoặc phải trên màn hình, và điều khiển bằng 4 nút chỉ hướng ở bên trái tay lái"
VR_COMMAND_ASK_USER_00143_01,Đã đặt làm mát ghế sau bên phải mức cao
VR_COMMAND_ASK_USER_00143_02,Đã đặt làm mát ghế sau bên phải mức trung bình
VR_COMMAND_ASK_USER_00143_03,Đã đặt làm mát ghế sau bên phải mức thấp
VR_COMMAND_ASK_USER_00144_01,Đã đặt làm mát ghế sau bên trái mức cao
VR_COMMAND_ASK_USER_00144_02,Đã đặt làm mát ghế sau bên trái mức trung bình
VR_COMMAND_ASK_USER_00144_03,Đã đặt làm mát ghế sau bên trái mức thấp
VR_COMMAND_ASK_USER_00145_01,Đã đặt làm mát ghế trước bên phải mức cao
VR_COMMAND_ASK_USER_00145_02,Đã đặt làm mát ghế trước bên phải mức trung bình
VR_COMMAND_ASK_USER_00145_03,Đã đặt làm mát ghế trước bên phải mức thấp
VR_COMMAND_ASK_USER_00146_01,Đã đặt làm mát ghế lái mức cao
VR_COMMAND_ASK_USER_00146_02,Đã đặt làm mát ghế lái mức trung bình
VR_COMMAND_ASK_USER_00146_03,Đã đặt làm mát ghế lái mức thấp
VR_COMMAND_ASK_USER_00147_01,Đã đặt toàn bộ làm mát ghế mức  cao
VR_COMMAND_ASK_USER_00147_02,Đã đặt toàn bộ làm mát ghế mức  trung bình
VR_COMMAND_ASK_USER_00147_03,Đã đặt toàn bộ làm mát ghế mức  thấp
VR_COMMAND_ASK_USER_00148_01,Đã đặt sưởi ghế sau bên phải mức cao
VR_COMMAND_ASK_USER_00148_02,Đã đặt sưởi ghế sau bên phải mức trung bình
VR_COMMAND_ASK_USER_00148_03,Đã đặt sưởi ghế sau bên phải mức thấp
VR_COMMAND_ASK_USER_00149_01,Đã đặt sưởi ghế sau bên trái mức cao
VR_COMMAND_ASK_USER_00149_02,Đã đặt sưởi ghế sau bên trái mứct rung bình
VR_COMMAND_ASK_USER_00149_03,Đã đặt sưởi ghế sau bên trái mức thấp
VR_COMMAND_ASK_USER_00150_01,Đã đặt sưởi ghế trước bên phải mức cao
VR_COMMAND_ASK_USER_00150_02,Đã đặt sưởi ghế trước bên phải mức trung bình
VR_COMMAND_ASK_USER_00150_03,Đã đặt sưởi ghế trước bên phải mức thấp
VR_COMMAND_ASK_USER_00151_01,Đã đặt sưởi ghế lái mức cao
VR_COMMAND_ASK_USER_00151_02,Đã đặt sưởi ghế lái mức trung bình
VR_COMMAND_ASK_USER_00151_03,Đã đặt sưởi ghế lái mức thấp
VR_COMMAND_ASK_USER_00152_01,Đã đặt toàn bộ sưởi ghế mức cao
VR_COMMAND_ASK_USER_00152_02,Đã đặt toàn bộ sưởi ghế mức trung bình
VR_COMMAND_ASK_USER_00152_03,Đã đặt toàn bộ sưởi ghế mức thấp
VR_COMMAND_ASK_USER_00153,Đã giảm làm mát toàn bộ ghế trước
VR_COMMAND_ASK_USER_00154,Đã giảm làm mát toàn bộ ghế sau
VR_COMMAND_ASK_USER_00155,Đã giảm làm mát toàn bộ ghế khách
VR_COMMAND_ASK_USER_00156,Đã giảm làm mát ghế sau bên phải
VR_COMMAND_ASK_USER_00157,Đã giảm làm mát ghế sau bên trái
VR_COMMAND_ASK_USER_00158,Đã giảm làm mát ghế trước bên phải
VR_COMMAND_ASK_USER_00159,Đã giảm làm mát ghế lái
VR_COMMAND_ASK_USER_00160,Đã giảm toàn bộ làm mát ghế
VR_COMMAND_ASK_USER_00161,Đã giảm sưởi toàn bộ ghế trước
VR_COMMAND_ASK_USER_00162,Đã giảm sưởi toàn bộ ghế sau
VR_COMMAND_ASK_USER_00163,Đã giảm sưởi toàn bộ ghế khách
VR_COMMAND_ASK_USER_00164,Đã giảm sưởi ghế sau bên phải
VR_COMMAND_ASK_USER_00165,Đã giảm sưởi ghế sau bên trái
VR_COMMAND_ASK_USER_00166,Đã giảm sưởi ghế trước bên phải
VR_COMMAND_ASK_USER_00167,Đã giảm sưởi ghế lái
VR_COMMAND_ASK_USER_00168,Đã giảm toàn bộ sưởi ghế
VR_COMMAND_ASK_USER_00169,Đã tắt quạt gió
VR_COMMAND_ASK_USER_00170_01,Đã giảm quạt gió 1 mức
VR_COMMAND_ASK_USER_00170_02,Đã giảm quạt gió 2 mức
VR_COMMAND_ASK_USER_00170_03,Đã giảm quạt gió 3 mức
VR_COMMAND_ASK_USER_00170_04,Đã giảm quạt gió 4 mức
VR_COMMAND_ASK_USER_00170_05,Đã giảm quạt gió 5 mức
VR_COMMAND_ASK_USER_00171,Đã đặt quạt gió mức 4
VR_COMMAND_ASK_USER_00172,Đã bật quạt gió mức 1 thấp nhất
VR_COMMAND_ASK_USER_00173,Đã giảm quạt gió xuống một mức
VR_COMMAND_ASK_USER_00174,Đã đặt quạt gió hướng chân và cửa kính trước
VR_COMMAND_ASK_USER_00175,Đã đặt quạt gió hướng chân
VR_COMMAND_ASK_USER_00176,Đã đặt quạt gió hướng mặt và chân
VR_COMMAND_ASK_USER_00177,Đã đặt quạt gió hướng mặt
VR_COMMAND_ASK_USER_00178,Đã tăng làm mát toàn bộ ghế trước
VR_COMMAND_ASK_USER_00179,Đã tăng làm mát toàn bộ ghế sau
VR_COMMAND_ASK_USER_00180,Đã tăng làm mát toàn bộ ghế khách
VR_COMMAND_ASK_USER_00181,Đã tăng làm mát ghế sau bên phải
VR_COMMAND_ASK_USER_00182,Đã tăng làm mát ghế sau bên trái
VR_COMMAND_ASK_USER_00183,Đã tăng làm mát ghế trước bên phải
VR_COMMAND_ASK_USER_00184,Đã tăng làm mát ghế lái
VR_COMMAND_ASK_USER_00185,Đã tăng toàn bộ làm mát ghế
VR_COMMAND_ASK_USER_00186,Đã tăng sưởi toàn bộ ghế trước
VR_COMMAND_ASK_USER_00187,Đã tăng sưởi toàn bộ ghế sau
VR_COMMAND_ASK_USER_00188,Đã tăng sưởi toàn bộ ghế khách
VR_COMMAND_ASK_USER_00189,Đã tăng sưởi ghế sau bên phải
VR_COMMAND_ASK_USER_00190,Đã tăng sưởi ghế sau bên trái
VR_COMMAND_ASK_USER_00191,Đã tăng sưởi ghế trước bên phải
VR_COMMAND_ASK_USER_00192,Đã tăng sưởi ghế lái
VR_COMMAND_ASK_USER_00193,Đã tăng toàn bộ sưởi ghế
VR_COMMAND_ASK_USER_00194,Bạn vui lòng thực hiện lại yêu cầu nhé.
VR_COMMAND_ASK_USER_00195,Đã đặt chế độ lái comfort
VR_COMMAND_ASK_USER_00196,Đã đặt chế độ lái sport
VR_COMMAND_ASK_USER_00197,Đã đặt chế độ lái eco
VR_COMMAND_ASK_USER_00198,Đã tắt quạt gió
VR_COMMAND_ASK_USER_00199,Đã đặt quạt gió mức 1 thấp nhất
VR_COMMAND_ASK_USER_00200_01,Đã tăng quạt gió 1 mức
VR_COMMAND_ASK_USER_00200_02,Đã tăng quạt gió 2 mức
VR_COMMAND_ASK_USER_00200_03,Đã tăng quạt gió 3 mức
VR_COMMAND_ASK_USER_00200_04,Đã tăng quạt gió 4 mức
VR_COMMAND_ASK_USER_00200_05,Đã tăng quạt gió 5 mức
VR_COMMAND_ASK_USER_00201_01,Đã đặt quạt gió mức 1
VR_COMMAND_ASK_USER_00201_02,Đã đặt quạt gió mức 2
VR_COMMAND_ASK_USER_00201_03,Đã đặt quạt gió mức 3
VR_COMMAND_ASK_USER_00201_04,Đã đặt quạt gió mức 4
VR_COMMAND_ASK_USER_00201_05,Đã đặt quạt gió mức 5
VR_COMMAND_ASK_USER_00201_06,Đã đặt quạt gió mức 6
VR_COMMAND_ASK_USER_00202,Đã bật quạt gió mức 6 tối đa
VR_COMMAND_ASK_USER_00203,Đã tăng quạt gió lên một mức
VR_COMMAND_ASK_USER_00204,Đã tắt quạt gió
VR_COMMAND_ASK_USER_00205_01,Đã đặt quạt gió mức 1
VR_COMMAND_ASK_USER_00205_02,Đã đặt quạt gió mức 2
VR_COMMAND_ASK_USER_00205_03,Đã đặt quạt gió mức 3
VR_COMMAND_ASK_USER_00205_04,Đã đặt quạt gió mức 4
VR_COMMAND_ASK_USER_00205_05,Đã đặt quạt gió mức 5
VR_COMMAND_ASK_USER_00205_06,Đã đặt quạt gió mức 6
VR_COMMAND_ASK_USER_00206,Đã bật quạt gió mức 1 thấp nhất
VR_COMMAND_ASK_USER_00207,Đã bật quạt gió mức 6 tối đa
VR_COMMAND_ASK_USER_00208,Đã bật quạt gió
VR_COMMAND_ASK_USER_00209,Đã bật sưởi toàn bộ ghế trước
VR_COMMAND_ASK_USER_00210,Đã bật sưởi toàn bộ ghế sau
VR_COMMAND_ASK_USER_00211,Đã bật sưởi toàn bộ ghế khách
VR_COMMAND_ASK_USER_00212,Đã bật sưởi ghế sau bên phải
VR_COMMAND_ASK_USER_00213,Đã bật sưởi ghế sau bên trái
VR_COMMAND_ASK_USER_00214,Đã bật sưởi ghế trước bên phải
VR_COMMAND_ASK_USER_00215,Đã bật sưởi ghế lái
VR_COMMAND_ASK_USER_00216,Đã bật toàn bộ sưởi ghế
VR_COMMAND_ASK_USER_00217,Đã bật sưởi tay lái
VR_COMMAND_ASK_USER_00218,Đã bật sấy cửa kính sau
VR_COMMAND_ASK_USER_00219,Đã bật sấy cửa kính trước
VR_COMMAND_ASK_USER_00220,Đã bật sấy kính trước và sau
VR_COMMAND_ASK_USER_00221,Đã bật làm mát toàn bộ ghế trước
VR_COMMAND_ASK_USER_00222,Đã bật làm mát toàn bộ ghế sau
VR_COMMAND_ASK_USER_00223,Đã bật làm mát toàn bộ ghế khách
VR_COMMAND_ASK_USER_00224,Đã bật làm mát ghế sau bên phải
VR_COMMAND_ASK_USER_00225,Đã bật làm mát ghế sau bên trái
VR_COMMAND_ASK_USER_00226,Đã bật làm mát ghế trước bên phải
VR_COMMAND_ASK_USER_00227,Đã bật làm mát ghế lái
VR_COMMAND_ASK_USER_00228,Đã bật toàn bộ làm mát ghế
VR_COMMAND_ASK_USER_00229,Đã lấy gió tự động
VR_COMMAND_ASK_USER_00230,Đã lấy gió ngoài
VR_COMMAND_ASK_USER_00231,Đã lấy gió trong
VR_COMMAND_ASK_USER_00232,Đã bật chế độ đèn pha tự động
VR_COMMAND_ASK_USER_00233,Đã đặt đèn trần mặc định
VR_COMMAND_ASK_USER_00234_001,Đã mở cửa sổ trời 0%
VR_COMMAND_ASK_USER_00234_002,Đã mở cửa sổ trời 1%
VR_COMMAND_ASK_USER_00234_003,Đã mở cửa sổ trời 2%
VR_COMMAND_ASK_USER_00234_004,Đã mở cửa sổ trời 3%
VR_COMMAND_ASK_USER_00234_005,Đã mở cửa sổ trời 4%
VR_COMMAND_ASK_USER_00234_006,Đã mở cửa sổ trời 5%
VR_COMMAND_ASK_USER_00234_007,Đã mở cửa sổ trời 6%
VR_COMMAND_ASK_USER_00234_008,Đã mở cửa sổ trời 7%
VR_COMMAND_ASK_USER_00234_009,Đã mở cửa sổ trời 8%
VR_COMMAND_ASK_USER_00234_010,Đã mở cửa sổ trời 9%
VR_COMMAND_ASK_USER_00234_011,Đã mở cửa sổ trời 10%
VR_COMMAND_ASK_USER_00234_012,Đã mở cửa sổ trời 11%
VR_COMMAND_ASK_USER_00234_013,Đã mở cửa sổ trời 12%
VR_COMMAND_ASK_USER_00234_014,Đã mở cửa sổ trời 13%
VR_COMMAND_ASK_USER_00234_015,Đã mở cửa sổ trời 14%
VR_COMMAND_ASK_USER_00234_016,Đã mở cửa sổ trời 15%
VR_COMMAND_ASK_USER_00234_017,Đã mở cửa sổ trời 16%
VR_COMMAND_ASK_USER_00234_018,Đã mở cửa sổ trời 17%
VR_COMMAND_ASK_USER_00234_019,Đã mở cửa sổ trời 18%
VR_COMMAND_ASK_USER_00234_020,Đã mở cửa sổ trời 19%
VR_COMMAND_ASK_USER_00234_021,Đã mở cửa sổ trời 20%
VR_COMMAND_ASK_USER_00234_022,Đã mở cửa sổ trời 21%
VR_COMMAND_ASK_USER_00234_023,Đã mở cửa sổ trời 22%
VR_COMMAND_ASK_USER_00234_024,Đã mở cửa sổ trời 23%
VR_COMMAND_ASK_USER_00234_025,Đã mở cửa sổ trời 24%
VR_COMMAND_ASK_USER_00234_026,Đã mở cửa sổ trời 25%
VR_COMMAND_ASK_USER_00234_027,Đã mở cửa sổ trời 26%
VR_COMMAND_ASK_USER_00234_028,Đã mở cửa sổ trời 27%
VR_COMMAND_ASK_USER_00234_029,Đã mở cửa sổ trời 28%
VR_COMMAND_ASK_USER_00234_030,Đã mở cửa sổ trời 29%
VR_COMMAND_ASK_USER_00234_031,Đã mở cửa sổ trời 30%
VR_COMMAND_ASK_USER_00234_032,Đã mở cửa sổ trời 31%
VR_COMMAND_ASK_USER_00234_033,Đã mở cửa sổ trời 32%
VR_COMMAND_ASK_USER_00234_034,Đã mở cửa sổ trời 33%
VR_COMMAND_ASK_USER_00234_035,Đã mở cửa sổ trời 34%
VR_COMMAND_ASK_USER_00234_036,Đã mở cửa sổ trời 35%
VR_COMMAND_ASK_USER_00234_037,Đã mở cửa sổ trời 36%
VR_COMMAND_ASK_USER_00234_038,Đã mở cửa sổ trời 37%
VR_COMMAND_ASK_USER_00234_039,Đã mở cửa sổ trời 38%
VR_COMMAND_ASK_USER_00234_040,Đã mở cửa sổ trời 39%
VR_COMMAND_ASK_USER_00234_041,Đã mở cửa sổ trời 40%
VR_COMMAND_ASK_USER_00234_042,Đã mở cửa sổ trời 41%
VR_COMMAND_ASK_USER_00234_043,Đã mở cửa sổ trời 42%
VR_COMMAND_ASK_USER_00234_044,Đã mở cửa sổ trời 43%
VR_COMMAND_ASK_USER_00234_045,Đã mở cửa sổ trời 44%
VR_COMMAND_ASK_USER_00234_046,Đã mở cửa sổ trời 45%
VR_COMMAND_ASK_USER_00234_047,Đã mở cửa sổ trời 46%
VR_COMMAND_ASK_USER_00234_048,Đã mở cửa sổ trời 47%
VR_COMMAND_ASK_USER_00234_049,Đã mở cửa sổ trời 48%
VR_COMMAND_ASK_USER_00234_050,Đã mở cửa sổ trời 49%
VR_COMMAND_ASK_USER_00234_051,Đã mở cửa sổ trời 50%
VR_COMMAND_ASK_USER_00234_052,Đã mở cửa sổ trời 51%
VR_COMMAND_ASK_USER_00234_053,Đã mở cửa sổ trời 52%
VR_COMMAND_ASK_USER_00234_054,Đã mở cửa sổ trời 53%
VR_COMMAND_ASK_USER_00234_055,Đã mở cửa sổ trời 54%
VR_COMMAND_ASK_USER_00234_056,Đã mở cửa sổ trời 55%
VR_COMMAND_ASK_USER_00234_057,Đã mở cửa sổ trời 56%
VR_COMMAND_ASK_USER_00234_058,Đã mở cửa sổ trời 57%
VR_COMMAND_ASK_USER_00234_059,Đã mở cửa sổ trời 58%
VR_COMMAND_ASK_USER_00234_060,Đã mở cửa sổ trời 59%
VR_COMMAND_ASK_USER_00234_061,Đã mở cửa sổ trời 60%
VR_COMMAND_ASK_USER_00234_062,Đã mở cửa sổ trời 61%
VR_COMMAND_ASK_USER_00234_063,Đã mở cửa sổ trời 62%
VR_COMMAND_ASK_USER_00234_064,Đã mở cửa sổ trời 63%
VR_COMMAND_ASK_USER_00234_065,Đã mở cửa sổ trời 64%
VR_COMMAND_ASK_USER_00234_066,Đã mở cửa sổ trời 65%
VR_COMMAND_ASK_USER_00234_067,Đã mở cửa sổ trời 66%
VR_COMMAND_ASK_USER_00234_068,Đã mở cửa sổ trời 67%
VR_COMMAND_ASK_USER_00234_069,Đã mở cửa sổ trời 68%
VR_COMMAND_ASK_USER_00234_070,Đã mở cửa sổ trời 69%
VR_COMMAND_ASK_USER_00234_071,Đã mở cửa sổ trời 70%
VR_COMMAND_ASK_USER_00234_072,Đã mở cửa sổ trời 71%
VR_COMMAND_ASK_USER_00234_073,Đã mở cửa sổ trời 72%
VR_COMMAND_ASK_USER_00234_074,Đã mở cửa sổ trời 73%
VR_COMMAND_ASK_USER_00234_075,Đã mở cửa sổ trời 74%
VR_COMMAND_ASK_USER_00234_076,Đã mở cửa sổ trời 75%
VR_COMMAND_ASK_USER_00234_077,Đã mở cửa sổ trời 76%
VR_COMMAND_ASK_USER_00234_078,Đã mở cửa sổ trời 77%
VR_COMMAND_ASK_USER_00234_079,Đã mở cửa sổ trời 78%
VR_COMMAND_ASK_USER_00234_080,Đã mở cửa sổ trời 79%
VR_COMMAND_ASK_USER_00234_081,Đã mở cửa sổ trời 80%
VR_COMMAND_ASK_USER_00234_082,Đã mở cửa sổ trời 81%
VR_COMMAND_ASK_USER_00234_083,Đã mở cửa sổ trời 82%
VR_COMMAND_ASK_USER_00234_084,Đã mở cửa sổ trời 83%
VR_COMMAND_ASK_USER_00234_085,Đã mở cửa sổ trời 84%
VR_COMMAND_ASK_USER_00234_086,Đã mở cửa sổ trời 85%
VR_COMMAND_ASK_USER_00234_087,Đã mở cửa sổ trời 86%
VR_COMMAND_ASK_USER_00234_088,Đã mở cửa sổ trời 87%
VR_COMMAND_ASK_USER_00234_089,Đã mở cửa sổ trời 88%
VR_COMMAND_ASK_USER_00234_090,Đã mở cửa sổ trời 89%
VR_COMMAND_ASK_USER_00234_091,Đã mở cửa sổ trời 90%
VR_COMMAND_ASK_USER_00234_092,Đã mở cửa sổ trời 91%
VR_COMMAND_ASK_USER_00234_093,Đã mở cửa sổ trời 92%
VR_COMMAND_ASK_USER_00234_094,Đã mở cửa sổ trời 93%
VR_COMMAND_ASK_USER_00234_095,Đã mở cửa sổ trời 94%
VR_COMMAND_ASK_USER_00234_096,Đã mở cửa sổ trời 95%
VR_COMMAND_ASK_USER_00234_097,Đã mở cửa sổ trời 96%
VR_COMMAND_ASK_USER_00234_098,Đã mở cửa sổ trời 97%
VR_COMMAND_ASK_USER_00234_099,Đã mở cửa sổ trời 98%
VR_COMMAND_ASK_USER_00234_100,Đã mở cửa sổ trời 99%
VR_COMMAND_ASK_USER_00234_101,Đã mở cửa sổ trời 100%
VR_COMMAND_ASK_USER_00235_001,Đã mở rèm cửa sổ trời 0%
VR_COMMAND_ASK_USER_00235_002,Đã mở rèm cửa sổ trời 1%
VR_COMMAND_ASK_USER_00235_003,Đã mở rèm cửa sổ trời 2%
VR_COMMAND_ASK_USER_00235_004,Đã mở rèm cửa sổ trời 3%
VR_COMMAND_ASK_USER_00235_005,Đã mở rèm cửa sổ trời 4%
VR_COMMAND_ASK_USER_00235_006,Đã mở rèm cửa sổ trời 5%
VR_COMMAND_ASK_USER_00235_007,Đã mở rèm cửa sổ trời 6%
VR_COMMAND_ASK_USER_00235_008,Đã mở rèm cửa sổ trời 7%
VR_COMMAND_ASK_USER_00235_009,Đã mở rèm cửa sổ trời 8%
VR_COMMAND_ASK_USER_00235_010,Đã mở rèm cửa sổ trời 9%
VR_COMMAND_ASK_USER_00235_011,Đã mở rèm cửa sổ trời 10%
VR_COMMAND_ASK_USER_00235_012,Đã mở rèm cửa sổ trời 11%
VR_COMMAND_ASK_USER_00235_013,Đã mở rèm cửa sổ trời 12%
VR_COMMAND_ASK_USER_00235_014,Đã mở rèm cửa sổ trời 13%
VR_COMMAND_ASK_USER_00235_015,Đã mở rèm cửa sổ trời 14%
VR_COMMAND_ASK_USER_00235_016,Đã mở rèm cửa sổ trời 15%
VR_COMMAND_ASK_USER_00235_017,Đã mở rèm cửa sổ trời 16%
VR_COMMAND_ASK_USER_00235_018,Đã mở rèm cửa sổ trời 17%
VR_COMMAND_ASK_USER_00235_019,Đã mở rèm cửa sổ trời 18%
VR_COMMAND_ASK_USER_00235_020,Đã mở rèm cửa sổ trời 19%
VR_COMMAND_ASK_USER_00235_021,Đã mở rèm cửa sổ trời 20%
VR_COMMAND_ASK_USER_00235_022,Đã mở rèm cửa sổ trời 21%
VR_COMMAND_ASK_USER_00235_023,Đã mở rèm cửa sổ trời 22%
VR_COMMAND_ASK_USER_00235_024,Đã mở rèm cửa sổ trời 23%
VR_COMMAND_ASK_USER_00235_025,Đã mở rèm cửa sổ trời 24%
VR_COMMAND_ASK_USER_00235_026,Đã mở rèm cửa sổ trời 25%
VR_COMMAND_ASK_USER_00235_027,Đã mở rèm cửa sổ trời 26%
VR_COMMAND_ASK_USER_00235_028,Đã mở rèm cửa sổ trời 27%
VR_COMMAND_ASK_USER_00235_029,Đã mở rèm cửa sổ trời 28%
VR_COMMAND_ASK_USER_00235_030,Đã mở rèm cửa sổ trời 29%
VR_COMMAND_ASK_USER_00235_031,Đã mở rèm cửa sổ trời 30%
VR_COMMAND_ASK_USER_00235_032,Đã mở rèm cửa sổ trời 31%
VR_COMMAND_ASK_USER_00235_033,Đã mở rèm cửa sổ trời 32%
VR_COMMAND_ASK_USER_00235_034,Đã mở rèm cửa sổ trời 33%
VR_COMMAND_ASK_USER_00235_035,Đã mở rèm cửa sổ trời 34%
VR_COMMAND_ASK_USER_00235_036,Đã mở rèm cửa sổ trời 35%
VR_COMMAND_ASK_USER_00235_037,Đã mở rèm cửa sổ trời 36%
VR_COMMAND_ASK_USER_00235_038,Đã mở rèm cửa sổ trời 37%
VR_COMMAND_ASK_USER_00235_039,Đã mở rèm cửa sổ trời 38%
VR_COMMAND_ASK_USER_00235_040,Đã mở rèm cửa sổ trời 39%
VR_COMMAND_ASK_USER_00235_041,Đã mở rèm cửa sổ trời 40%
VR_COMMAND_ASK_USER_00235_042,Đã mở rèm cửa sổ trời 41%
VR_COMMAND_ASK_USER_00235_043,Đã mở rèm cửa sổ trời 42%
VR_COMMAND_ASK_USER_00235_044,Đã mở rèm cửa sổ trời 43%
VR_COMMAND_ASK_USER_00235_045,Đã mở rèm cửa sổ trời 44%
VR_COMMAND_ASK_USER_00235_046,Đã mở rèm cửa sổ trời 45%
VR_COMMAND_ASK_USER_00235_047,Đã mở rèm cửa sổ trời 46%
VR_COMMAND_ASK_USER_00235_048,Đã mở rèm cửa sổ trời 47%
VR_COMMAND_ASK_USER_00235_049,Đã mở rèm cửa sổ trời 48%
VR_COMMAND_ASK_USER_00235_050,Đã mở rèm cửa sổ trời 49%
VR_COMMAND_ASK_USER_00235_051,Đã mở rèm cửa sổ trời 50%
VR_COMMAND_ASK_USER_00235_052,Đã mở rèm cửa sổ trời 51%
VR_COMMAND_ASK_USER_00235_053,Đã mở rèm cửa sổ trời 52%
VR_COMMAND_ASK_USER_00235_054,Đã mở rèm cửa sổ trời 53%
VR_COMMAND_ASK_USER_00235_055,Đã mở rèm cửa sổ trời 54%
VR_COMMAND_ASK_USER_00235_056,Đã mở rèm cửa sổ trời 55%
VR_COMMAND_ASK_USER_00235_057,Đã mở rèm cửa sổ trời 56%
VR_COMMAND_ASK_USER_00235_058,Đã mở rèm cửa sổ trời 57%
VR_COMMAND_ASK_USER_00235_059,Đã mở rèm cửa sổ trời 58%
VR_COMMAND_ASK_USER_00235_060,Đã mở rèm cửa sổ trời 59%
VR_COMMAND_ASK_USER_00235_061,Đã mở rèm cửa sổ trời 60%
VR_COMMAND_ASK_USER_00235_062,Đã mở rèm cửa sổ trời 61%
VR_COMMAND_ASK_USER_00235_063,Đã mở rèm cửa sổ trời 62%
VR_COMMAND_ASK_USER_00235_064,Đã mở rèm cửa sổ trời 63%
VR_COMMAND_ASK_USER_00235_065,Đã mở rèm cửa sổ trời 64%
VR_COMMAND_ASK_USER_00235_066,Đã mở rèm cửa sổ trời 65%
VR_COMMAND_ASK_USER_00235_067,Đã mở rèm cửa sổ trời 66%
VR_COMMAND_ASK_USER_00235_068,Đã mở rèm cửa sổ trời 67%
VR_COMMAND_ASK_USER_00235_069,Đã mở rèm cửa sổ trời 68%
VR_COMMAND_ASK_USER_00235_070,Đã mở rèm cửa sổ trời 69%
VR_COMMAND_ASK_USER_00235_071,Đã mở rèm cửa sổ trời 70%
VR_COMMAND_ASK_USER_00235_072,Đã mở rèm cửa sổ trời 71%
VR_COMMAND_ASK_USER_00235_073,Đã mở rèm cửa sổ trời 72%
VR_COMMAND_ASK_USER_00235_074,Đã mở rèm cửa sổ trời 73%
VR_COMMAND_ASK_USER_00235_075,Đã mở rèm cửa sổ trời 74%
VR_COMMAND_ASK_USER_00235_076,Đã mở rèm cửa sổ trời 75%
VR_COMMAND_ASK_USER_00235_077,Đã mở rèm cửa sổ trời 76%
VR_COMMAND_ASK_USER_00235_078,Đã mở rèm cửa sổ trời 77%
VR_COMMAND_ASK_USER_00235_079,Đã mở rèm cửa sổ trời 78%
VR_COMMAND_ASK_USER_00235_080,Đã mở rèm cửa sổ trời 79%
VR_COMMAND_ASK_USER_00235_081,Đã mở rèm cửa sổ trời 80%
VR_COMMAND_ASK_USER_00235_082,Đã mở rèm cửa sổ trời 81%
VR_COMMAND_ASK_USER_00235_083,Đã mở rèm cửa sổ trời 82%
VR_COMMAND_ASK_USER_00235_084,Đã mở rèm cửa sổ trời 83%
VR_COMMAND_ASK_USER_00235_085,Đã mở rèm cửa sổ trời 84%
VR_COMMAND_ASK_USER_00235_086,Đã mở rèm cửa sổ trời 85%
VR_COMMAND_ASK_USER_00235_087,Đã mở rèm cửa sổ trời 86%
VR_COMMAND_ASK_USER_00235_088,Đã mở rèm cửa sổ trời 87%
VR_COMMAND_ASK_USER_00235_089,Đã mở rèm cửa sổ trời 88%
VR_COMMAND_ASK_USER_00235_090,Đã mở rèm cửa sổ trời 89%
VR_COMMAND_ASK_USER_00235_091,Đã mở rèm cửa sổ trời 90%
VR_COMMAND_ASK_USER_00235_092,Đã mở rèm cửa sổ trời 91%
VR_COMMAND_ASK_USER_00235_093,Đã mở rèm cửa sổ trời 92%
VR_COMMAND_ASK_USER_00235_094,Đã mở rèm cửa sổ trời 93%
VR_COMMAND_ASK_USER_00235_095,Đã mở rèm cửa sổ trời 94%
VR_COMMAND_ASK_USER_00235_096,Đã mở rèm cửa sổ trời 95%
VR_COMMAND_ASK_USER_00235_097,Đã mở rèm cửa sổ trời 96%
VR_COMMAND_ASK_USER_00235_098,Đã mở rèm cửa sổ trời 97%
VR_COMMAND_ASK_USER_00235_099,Đã mở rèm cửa sổ trời 98%
VR_COMMAND_ASK_USER_00235_100,Đã mở rèm cửa sổ trời 99%
VR_COMMAND_ASK_USER_00235_101,Đã mở rèm cửa sổ trời 100%
VR_COMMAND_ASK_USER_00236_001,Đã mở kính cửa sổ trời 0%
VR_COMMAND_ASK_USER_00236_002,Đã mở kính cửa sổ trời 1%
VR_COMMAND_ASK_USER_00236_003,Đã mở kính cửa sổ trời 2%
VR_COMMAND_ASK_USER_00236_004,Đã mở kính cửa sổ trời 3%
VR_COMMAND_ASK_USER_00236_005,Đã mở kính cửa sổ trời 4%
VR_COMMAND_ASK_USER_00236_006,Đã mở kính cửa sổ trời 5%
VR_COMMAND_ASK_USER_00236_007,Đã mở kính cửa sổ trời 6%
VR_COMMAND_ASK_USER_00236_008,Đã mở kính cửa sổ trời 7%
VR_COMMAND_ASK_USER_00236_009,Đã mở kính cửa sổ trời 8%
VR_COMMAND_ASK_USER_00236_010,Đã mở kính cửa sổ trời 9%
VR_COMMAND_ASK_USER_00236_011,Đã mở kính cửa sổ trời 10%
VR_COMMAND_ASK_USER_00236_012,Đã mở kính cửa sổ trời 11%
VR_COMMAND_ASK_USER_00236_013,Đã mở kính cửa sổ trời 12%
VR_COMMAND_ASK_USER_00236_014,Đã mở kính cửa sổ trời 13%
VR_COMMAND_ASK_USER_00236_015,Đã mở kính cửa sổ trời 14%
VR_COMMAND_ASK_USER_00236_016,Đã mở kính cửa sổ trời 15%
VR_COMMAND_ASK_USER_00236_017,Đã mở kính cửa sổ trời 16%
VR_COMMAND_ASK_USER_00236_018,Đã mở kính cửa sổ trời 17%
VR_COMMAND_ASK_USER_00236_019,Đã mở kính cửa sổ trời 18%
VR_COMMAND_ASK_USER_00236_020,Đã mở kính cửa sổ trời 19%
VR_COMMAND_ASK_USER_00236_021,Đã mở kính cửa sổ trời 20%
VR_COMMAND_ASK_USER_00236_022,Đã mở kính cửa sổ trời 21%
VR_COMMAND_ASK_USER_00236_023,Đã mở kính cửa sổ trời 22%
VR_COMMAND_ASK_USER_00236_024,Đã mở kính cửa sổ trời 23%
VR_COMMAND_ASK_USER_00236_025,Đã mở kính cửa sổ trời 24%
VR_COMMAND_ASK_USER_00236_026,Đã mở kính cửa sổ trời 25%
VR_COMMAND_ASK_USER_00236_027,Đã mở kính cửa sổ trời 26%
VR_COMMAND_ASK_USER_00236_028,Đã mở kính cửa sổ trời 27%
VR_COMMAND_ASK_USER_00236_029,Đã mở kính cửa sổ trời 28%
VR_COMMAND_ASK_USER_00236_030,Đã mở kính cửa sổ trời 29%
VR_COMMAND_ASK_USER_00236_031,Đã mở kính cửa sổ trời 30%
VR_COMMAND_ASK_USER_00236_032,Đã mở kính cửa sổ trời 31%
VR_COMMAND_ASK_USER_00236_033,Đã mở kính cửa sổ trời 32%
VR_COMMAND_ASK_USER_00236_034,Đã mở kính cửa sổ trời 33%
VR_COMMAND_ASK_USER_00236_035,Đã mở kính cửa sổ trời 34%
VR_COMMAND_ASK_USER_00236_036,Đã mở kính cửa sổ trời 35%
VR_COMMAND_ASK_USER_00236_037,Đã mở kính cửa sổ trời 36%
VR_COMMAND_ASK_USER_00236_038,Đã mở kính cửa sổ trời 37%
VR_COMMAND_ASK_USER_00236_039,Đã mở kính cửa sổ trời 38%
VR_COMMAND_ASK_USER_00236_040,Đã mở kính cửa sổ trời 39%
VR_COMMAND_ASK_USER_00236_041,Đã mở kính cửa sổ trời 40%
VR_COMMAND_ASK_USER_00236_042,Đã mở kính cửa sổ trời 41%
VR_COMMAND_ASK_USER_00236_043,Đã mở kính cửa sổ trời 42%
VR_COMMAND_ASK_USER_00236_044,Đã mở kính cửa sổ trời 43%
VR_COMMAND_ASK_USER_00236_045,Đã mở kính cửa sổ trời 44%
VR_COMMAND_ASK_USER_00236_046,Đã mở kính cửa sổ trời 45%
VR_COMMAND_ASK_USER_00236_047,Đã mở kính cửa sổ trời 46%
VR_COMMAND_ASK_USER_00236_048,Đã mở kính cửa sổ trời 47%
VR_COMMAND_ASK_USER_00236_049,Đã mở kính cửa sổ trời 48%
VR_COMMAND_ASK_USER_00236_050,Đã mở kính cửa sổ trời 49%
VR_COMMAND_ASK_USER_00236_051,Đã mở kính cửa sổ trời 50%
VR_COMMAND_ASK_USER_00236_052,Đã mở kính cửa sổ trời 51%
VR_COMMAND_ASK_USER_00236_053,Đã mở kính cửa sổ trời 52%
VR_COMMAND_ASK_USER_00236_054,Đã mở kính cửa sổ trời 53%
VR_COMMAND_ASK_USER_00236_055,Đã mở kính cửa sổ trời 54%
VR_COMMAND_ASK_USER_00236_056,Đã mở kính cửa sổ trời 55%
VR_COMMAND_ASK_USER_00236_057,Đã mở kính cửa sổ trời 56%
VR_COMMAND_ASK_USER_00236_058,Đã mở kính cửa sổ trời 57%
VR_COMMAND_ASK_USER_00236_059,Đã mở kính cửa sổ trời 58%
VR_COMMAND_ASK_USER_00236_060,Đã mở kính cửa sổ trời 59%
VR_COMMAND_ASK_USER_00236_061,Đã mở kính cửa sổ trời 60%
VR_COMMAND_ASK_USER_00236_062,Đã mở kính cửa sổ trời 61%
VR_COMMAND_ASK_USER_00236_063,Đã mở kính cửa sổ trời 62%
VR_COMMAND_ASK_USER_00236_064,Đã mở kính cửa sổ trời 63%
VR_COMMAND_ASK_USER_00236_065,Đã mở kính cửa sổ trời 64%
VR_COMMAND_ASK_USER_00236_066,Đã mở kính cửa sổ trời 65%
VR_COMMAND_ASK_USER_00236_067,Đã mở kính cửa sổ trời 66%
VR_COMMAND_ASK_USER_00236_068,Đã mở kính cửa sổ trời 67%
VR_COMMAND_ASK_USER_00236_069,Đã mở kính cửa sổ trời 68%
VR_COMMAND_ASK_USER_00236_070,Đã mở kính cửa sổ trời 69%
VR_COMMAND_ASK_USER_00236_071,Đã mở kính cửa sổ trời 70%
VR_COMMAND_ASK_USER_00236_072,Đã mở kính cửa sổ trời 71%
VR_COMMAND_ASK_USER_00236_073,Đã mở kính cửa sổ trời 72%
VR_COMMAND_ASK_USER_00236_074,Đã mở kính cửa sổ trời 73%
VR_COMMAND_ASK_USER_00236_075,Đã mở kính cửa sổ trời 74%
VR_COMMAND_ASK_USER_00236_076,Đã mở kính cửa sổ trời 75%
VR_COMMAND_ASK_USER_00236_077,Đã mở kính cửa sổ trời 76%
VR_COMMAND_ASK_USER_00236_078,Đã mở kính cửa sổ trời 77%
VR_COMMAND_ASK_USER_00236_079,Đã mở kính cửa sổ trời 78%
VR_COMMAND_ASK_USER_00236_080,Đã mở kính cửa sổ trời 79%
VR_COMMAND_ASK_USER_00236_081,Đã mở kính cửa sổ trời 80%
VR_COMMAND_ASK_USER_00236_082,Đã mở kính cửa sổ trời 81%
VR_COMMAND_ASK_USER_00236_083,Đã mở kính cửa sổ trời 82%
VR_COMMAND_ASK_USER_00236_084,Đã mở kính cửa sổ trời 83%
VR_COMMAND_ASK_USER_00236_085,Đã mở kính cửa sổ trời 84%
VR_COMMAND_ASK_USER_00236_086,Đã mở kính cửa sổ trời 85%
VR_COMMAND_ASK_USER_00236_087,Đã mở kính cửa sổ trời 86%
VR_COMMAND_ASK_USER_00236_088,Đã mở kính cửa sổ trời 87%
VR_COMMAND_ASK_USER_00236_089,Đã mở kính cửa sổ trời 88%
VR_COMMAND_ASK_USER_00236_090,Đã mở kính cửa sổ trời 89%
VR_COMMAND_ASK_USER_00236_091,Đã mở kính cửa sổ trời 90%
VR_COMMAND_ASK_USER_00236_092,Đã mở kính cửa sổ trời 91%
VR_COMMAND_ASK_USER_00236_093,Đã mở kính cửa sổ trời 92%
VR_COMMAND_ASK_USER_00236_094,Đã mở kính cửa sổ trời 93%
VR_COMMAND_ASK_USER_00236_095,Đã mở kính cửa sổ trời 94%
VR_COMMAND_ASK_USER_00236_096,Đã mở kính cửa sổ trời 95%
VR_COMMAND_ASK_USER_00236_097,Đã mở kính cửa sổ trời 96%
VR_COMMAND_ASK_USER_00236_098,Đã mở kính cửa sổ trời 97%
VR_COMMAND_ASK_USER_00236_099,Đã mở kính cửa sổ trời 98%
VR_COMMAND_ASK_USER_00236_100,Đã mở kính cửa sổ trời 99%
VR_COMMAND_ASK_USER_00236_101,Đã mở kính cửa sổ trời 100%
VR_COMMAND_ASK_USER_00237,Đã tắt điều hòa khách
VR_COMMAND_ASK_USER_00238,Đã tắt điều hòa lái
VR_COMMAND_ASK_USER_00239,Đã tắt chế độ điều hòa tự động
VR_COMMAND_ASK_USER_00240,Đã tắt chế độ điều hòa tối đa
VR_COMMAND_ASK_USER_00241,Đã tắt điều hòa
VR_COMMAND_ASK_USER_00242,Đã tắt sấy cửa kính sau
VR_COMMAND_ASK_USER_00243,Đã tắt sấy cửa kính trước
VR_COMMAND_ASK_USER_00244,Đã tắt sấy kính trước và sau
VR_COMMAND_ASK_USER_00245,Đã tắt sưởi toàn bộ ghế trước
VR_COMMAND_ASK_USER_00246,Đã tắt sưởi toàn bộ ghế sau
VR_COMMAND_ASK_USER_00247,Đã tắt sưởi toàn bộ ghế khách
VR_COMMAND_ASK_USER_00248,Đã tắt sưởi ghế sau bên phải
VR_COMMAND_ASK_USER_00249,Đã tắt sưởi ghế sau bên trái
VR_COMMAND_ASK_USER_00250,Đã tắt sưởi ghế trước bên phải
VR_COMMAND_ASK_USER_00251,Đã tắt sưởi ghế lái
VR_COMMAND_ASK_USER_00252,Đã tắt toàn bộ sưởi ghế
VR_COMMAND_ASK_USER_00253,Đã tắt sưởi tay lái
VR_COMMAND_ASK_USER_00254,Đã tắt làm mát toàn bộ ghế trước
VR_COMMAND_ASK_USER_00255,Đã tắt làm mát toàn bộ ghế sau
VR_COMMAND_ASK_USER_00256,Đã tắt làm mát toàn bộ ghế khách
VR_COMMAND_ASK_USER_00257,Đã tắt làm mát ghế sau bên phải
VR_COMMAND_ASK_USER_00258,Đã tắt làm mát ghế sau bên trái
VR_COMMAND_ASK_USER_00259,Đã tắt làm mát ghế trước bên phải
VR_COMMAND_ASK_USER_00260,Đã tắt làm mát ghế lái
VR_COMMAND_ASK_USER_00261,Đã tắt toàn bộ làm mát ghế
VR_COMMAND_ASK_USER_00262,Đã tắt lọc khí
VR_COMMAND_ASK_USER_00263,Tắt đồng bộ nhiệt độ
VR_COMMAND_ASK_USER_00264,Đã tắt HVAC
VR_COMMAND_ASK_USER_00265,Đã tắt quạt gió
VR_COMMAND_ASK_USER_00266,Đã bật lọc khí
VR_COMMAND_ASK_USER_00267,Đã bật HVAC
VR_COMMAND_ASK_USER_00268,Đã đồng bộ nhiệt độ
VR_COMMAND_ASK_USER_00269,Đã tắt chế độ đèn pha tự động
VR_COMMAND_ASK_USER_00270,"Xin lỗi tôi chưa hiểu ý của bạn, bạn hãy nói lại"
VR_COMMAND_ASK_USER_00271_001,Đã đóng cửa sổ trời 0%
VR_COMMAND_ASK_USER_00271_002,Đã đóng cửa sổ trời 1%
VR_COMMAND_ASK_USER_00271_003,Đã đóng cửa sổ trời 2%
VR_COMMAND_ASK_USER_00271_004,Đã đóng cửa sổ trời 3%
VR_COMMAND_ASK_USER_00271_005,Đã đóng cửa sổ trời 4%
VR_COMMAND_ASK_USER_00271_006,Đã đóng cửa sổ trời 5%
VR_COMMAND_ASK_USER_00271_007,Đã đóng cửa sổ trời 6%
VR_COMMAND_ASK_USER_00271_008,Đã đóng cửa sổ trời 7%
VR_COMMAND_ASK_USER_00271_009,Đã đóng cửa sổ trời 8%
VR_COMMAND_ASK_USER_00271_010,Đã đóng cửa sổ trời 9%
VR_COMMAND_ASK_USER_00271_011,Đã đóng cửa sổ trời 10%
VR_COMMAND_ASK_USER_00271_012,Đã đóng cửa sổ trời 11%
VR_COMMAND_ASK_USER_00271_013,Đã đóng cửa sổ trời 12%
VR_COMMAND_ASK_USER_00271_014,Đã đóng cửa sổ trời 13%
VR_COMMAND_ASK_USER_00271_015,Đã đóng cửa sổ trời 14%
VR_COMMAND_ASK_USER_00271_016,Đã đóng cửa sổ trời 15%
VR_COMMAND_ASK_USER_00271_017,Đã đóng cửa sổ trời 16%
VR_COMMAND_ASK_USER_00271_018,Đã đóng cửa sổ trời 17%
VR_COMMAND_ASK_USER_00271_019,Đã đóng cửa sổ trời 18%
VR_COMMAND_ASK_USER_00271_020,Đã đóng cửa sổ trời 19%
VR_COMMAND_ASK_USER_00271_021,Đã đóng cửa sổ trời 20%
VR_COMMAND_ASK_USER_00271_022,Đã đóng cửa sổ trời 21%
VR_COMMAND_ASK_USER_00271_023,Đã đóng cửa sổ trời 22%
VR_COMMAND_ASK_USER_00271_024,Đã đóng cửa sổ trời 23%
VR_COMMAND_ASK_USER_00271_025,Đã đóng cửa sổ trời 24%
VR_COMMAND_ASK_USER_00271_026,Đã đóng cửa sổ trời 25%
VR_COMMAND_ASK_USER_00271_027,Đã đóng cửa sổ trời 26%
VR_COMMAND_ASK_USER_00271_028,Đã đóng cửa sổ trời 27%
VR_COMMAND_ASK_USER_00271_029,Đã đóng cửa sổ trời 28%
VR_COMMAND_ASK_USER_00271_030,Đã đóng cửa sổ trời 29%
VR_COMMAND_ASK_USER_00271_031,Đã đóng cửa sổ trời 30%
VR_COMMAND_ASK_USER_00271_032,Đã đóng cửa sổ trời 31%
VR_COMMAND_ASK_USER_00271_033,Đã đóng cửa sổ trời 32%
VR_COMMAND_ASK_USER_00271_034,Đã đóng cửa sổ trời 33%
VR_COMMAND_ASK_USER_00271_035,Đã đóng cửa sổ trời 34%
VR_COMMAND_ASK_USER_00271_036,Đã đóng cửa sổ trời 35%
VR_COMMAND_ASK_USER_00271_037,Đã đóng cửa sổ trời 36%
VR_COMMAND_ASK_USER_00271_038,Đã đóng cửa sổ trời 37%
VR_COMMAND_ASK_USER_00271_039,Đã đóng cửa sổ trời 38%
VR_COMMAND_ASK_USER_00271_040,Đã đóng cửa sổ trời 39%
VR_COMMAND_ASK_USER_00271_041,Đã đóng cửa sổ trời 40%
VR_COMMAND_ASK_USER_00271_042,Đã đóng cửa sổ trời 41%
VR_COMMAND_ASK_USER_00271_043,Đã đóng cửa sổ trời 42%
VR_COMMAND_ASK_USER_00271_044,Đã đóng cửa sổ trời 43%
VR_COMMAND_ASK_USER_00271_045,Đã đóng cửa sổ trời 44%
VR_COMMAND_ASK_USER_00271_046,Đã đóng cửa sổ trời 45%
VR_COMMAND_ASK_USER_00271_047,Đã đóng cửa sổ trời 46%
VR_COMMAND_ASK_USER_00271_048,Đã đóng cửa sổ trời 47%
VR_COMMAND_ASK_USER_00271_049,Đã đóng cửa sổ trời 48%
VR_COMMAND_ASK_USER_00271_050,Đã đóng cửa sổ trời 49%
VR_COMMAND_ASK_USER_00271_051,Đã đóng cửa sổ trời 50%
VR_COMMAND_ASK_USER_00271_052,Đã đóng cửa sổ trời 51%
VR_COMMAND_ASK_USER_00271_053,Đã đóng cửa sổ trời 52%
VR_COMMAND_ASK_USER_00271_054,Đã đóng cửa sổ trời 53%
VR_COMMAND_ASK_USER_00271_055,Đã đóng cửa sổ trời 54%
VR_COMMAND_ASK_USER_00271_056,Đã đóng cửa sổ trời 55%
VR_COMMAND_ASK_USER_00271_057,Đã đóng cửa sổ trời 56%
VR_COMMAND_ASK_USER_00271_058,Đã đóng cửa sổ trời 57%
VR_COMMAND_ASK_USER_00271_059,Đã đóng cửa sổ trời 58%
VR_COMMAND_ASK_USER_00271_060,Đã đóng cửa sổ trời 59%
VR_COMMAND_ASK_USER_00271_061,Đã đóng cửa sổ trời 60%
VR_COMMAND_ASK_USER_00271_062,Đã đóng cửa sổ trời 61%
VR_COMMAND_ASK_USER_00271_063,Đã đóng cửa sổ trời 62%
VR_COMMAND_ASK_USER_00271_064,Đã đóng cửa sổ trời 63%
VR_COMMAND_ASK_USER_00271_065,Đã đóng cửa sổ trời 64%
VR_COMMAND_ASK_USER_00271_066,Đã đóng cửa sổ trời 65%
VR_COMMAND_ASK_USER_00271_067,Đã đóng cửa sổ trời 66%
VR_COMMAND_ASK_USER_00271_068,Đã đóng cửa sổ trời 67%
VR_COMMAND_ASK_USER_00271_069,Đã đóng cửa sổ trời 68%
VR_COMMAND_ASK_USER_00271_070,Đã đóng cửa sổ trời 69%
VR_COMMAND_ASK_USER_00271_071,Đã đóng cửa sổ trời 70%
VR_COMMAND_ASK_USER_00271_072,Đã đóng cửa sổ trời 71%
VR_COMMAND_ASK_USER_00271_073,Đã đóng cửa sổ trời 72%
VR_COMMAND_ASK_USER_00271_074,Đã đóng cửa sổ trời 73%
VR_COMMAND_ASK_USER_00271_075,Đã đóng cửa sổ trời 74%
VR_COMMAND_ASK_USER_00271_076,Đã đóng cửa sổ trời 75%
VR_COMMAND_ASK_USER_00271_077,Đã đóng cửa sổ trời 76%
VR_COMMAND_ASK_USER_00271_078,Đã đóng cửa sổ trời 77%
VR_COMMAND_ASK_USER_00271_079,Đã đóng cửa sổ trời 78%
VR_COMMAND_ASK_USER_00271_080,Đã đóng cửa sổ trời 79%
VR_COMMAND_ASK_USER_00271_081,Đã đóng cửa sổ trời 80%
VR_COMMAND_ASK_USER_00271_082,Đã đóng cửa sổ trời 81%
VR_COMMAND_ASK_USER_00271_083,Đã đóng cửa sổ trời 82%
VR_COMMAND_ASK_USER_00271_084,Đã đóng cửa sổ trời 83%
VR_COMMAND_ASK_USER_00271_085,Đã đóng cửa sổ trời 84%
VR_COMMAND_ASK_USER_00271_086,Đã đóng cửa sổ trời 85%
VR_COMMAND_ASK_USER_00271_087,Đã đóng cửa sổ trời 86%
VR_COMMAND_ASK_USER_00271_088,Đã đóng cửa sổ trời 87%
VR_COMMAND_ASK_USER_00271_089,Đã đóng cửa sổ trời 88%
VR_COMMAND_ASK_USER_00271_090,Đã đóng cửa sổ trời 89%
VR_COMMAND_ASK_USER_00271_091,Đã đóng cửa sổ trời 90%
VR_COMMAND_ASK_USER_00271_092,Đã đóng cửa sổ trời 91%
VR_COMMAND_ASK_USER_00271_093,Đã đóng cửa sổ trời 92%
VR_COMMAND_ASK_USER_00271_094,Đã đóng cửa sổ trời 93%
VR_COMMAND_ASK_USER_00271_095,Đã đóng cửa sổ trời 94%
VR_COMMAND_ASK_USER_00271_096,Đã đóng cửa sổ trời 95%
VR_COMMAND_ASK_USER_00271_097,Đã đóng cửa sổ trời 96%
VR_COMMAND_ASK_USER_00271_098,Đã đóng cửa sổ trời 97%
VR_COMMAND_ASK_USER_00271_099,Đã đóng cửa sổ trời 98%
VR_COMMAND_ASK_USER_00271_100,Đã đóng cửa sổ trời 99%
VR_COMMAND_ASK_USER_00271_101,Đã đóng cửa sổ trời 100%
VR_COMMAND_ASK_USER_00272_001,Đã đóng rèm cửa sổ trời 0%
VR_COMMAND_ASK_USER_00272_002,Đã đóng rèm cửa sổ trời 1%
VR_COMMAND_ASK_USER_00272_003,Đã đóng rèm cửa sổ trời 2%
VR_COMMAND_ASK_USER_00272_004,Đã đóng rèm cửa sổ trời 3%
VR_COMMAND_ASK_USER_00272_005,Đã đóng rèm cửa sổ trời 4%
VR_COMMAND_ASK_USER_00272_006,Đã đóng rèm cửa sổ trời 5%
VR_COMMAND_ASK_USER_00272_007,Đã đóng rèm cửa sổ trời 6%
VR_COMMAND_ASK_USER_00272_008,Đã đóng rèm cửa sổ trời 7%
VR_COMMAND_ASK_USER_00272_009,Đã đóng rèm cửa sổ trời 8%
VR_COMMAND_ASK_USER_00272_010,Đã đóng rèm cửa sổ trời 9%
VR_COMMAND_ASK_USER_00272_011,Đã đóng rèm cửa sổ trời 10%
VR_COMMAND_ASK_USER_00272_012,Đã đóng rèm cửa sổ trời 11%
VR_COMMAND_ASK_USER_00272_013,Đã đóng rèm cửa sổ trời 12%
VR_COMMAND_ASK_USER_00272_014,Đã đóng rèm cửa sổ trời 13%
VR_COMMAND_ASK_USER_00272_015,Đã đóng rèm cửa sổ trời 14%
VR_COMMAND_ASK_USER_00272_016,Đã đóng rèm cửa sổ trời 15%
VR_COMMAND_ASK_USER_00272_017,Đã đóng rèm cửa sổ trời 16%
VR_COMMAND_ASK_USER_00272_018,Đã đóng rèm cửa sổ trời 17%
VR_COMMAND_ASK_USER_00272_019,Đã đóng rèm cửa sổ trời 18%
VR_COMMAND_ASK_USER_00272_020,Đã đóng rèm cửa sổ trời 19%
VR_COMMAND_ASK_USER_00272_021,Đã đóng rèm cửa sổ trời 20%
VR_COMMAND_ASK_USER_00272_022,Đã đóng rèm cửa sổ trời 21%
VR_COMMAND_ASK_USER_00272_023,Đã đóng rèm cửa sổ trời 22%
VR_COMMAND_ASK_USER_00272_024,Đã đóng rèm cửa sổ trời 23%
VR_COMMAND_ASK_USER_00272_025,Đã đóng rèm cửa sổ trời 24%
VR_COMMAND_ASK_USER_00272_026,Đã đóng rèm cửa sổ trời 25%
VR_COMMAND_ASK_USER_00272_027,Đã đóng rèm cửa sổ trời 26%
VR_COMMAND_ASK_USER_00272_028,Đã đóng rèm cửa sổ trời 27%
VR_COMMAND_ASK_USER_00272_029,Đã đóng rèm cửa sổ trời 28%
VR_COMMAND_ASK_USER_00272_030,Đã đóng rèm cửa sổ trời 29%
VR_COMMAND_ASK_USER_00272_031,Đã đóng rèm cửa sổ trời 30%
VR_COMMAND_ASK_USER_00272_032,Đã đóng rèm cửa sổ trời 31%
VR_COMMAND_ASK_USER_00272_033,Đã đóng rèm cửa sổ trời 32%
VR_COMMAND_ASK_USER_00272_034,Đã đóng rèm cửa sổ trời 33%
VR_COMMAND_ASK_USER_00272_035,Đã đóng rèm cửa sổ trời 34%
VR_COMMAND_ASK_USER_00272_036,Đã đóng rèm cửa sổ trời 35%
VR_COMMAND_ASK_USER_00272_037,Đã đóng rèm cửa sổ trời 36%
VR_COMMAND_ASK_USER_00272_038,Đã đóng rèm cửa sổ trời 37%
VR_COMMAND_ASK_USER_00272_039,Đã đóng rèm cửa sổ trời 38%
VR_COMMAND_ASK_USER_00272_040,Đã đóng rèm cửa sổ trời 39%
VR_COMMAND_ASK_USER_00272_041,Đã đóng rèm cửa sổ trời 40%
VR_COMMAND_ASK_USER_00272_042,Đã đóng rèm cửa sổ trời 41%
VR_COMMAND_ASK_USER_00272_043,Đã đóng rèm cửa sổ trời 42%
VR_COMMAND_ASK_USER_00272_044,Đã đóng rèm cửa sổ trời 43%
VR_COMMAND_ASK_USER_00272_045,Đã đóng rèm cửa sổ trời 44%
VR_COMMAND_ASK_USER_00272_046,Đã đóng rèm cửa sổ trời 45%
VR_COMMAND_ASK_USER_00272_047,Đã đóng rèm cửa sổ trời 46%
VR_COMMAND_ASK_USER_00272_048,Đã đóng rèm cửa sổ trời 47%
VR_COMMAND_ASK_USER_00272_049,Đã đóng rèm cửa sổ trời 48%
VR_COMMAND_ASK_USER_00272_050,Đã đóng rèm cửa sổ trời 49%
VR_COMMAND_ASK_USER_00272_051,Đã đóng rèm cửa sổ trời 50%
VR_COMMAND_ASK_USER_00272_052,Đã đóng rèm cửa sổ trời 51%
VR_COMMAND_ASK_USER_00272_053,Đã đóng rèm cửa sổ trời 52%
VR_COMMAND_ASK_USER_00272_054,Đã đóng rèm cửa sổ trời 53%
VR_COMMAND_ASK_USER_00272_055,Đã đóng rèm cửa sổ trời 54%
VR_COMMAND_ASK_USER_00272_056,Đã đóng rèm cửa sổ trời 55%
VR_COMMAND_ASK_USER_00272_057,Đã đóng rèm cửa sổ trời 56%
VR_COMMAND_ASK_USER_00272_058,Đã đóng rèm cửa sổ trời 57%
VR_COMMAND_ASK_USER_00272_059,Đã đóng rèm cửa sổ trời 58%
VR_COMMAND_ASK_USER_00272_060,Đã đóng rèm cửa sổ trời 59%
VR_COMMAND_ASK_USER_00272_061,Đã đóng rèm cửa sổ trời 60%
VR_COMMAND_ASK_USER_00272_062,Đã đóng rèm cửa sổ trời 61%
VR_COMMAND_ASK_USER_00272_063,Đã đóng rèm cửa sổ trời 62%
VR_COMMAND_ASK_USER_00272_064,Đã đóng rèm cửa sổ trời 63%
VR_COMMAND_ASK_USER_00272_065,Đã đóng rèm cửa sổ trời 64%
VR_COMMAND_ASK_USER_00272_066,Đã đóng rèm cửa sổ trời 65%
VR_COMMAND_ASK_USER_00272_067,Đã đóng rèm cửa sổ trời 66%
VR_COMMAND_ASK_USER_00272_068,Đã đóng rèm cửa sổ trời 67%
VR_COMMAND_ASK_USER_00272_069,Đã đóng rèm cửa sổ trời 68%
VR_COMMAND_ASK_USER_00272_070,Đã đóng rèm cửa sổ trời 69%
VR_COMMAND_ASK_USER_00272_071,Đã đóng rèm cửa sổ trời 70%
VR_COMMAND_ASK_USER_00272_072,Đã đóng rèm cửa sổ trời 71%
VR_COMMAND_ASK_USER_00272_073,Đã đóng rèm cửa sổ trời 72%
VR_COMMAND_ASK_USER_00272_074,Đã đóng rèm cửa sổ trời 73%
VR_COMMAND_ASK_USER_00272_075,Đã đóng rèm cửa sổ trời 74%
VR_COMMAND_ASK_USER_00272_076,Đã đóng rèm cửa sổ trời 75%
VR_COMMAND_ASK_USER_00272_077,Đã đóng rèm cửa sổ trời 76%
VR_COMMAND_ASK_USER_00272_078,Đã đóng rèm cửa sổ trời 77%
VR_COMMAND_ASK_USER_00272_079,Đã đóng rèm cửa sổ trời 78%
VR_COMMAND_ASK_USER_00272_080,Đã đóng rèm cửa sổ trời 79%
VR_COMMAND_ASK_USER_00272_081,Đã đóng rèm cửa sổ trời 80%
VR_COMMAND_ASK_USER_00272_082,Đã đóng rèm cửa sổ trời 81%
VR_COMMAND_ASK_USER_00272_083,Đã đóng rèm cửa sổ trời 82%
VR_COMMAND_ASK_USER_00272_084,Đã đóng rèm cửa sổ trời 83%
VR_COMMAND_ASK_USER_00272_085,Đã đóng rèm cửa sổ trời 84%
VR_COMMAND_ASK_USER_00272_086,Đã đóng rèm cửa sổ trời 85%
VR_COMMAND_ASK_USER_00272_087,Đã đóng rèm cửa sổ trời 86%
VR_COMMAND_ASK_USER_00272_088,Đã đóng rèm cửa sổ trời 87%
VR_COMMAND_ASK_USER_00272_089,Đã đóng rèm cửa sổ trời 88%
VR_COMMAND_ASK_USER_00272_090,Đã đóng rèm cửa sổ trời 89%
VR_COMMAND_ASK_USER_00272_091,Đã đóng rèm cửa sổ trời 90%
VR_COMMAND_ASK_USER_00272_092,Đã đóng rèm cửa sổ trời 91%
VR_COMMAND_ASK_USER_00272_093,Đã đóng rèm cửa sổ trời 92%
VR_COMMAND_ASK_USER_00272_094,Đã đóng rèm cửa sổ trời 93%
VR_COMMAND_ASK_USER_00272_095,Đã đóng rèm cửa sổ trời 94%
VR_COMMAND_ASK_USER_00272_096,Đã đóng rèm cửa sổ trời 95%
VR_COMMAND_ASK_USER_00272_097,Đã đóng rèm cửa sổ trời 96%
VR_COMMAND_ASK_USER_00272_098,Đã đóng rèm cửa sổ trời 97%
VR_COMMAND_ASK_USER_00272_099,Đã đóng rèm cửa sổ trời 98%
VR_COMMAND_ASK_USER_00272_100,Đã đóng rèm cửa sổ trời 99%
VR_COMMAND_ASK_USER_00272_101,Đã đóng rèm cửa sổ trời 100%
VR_COMMAND_ASK_USER_00273_001,Đã đóng kính cửa sổ trời 0%
VR_COMMAND_ASK_USER_00273_002,Đã đóng kính cửa sổ trời 1%
VR_COMMAND_ASK_USER_00273_003,Đã đóng kính cửa sổ trời 2%
VR_COMMAND_ASK_USER_00273_004,Đã đóng kính cửa sổ trời 3%
VR_COMMAND_ASK_USER_00273_005,Đã đóng kính cửa sổ trời 4%
VR_COMMAND_ASK_USER_00273_006,Đã đóng kính cửa sổ trời 5%
VR_COMMAND_ASK_USER_00273_007,Đã đóng kính cửa sổ trời 6%
VR_COMMAND_ASK_USER_00273_008,Đã đóng kính cửa sổ trời 7%
VR_COMMAND_ASK_USER_00273_009,Đã đóng kính cửa sổ trời 8%
VR_COMMAND_ASK_USER_00273_010,Đã đóng kính cửa sổ trời 9%
VR_COMMAND_ASK_USER_00273_011,Đã đóng kính cửa sổ trời 10%
VR_COMMAND_ASK_USER_00273_012,Đã đóng kính cửa sổ trời 11%
VR_COMMAND_ASK_USER_00273_013,Đã đóng kính cửa sổ trời 12%
VR_COMMAND_ASK_USER_00273_014,Đã đóng kính cửa sổ trời 13%
VR_COMMAND_ASK_USER_00273_015,Đã đóng kính cửa sổ trời 14%
VR_COMMAND_ASK_USER_00273_016,Đã đóng kính cửa sổ trời 15%
VR_COMMAND_ASK_USER_00273_017,Đã đóng kính cửa sổ trời 16%
VR_COMMAND_ASK_USER_00273_018,Đã đóng kính cửa sổ trời 17%
VR_COMMAND_ASK_USER_00273_019,Đã đóng kính cửa sổ trời 18%
VR_COMMAND_ASK_USER_00273_020,Đã đóng kính cửa sổ trời 19%
VR_COMMAND_ASK_USER_00273_021,Đã đóng kính cửa sổ trời 20%
VR_COMMAND_ASK_USER_00273_022,Đã đóng kính cửa sổ trời 21%
VR_COMMAND_ASK_USER_00273_023,Đã đóng kính cửa sổ trời 22%
VR_COMMAND_ASK_USER_00273_024,Đã đóng kính cửa sổ trời 23%
VR_COMMAND_ASK_USER_00273_025,Đã đóng kính cửa sổ trời 24%
VR_COMMAND_ASK_USER_00273_026,Đã đóng kính cửa sổ trời 25%
VR_COMMAND_ASK_USER_00273_027,Đã đóng kính cửa sổ trời 26%
VR_COMMAND_ASK_USER_00273_028,Đã đóng kính cửa sổ trời 27%
VR_COMMAND_ASK_USER_00273_029,Đã đóng kính cửa sổ trời 28%
VR_COMMAND_ASK_USER_00273_030,Đã đóng kính cửa sổ trời 29%
VR_COMMAND_ASK_USER_00273_031,Đã đóng kính cửa sổ trời 30%
VR_COMMAND_ASK_USER_00273_032,Đã đóng kính cửa sổ trời 31%
VR_COMMAND_ASK_USER_00273_033,Đã đóng kính cửa sổ trời 32%
VR_COMMAND_ASK_USER_00273_034,Đã đóng kính cửa sổ trời 33%
VR_COMMAND_ASK_USER_00273_035,Đã đóng kính cửa sổ trời 34%
VR_COMMAND_ASK_USER_00273_036,Đã đóng kính cửa sổ trời 35%
VR_COMMAND_ASK_USER_00273_037,Đã đóng kính cửa sổ trời 36%
VR_COMMAND_ASK_USER_00273_038,Đã đóng kính cửa sổ trời 37%
VR_COMMAND_ASK_USER_00273_039,Đã đóng kính cửa sổ trời 38%
VR_COMMAND_ASK_USER_00273_040,Đã đóng kính cửa sổ trời 39%
VR_COMMAND_ASK_USER_00273_041,Đã đóng kính cửa sổ trời 40%
VR_COMMAND_ASK_USER_00273_042,Đã đóng kính cửa sổ trời 41%
VR_COMMAND_ASK_USER_00273_043,Đã đóng kính cửa sổ trời 42%
VR_COMMAND_ASK_USER_00273_044,Đã đóng kính cửa sổ trời 43%
VR_COMMAND_ASK_USER_00273_045,Đã đóng kính cửa sổ trời 44%
VR_COMMAND_ASK_USER_00273_046,Đã đóng kính cửa sổ trời 45%
VR_COMMAND_ASK_USER_00273_047,Đã đóng kính cửa sổ trời 46%
VR_COMMAND_ASK_USER_00273_048,Đã đóng kính cửa sổ trời 47%
VR_COMMAND_ASK_USER_00273_049,Đã đóng kính cửa sổ trời 48%
VR_COMMAND_ASK_USER_00273_050,Đã đóng kính cửa sổ trời 49%
VR_COMMAND_ASK_USER_00273_051,Đã đóng kính cửa sổ trời 50%
VR_COMMAND_ASK_USER_00273_052,Đã đóng kính cửa sổ trời 51%
VR_COMMAND_ASK_USER_00273_053,Đã đóng kính cửa sổ trời 52%
VR_COMMAND_ASK_USER_00273_054,Đã đóng kính cửa sổ trời 53%
VR_COMMAND_ASK_USER_00273_055,Đã đóng kính cửa sổ trời 54%
VR_COMMAND_ASK_USER_00273_056,Đã đóng kính cửa sổ trời 55%
VR_COMMAND_ASK_USER_00273_057,Đã đóng kính cửa sổ trời 56%
VR_COMMAND_ASK_USER_00273_058,Đã đóng kính cửa sổ trời 57%
VR_COMMAND_ASK_USER_00273_059,Đã đóng kính cửa sổ trời 58%
VR_COMMAND_ASK_USER_00273_060,Đã đóng kính cửa sổ trời 59%
VR_COMMAND_ASK_USER_00273_061,Đã đóng kính cửa sổ trời 60%
VR_COMMAND_ASK_USER_00273_062,Đã đóng kính cửa sổ trời 61%
VR_COMMAND_ASK_USER_00273_063,Đã đóng kính cửa sổ trời 62%
VR_COMMAND_ASK_USER_00273_064,Đã đóng kính cửa sổ trời 63%
VR_COMMAND_ASK_USER_00273_065,Đã đóng kính cửa sổ trời 64%
VR_COMMAND_ASK_USER_00273_066,Đã đóng kính cửa sổ trời 65%
VR_COMMAND_ASK_USER_00273_067,Đã đóng kính cửa sổ trời 66%
VR_COMMAND_ASK_USER_00273_068,Đã đóng kính cửa sổ trời 67%
VR_COMMAND_ASK_USER_00273_069,Đã đóng kính cửa sổ trời 68%
VR_COMMAND_ASK_USER_00273_070,Đã đóng kính cửa sổ trời 69%
VR_COMMAND_ASK_USER_00273_071,Đã đóng kính cửa sổ trời 70%
VR_COMMAND_ASK_USER_00273_072,Đã đóng kính cửa sổ trời 71%
VR_COMMAND_ASK_USER_00273_073,Đã đóng kính cửa sổ trời 72%
VR_COMMAND_ASK_USER_00273_074,Đã đóng kính cửa sổ trời 73%
VR_COMMAND_ASK_USER_00273_075,Đã đóng kính cửa sổ trời 74%
VR_COMMAND_ASK_USER_00273_076,Đã đóng kính cửa sổ trời 75%
VR_COMMAND_ASK_USER_00273_077,Đã đóng kính cửa sổ trời 76%
VR_COMMAND_ASK_USER_00273_078,Đã đóng kính cửa sổ trời 77%
VR_COMMAND_ASK_USER_00273_079,Đã đóng kính cửa sổ trời 78%
VR_COMMAND_ASK_USER_00273_080,Đã đóng kính cửa sổ trời 79%
VR_COMMAND_ASK_USER_00273_081,Đã đóng kính cửa sổ trời 80%
VR_COMMAND_ASK_USER_00273_082,Đã đóng kính cửa sổ trời 81%
VR_COMMAND_ASK_USER_00273_083,Đã đóng kính cửa sổ trời 82%
VR_COMMAND_ASK_USER_00273_084,Đã đóng kính cửa sổ trời 83%
VR_COMMAND_ASK_USER_00273_085,Đã đóng kính cửa sổ trời 84%
VR_COMMAND_ASK_USER_00273_086,Đã đóng kính cửa sổ trời 85%
VR_COMMAND_ASK_USER_00273_087,Đã đóng kính cửa sổ trời 86%
VR_COMMAND_ASK_USER_00273_088,Đã đóng kính cửa sổ trời 87%
VR_COMMAND_ASK_USER_00273_089,Đã đóng kính cửa sổ trời 88%
VR_COMMAND_ASK_USER_00273_090,Đã đóng kính cửa sổ trời 89%
VR_COMMAND_ASK_USER_00273_091,Đã đóng kính cửa sổ trời 90%
VR_COMMAND_ASK_USER_00273_092,Đã đóng kính cửa sổ trời 91%
VR_COMMAND_ASK_USER_00273_093,Đã đóng kính cửa sổ trời 92%
VR_COMMAND_ASK_USER_00273_094,Đã đóng kính cửa sổ trời 93%
VR_COMMAND_ASK_USER_00273_095,Đã đóng kính cửa sổ trời 94%
VR_COMMAND_ASK_USER_00273_096,Đã đóng kính cửa sổ trời 95%
VR_COMMAND_ASK_USER_00273_097,Đã đóng kính cửa sổ trời 96%
VR_COMMAND_ASK_USER_00273_098,Đã đóng kính cửa sổ trời 97%
VR_COMMAND_ASK_USER_00273_099,Đã đóng kính cửa sổ trời 98%
VR_COMMAND_ASK_USER_00273_100,Đã đóng kính cửa sổ trời 99%
VR_COMMAND_ASK_USER_00273_101,Đã đóng kính cửa sổ trời 100%