id,sent,norm
ES03_BasicSentences_001,¿Cómo te llamas?,                         ¿Cómo te llamas ?                         
ES03_BasicSentences_002,Me llamo (María).,                         Me llamo ( María ) .                         
ES03_BasicSentences_003,Soy (María García).,                         Soy ( María García ) .                         
ES03_BasicSentences_004,Me llamo (Fernando).,                         Me llamo ( Fernando ) .                         
ES03_BasicSentences_005,Soy Fernando Crespo.,                         Soy Fernando Crespo .                         
ES03_BasicSentences_006,¡Hola! ¿Qué tal?,                         ¡Hola ! ¿Qué tal ?                         
ES03_BasicSentences_007,Encantado de conocerle (conocerte).,                         Encantado de conocerle ( conocerte ) .                         
ES03_BasicSentences_008,Mucho gusto (en conocerte).,                         Mucho gusto ( en conocerte ) .                         
ES03_BasicSentences_009,¡Cuántas ganas tenía de conocerte!,                         ¡Cuántas ganas tenía de conocerte !                         
ES03_BasicSentences_010,"¡Adiós, hasta luego!","                         ¡Adiós , hasta luego !                         "
ES03_BasicSentences_011,¿Quién es?,                         ¿Quién es ?                         
ES03_BasicSentences_012,¿Qué es?,                         ¿Qué es ?                         
ES03_BasicSentences_013,¿Dónde es?,                         ¿Dónde es ?                         
ES03_BasicSentences_014,¿Dónde está?,                         ¿Dónde está ?                         
ES03_BasicSentences_015,¿Cuánto es?,                         ¿Cuánto es ?                         
ES03_BasicSentences_016,¿Cómo es?,                         ¿Cómo es ?                         
ES03_BasicSentences_017,¿Cuánto cuesta?,                         ¿Cuánto cuesta ?                         
ES03_BasicSentences_018,¿Cuánto debo?,                         ¿Cuánto debo ?                         
ES03_BasicSentences_019,¿Qué precio tiene?,                         ¿Qué precio tiene ?                         
ES03_BasicSentences_020,¿De dónde eres?,                         ¿De dónde eres ?                         
ES03_BasicSentences_021,¿De dónde vienes?,                         ¿De dónde vienes ?                         
ES03_BasicSentences_022,¿A dónde vas?,                         ¿A dónde vas ?                         
ES03_BasicSentences_023,¿Qué hora es?,                         ¿Qué hora es ?                         
ES03_BasicSentences_024,Estoy casado/a.,                         Estoy casado/a .                         
ES03_BasicSentences_025,Estoy soltero/a.,                         Estoy soltero/a .                         
ES03_BasicSentences_026,Soy español/a.,                         Soy español/a .                         
ES03_BasicSentences_027,"Soy estadounidense (francés, inglés, alemán, chino, brasileño, portugués…). 28. Soy estudiante de español.","                         Soy estadounidense ( francés , inglés , alemán , chino , brasileño , portugués… ) .  veintiocho  . Soy estudiante de español .                         "
ES03_BasicSentences_028,Soy estudiante universitario.,                         Soy estudiante universitario .                         
ES03_BasicSentences_029,"Soy médico (periodista, abogado, ingeniero, economista…).","                         Soy médico ( periodista , abogado , ingeniero , economista… ) .                         "
ES03_BasicSentences_030,Viajo por estudios.,                         Viajo por estudios .                         
ES03_BasicSentences_031,Viajo por negocios.,                         Viajo por negocios .                         
ES03_BasicSentences_032,Tengo hambre.,                         Tengo hambre .                         
ES03_BasicSentences_033,Tengo sueño.,                         Tengo sueño .                         
ES03_BasicSentences_034,Estoy cansado.,                         Estoy cansado .                         
ES03_BasicSentences_035,Estoy perdido / Estoy perdida.,                         Estoy perdido / Estoy perdida .                         
ES03_BasicSentences_036,Quiero un café con leche.,                         Quiero un café con leche .                         
ES03_BasicSentences_037,Quiero un desayuno completo.,                         Quiero un desayuno completo .                         
ES03_BasicSentences_038,Quiero reservar una mesa para comer (cenar).,                         Quiero reservar una mesa para comer ( cenar ) .                         
ES03_BasicSentences_039,¿Comemos de ‘picoteo’?,                         ¿Comemos de ‘ picoteo ’ ?                         
ES03_BasicSentences_040,"La cuenta, por favor.","                         La cuenta , por favor .                         "
ES03_BasicSentences_041,Quedamos a merendar.,                         Quedamos a merendar .                         
ES03_BasicSentences_042,Los niños quieren merendar.,                         Los niños quieren merendar .                         
ES03_BasicSentences_043,¿Qué menú hay hoy?,                         ¿Qué menú hay hoy ?                         
ES03_BasicSentences_044,¿Cuánto cuesta el autobús?,                         ¿Cuánto cuesta el autobús ?                         
ES03_BasicSentences_045,¿Puedo sacar un bono de metro?,                         ¿Puedo sacar un bono de metro ?                         
ES03_BasicSentences_046,¿La boca de metro más próxima?,                         ¿La boca de metro más próxima ?                         
ES03_BasicSentences_047,Podemos ir andando.,                         Podemos ir andando .                         
ES03_BasicSentences_048,¿Dónde se puede comer bueno y barato?,                         ¿Dónde se puede comer bueno y barato ?                         
ES03_BasicSentences_049,Hoy comemos pronto.,                         Hoy comemos pronto .                         
ES03_BasicSentences_050,Hoy comemos tarde.,                         Hoy comemos tarde .                         
ES03_BasicSentences_051,¿Cuántos hermanos tienes?,                         ¿Cuántos hermanos tienes ?                         
ES03_BasicSentences_052,¿Cuántos hijos tienes?,                         ¿Cuántos hijos tienes ?                         
ES03_BasicSentences_053,Solo somos amigos.,                         Solo somos amigos .                         
ES03_BasicSentences_054,"Este es mi padre ( esposo, hermano, hijo, amigo, compañero, novio…).","                         Este es mi padre ( esposo , hermano , hijo , amigo , compañero , novio… ) .                         "
ES03_BasicSentences_055,"Esta es mi madre (esposa, hermana, hija, amiga, compañera, novia…).","                         Esta es mi madre ( esposa , hermana , hija , amiga , compañera , novia… ) .                         "
ES03_BasicSentences_056,Estoy de visita.,                         Estoy de visita .                         
ES03_BasicSentences_057,Soy estudiante.,                         Soy estudiante .                         
ES03_BasicSentences_058,Necesito encontrar alojamiento.,                         Necesito encontrar alojamiento .                         
ES03_BasicSentences_059,Busco un hotel céntrico.,                         Busco un hotel céntrico .                         
ES03_BasicSentences_060,Me duele la cabeza.,                         Me duele la cabeza .                         
ES03_BasicSentences_061,Necesito un dentista.,                         Necesito un dentista .                         
ES03_BasicSentences_062,Necesito ir al médico.,                         Necesito ir al médico .                         
ES03_BasicSentences_063,¿Dónde hay un hospital?,                         ¿Dónde hay un hospital ?                         
ES03_BasicSentences_064,¿Dónde hay un aparcamiento?,                         ¿Dónde hay un aparcamiento ?                         
ES03_BasicSentences_065,¿Dónde hay un garaje?,                         ¿Dónde hay un garaje ?                         
ES03_BasicSentences_066,Mi coche no arranca.,                         Mi coche no arranca .                         
ES03_BasicSentences_067,Cómo voy al Museo del Prado.,                         Cómo voy al Museo del Prado .                         
ES03_BasicSentences_068,¿Qué exposiciones puedo ver?,                         ¿Qué exposiciones puedo ver ?                         
ES03_BasicSentences_069,¿Hay conexión wi-fi?,                         ¿Hay conexión wi-fi ?                         
ES03_BasicSentences_070,He perdido el teléfono móvil.,                         He perdido el teléfono móvil .                         
ES03_BasicSentences_071,¿Dónde hay una comisaría de policía?,                         ¿Dónde hay una comisaría de policía ?                         
ES03_BasicSentences_072,Necesito denunciar un robo.,                         Necesito denunciar un robo .                         
ES03_BasicSentences_073,Busco un supermercado.,                         Busco un supermercado .                         
ES03_BasicSentences_074,Tengo que hacer la compra.,                         Tengo que hacer la compra .                         
ES03_BasicSentences_075,¿Cuál es la mejor zona para ir de compras?,                         ¿Cuál es la mejor zona para ir de compras ?                         
ES03_BasicSentences_076,Quiero ir al mar.,                         Quiero ir al mar .                         
ES03_BasicSentences_077,Quiero ir a la playa.,                         Quiero ir a la playa .                         
ES03_BasicSentences_078,¿Dónde hay un centro comercial?,                         ¿Dónde hay un centro comercial ?                         
ES03_BasicSentences_079,¿Quieres una cañita (de cerveza)?,                         ¿Quieres una cañita ( de cerveza ) ?                         
ES03_BasicSentences_080,¿Tomamos el aperitivo?,                         ¿Tomamos el aperitivo ?                         
ES03_BasicSentences_081,¿Quedamos para tomar el aperitivo?,                         ¿Quedamos para tomar el aperitivo ?                         
ES03_BasicSentences_082,Necesito ir al banco.,                         Necesito ir al banco .                         
ES03_BasicSentences_083,¿Dónde puedo cambiar moneda?,                         ¿Dónde puedo cambiar moneda ?                         
ES03_BasicSentences_084,¿Dónde hay un cajero automático?,                         ¿Dónde hay un cajero automático ?                         
ES03_BasicSentences_085,Me han invitado a casa de unos amigos.,                         Me han invitado a casa de unos amigos .                         
ES03_BasicSentences_086,¿Dónde puedo comprar bombones?,                         ¿Dónde puedo comprar bombones ?                         
ES03_BasicSentences_087,¿Dónde puedo comprar flores?,                         ¿Dónde puedo comprar flores ?                         
ES03_BasicSentences_088,¿Hay ducha en la playa?,                         ¿Hay ducha en la playa ?                         
ES03_BasicSentences_089,¿Dónde está la caseta de la Cruz Roja?,                         ¿Dónde está la caseta de la Cruz Roja ?                         
ES03_BasicSentences_090,¿Está buena el agua?,                         ¿Está buena el agua ?                         
ES03_BasicSentences_091,Voy a dormir una siesta.,                         Voy a dormir una siesta .                         
ES03_BasicSentences_092,Es más joven que tú.,                         Es más joven que tú .                         
ES03_BasicSentences_093,Soy más vieja que tú.,                         Soy más vieja que tú .                         
ES03_BasicSentences_094,Es más alto y más fuerte.,                         Es más alto y más fuerte .                         
ES03_BasicSentences_095,Es muy simpático.,                         Es muy simpático .                         
ES03_BasicSentences_096,Está enfadado.,                         Está enfadado .                         
ES03_BasicSentences_097,Se ha enfadado.,                         Se ha enfadado .                         
ES03_BasicSentences_098,Estoy muy contento/a.,                         Estoy muy contento/a .                         
ES03_BasicSentences_099,¿A qué hora quieres que te recoja?,                         ¿A qué hora quieres que te recoja ?                         
ES03_BasicSentences_100,¿Cuál es la noticia del día?,                         ¿Cuál es la noticia del día ?                         
ES03_BasicSentences_101,¡Dime algo!,                         ¡Dime algo !                         
ES03_BasicSentences_102,¡Muchas gracias por todo!,                         ¡Muchas gracias por todo !                         
ES03_BasicSentences_103,Hola.,                         Hola .                         
ES03_BasicSentences_104,Buenos días.,                         Buenos días .                         
ES03_BasicSentences_105,Buenas tardes.,                         Buenas tardes .                         
ES03_BasicSentences_106,Buenas noches.,                         Buenas noches .                         
ES03_BasicSentences_107,Hasta luego.,                         Hasta luego .                         
ES03_BasicSentences_108,Hasta mañana.,                         Hasta mañana .                         
ES03_BasicSentences_109,Gracias.,                         Gracias .                         
ES03_BasicSentences_110,De nada.,                         De nada .                         
ES03_BasicSentences_111,Quiero presentarte a mi novio.,                         Quiero presentarte a mi novio .                         
ES03_BasicSentences_112,Mucho gusto.,                         Mucho gusto .                         
ES03_BasicSentences_113,¿Cómo te va?,                         ¿Cómo te va ?                         
ES03_BasicSentences_114,Muy bien.,                         Muy bien .                         
ES03_BasicSentences_115,Todo bien.,                         Todo bien .                         
ES03_BasicSentences_116,Todo legal.,                         Todo legal .                         
ES03_BasicSentences_117,¿Qué hay de nuevo?,                         ¿Qué hay de nuevo ?                         
ES03_BasicSentences_118,"Nada, todo igual.","                         Nada , todo igual .                         "
ES03_BasicSentences_119,¿Hablas portugués?,                         ¿Hablas portugués ?                         
ES03_BasicSentences_120,¿A qué hora nos encontramos?,                         ¿A qué hora nos encontramos ?                         
ES03_BasicSentences_121,A las cinco de la tarde.,                         A las cinco de la tarde .                         
ES03_BasicSentences_122,"Ok, de acuerdo.","                         Ok , de acuerdo .                         "
ES03_BasicSentences_123,"Soy de Argentina, estoy aquí tomando unas vacaciones.","                         Soy de Argentina , estoy aquí tomando unas vacaciones .                         "
ES03_BasicSentences_124,¿Estás solo?,                         ¿Estás solo ?                         
ES03_BasicSentences_125,Te quiero mucho/Me gustas mucho.,                         Te quiero mucho/Me gustas mucho .                         
ES03_BasicSentences_126,Te gusta bailar?,                         Te gusta bailar ?                         
ES03_BasicSentences_127,¿Nos vamos?,                         ¿Nos vamos ?                         
ES03_BasicSentences_128,Quiero ir a comprar ropa.,                         Quiero ir a comprar ropa .                         
ES03_BasicSentences_129,¿Cuánto es?,                         ¿Cuánto es ?                         
ES03_BasicSentences_130,¿Puedo pagar con tarjeta de crédito?,                         ¿Puedo pagar con tarjeta de crédito ?                         
ES03_BasicSentences_131,"No, solo al contado.","                         No , solo al contado .                         "
ES03_BasicSentences_132,¿Cuál es el precio?,                         ¿Cuál es el precio ?                         
ES03_BasicSentences_133,Pero ese precio está equivocado.,                         Pero ese precio está equivocado .                         
ES03_BasicSentences_134,¿Puedo hablar con el responsable?,                         ¿Puedo hablar con el responsable ?                         
ES03_BasicSentences_135,"No, ahora él no está.","                         No , ahora él no está .                         "
ES03_BasicSentences_136,"Bueno, vámonos.","                         Bueno , vámonos .                         "
ES03_BasicSentences_137,¿Tienes hambre?,                         ¿Tienes hambre ?                         
ES03_BasicSentences_138,"Sí, tengo mucha hambre.","                         Sí , tengo mucha hambre .                         "
ES03_BasicSentences_139,¿Quieres almorzar en un restaurante cerca de aquí?,                         ¿Quieres almorzar en un restaurante cerca de aquí ?                         
ES03_BasicSentences_140,¡Vamos!,                         ¡Vamos !                         
ES03_BasicSentences_141,¿Tendrá estacionamiento?,                         ¿Tendrá estacionamiento ?                         
ES03_BasicSentences_142,Creo que sí.,                         Creo que sí .                         
ES03_BasicSentences_143,También podemos ir en taxi.,                         También podemos ir en taxi .                         
ES03_BasicSentences_144,Pero yo prefiero ir con el auto.,                         Pero yo prefiero ir con el auto .                         
ES03_BasicSentences_145,"OK, vamos con el auto.","                         OK , vamos con el auto .                         "
ES03_BasicSentences_146,Quiero un vaso de agua/vino/gaseosa.,                         Quiero un vaso de agua/vino/gaseosa .                         
ES03_BasicSentences_147,Quiero jugo de naranja/ananá/durazno.,                         Quiero jugo de naranja/ananá/durazno .                         
ES03_BasicSentences_148,No tengo tenedor/cuchillo/cuchara/plato.,                         No tengo tenedor/cuchillo/cuchara/plato .                         
ES03_BasicSentences_149,¿Qué me recomienda?,                         ¿Qué me recomienda ?                         
ES03_BasicSentences_150,¿Puede traerme la carta/el menú+B95?,                         ¿Puede traerme la carta/el menú+B noventa y cinco  ?                         
ES03_BasicSentences_151,¿Haces traducciones de portugués?,                         ¿Haces traducciones de portugués ?                         
ES03_BasicSentences_152,¿Eres traductora de portugués?,                         ¿Eres traductora de portugués ?                         
ES03_BasicSentences_153,¿Quieres tomar un café o prefieres un té?,                         ¿Quieres tomar un café o prefieres un té ?                         
ES03_BasicSentences_154,Prefiero un café.,                         Prefiero un café .                         
ES03_BasicSentences_155,¿Lloverá mañana?,                         ¿Lloverá mañana ?                         
ES03_BasicSentences_156,No sé.,                         No sé .                         
ES03_BasicSentences_157,¡Dios! No me gusta la lluvia.,                         ¡Dios ! No me gusta la lluvia .                         
ES03_BasicSentences_158,Me gusta el sol.,                         Me gusta el sol .                         
ES03_BasicSentences_159,¿Mañana tienes una reunión en la oficina?,                         ¿Mañana tienes una reunión en la oficina ?                         
ES03_BasicSentences_160,"Sí, a las 8 de la mañana, tenemos una cita con el traductor de portugués.","                         Sí , a las  ocho  de la mañana , tenemos una cita con el traductor de portugués .                         "
ES03_BasicSentences_161,No te olvides de llevar tu carpeta con los papeles del proyecto.,                         No te olvides de llevar tu carpeta con los papeles del proyecto .                         
ES03_BasicSentences_162,"No, no me voy a olvidar.","                         No , no me voy a olvidar .                         "
ES03_BasicSentences_163,¿El traductor se queda mucho tiempo en Brasil?,                         ¿El traductor se queda mucho tiempo en Brasil ?                         
ES03_BasicSentences_164,"No, solo dos días.","                         No , solo dos días .                         "
ES03_BasicSentences_165,Se va el viernes.,                         Se va el viernes .                         
ES03_BasicSentences_166,¿Cómo se dice domingo en portugués?,                         ¿Cómo se dice domingo en portugués ?                         
ES03_BasicSentences_167,¿Cómo se pronuncia esa palabra?,                         ¿Cómo se pronuncia esa palabra ?                         
ES03_BasicSentences_168,¿Estás listo?,                         ¿Estás listo ?                         
ES03_BasicSentences_169,Eso no me gusta.,                         Eso no me gusta .                         
ES03_BasicSentences_170,¿Dónde está el baño?,                         ¿Dónde está el baño ?                         
ES03_BasicSentences_171,Tengo clase de portugués.,                         Tengo clase de portugués .                         
ES03_BasicSentences_172,Hoy estoy disponible.,                         Hoy estoy disponible .                         
ES03_BasicSentences_173,Manejas muy rápido.,                         Manejas muy rápido .                         
ES03_BasicSentences_174,Estoy enojado.,                         Estoy enojado .                         
ES03_BasicSentences_175,Estoy molesto.,                         Estoy molesto .                         
ES03_BasicSentences_176,Estoy cansado.,                         Estoy cansado .                         
ES03_BasicSentences_177,Estoy contento.,                         Estoy contento .                         
ES03_BasicSentences_178,Tengo miedo.,                         Tengo miedo .                         
ES03_BasicSentences_179,Compré dos entradas para el recital/show de Chico.,                         Compré dos entradas para el recital/show de Chico .                         
ES03_BasicSentences_180,"Me siento mal, estoy enfermo.","                         Me siento mal , estoy enfermo .                         "
ES03_BasicSentences_181,¿Puede sacar una fotografía?,                         ¿Puede sacar una fotografía ?                         
ES03_BasicSentences_182,¿Le gustaría visitar la catedral?,                         ¿Le gustaría visitar la catedral ?                         
ES03_BasicSentences_183,¿A qué hora comienza el show?,                         ¿A qué hora comienza el show ?                         
ES03_BasicSentences_184,¿La parada de autobús queda lejos?,                         ¿La parada de autobús queda lejos ?                         
ES03_BasicSentences_185,Me gustaría alquilar un coche.,                         Me gustaría alquilar un coche .                         
ES03_BasicSentences_186,¿Ya visitaste el Pan de Acúcar?,                         ¿Ya visitaste el Pan de Acúcar ?                         
